{"failedCount":1,"prefixedPath":"features\/TestStatusCode.feature","packageQualifiedName":"features.TestStatusCode","loopIndex":-1,"relativePath":"features\/TestStatusCode.feature","scenarioResults":[{"sectionIndex":0,"stepResults":[{"result":{"nanos":1907308,"millis":1.907308,"status":"passed"},"step":{"line":4,"prefix":"Given","index":0,"text":"url 'https:\/\/reqres.in\/api\/users?page=2'"}},{"result":{"nanos":644506505,"millis":644.506505,"status":"passed"},"step":{"line":5,"prefix":"When","index":1,"text":"method GET"},"stepLog":"16:29:11.534 request:\n1 > GET https:\/\/reqres.in\/api\/users?page=2\n1 > Host: reqres.in\n1 > Connection: Keep-Alive\n1 > User-Agent: Apache-HttpClient\/4.5.14 (Java\/17.0.6)\n1 > Accept-Encoding: gzip,deflate\n\n\n16:29:11.935 response time in milliseconds: 396\n1 < 200\n1 < Date: Sun, 21 May 2023 11:27:35 GMT\n1 < Content-Type: application\/json; charset=utf-8\n1 < Transfer-Encoding: chunked\n1 < Connection: keep-alive\n1 < X-Powered-By: Express\n1 < Access-Control-Allow-Origin: *\n1 < Etag: W\/\"406-ut0vzoCuidvyMf8arZpMpJ6ZRDw\"\n1 < Via: 1.1 vegur\n1 < Cache-Control: max-age=14400\n1 < CF-Cache-Status: HIT\n1 < Age: 3542\n1 < Report-To: {\"endpoints\":[{\"url\":\"https:\\\/\\\/a.nel.cloudflare.com\\\/report\\\/v3?s=C68iZGRw8rVCMbdvGIruEblHCAqNvgriVslJCG5GlXDvocHsS6lpPo9mtNKGrouES0kqN6xKjfo2%2FxJtMZpH0J9ZzSoUsoSmLcl4lYbHQLuyyrFbxttTcLZMcw%3D%3D\"}],\"group\":\"cf-nel\",\"max_age\":604800}\n1 < NEL: {\"success_fraction\":0,\"report_to\":\"cf-nel\",\"max_age\":604800}\n1 < Vary: Accept-Encoding\n1 < Server: cloudflare\n1 < CF-RAY: 7cac7896cec69d4f-DME\n{\"page\":2,\"per_page\":6,\"total\":12,\"total_pages\":2,\"data\":[{\"id\":7,\"email\":\"michael.lawson@reqres.in\",\"first_name\":\"Michael\",\"last_name\":\"Lawson\",\"avatar\":\"https:\/\/reqres.in\/img\/faces\/7-image.jpg\"},{\"id\":8,\"email\":\"lindsay.ferguson@reqres.in\",\"first_name\":\"Lindsay\",\"last_name\":\"Ferguson\",\"avatar\":\"https:\/\/reqres.in\/img\/faces\/8-image.jpg\"},{\"id\":9,\"email\":\"tobias.funke@reqres.in\",\"first_name\":\"Tobias\",\"last_name\":\"Funke\",\"avatar\":\"https:\/\/reqres.in\/img\/faces\/9-image.jpg\"},{\"id\":10,\"email\":\"byron.fields@reqres.in\",\"first_name\":\"Byron\",\"last_name\":\"Fields\",\"avatar\":\"https:\/\/reqres.in\/img\/faces\/10-image.jpg\"},{\"id\":11,\"email\":\"george.edwards@reqres.in\",\"first_name\":\"George\",\"last_name\":\"Edwards\",\"avatar\":\"https:\/\/reqres.in\/img\/faces\/11-image.jpg\"},{\"id\":12,\"email\":\"rachel.howell@reqres.in\",\"first_name\":\"Rachel\",\"last_name\":\"Howell\",\"avatar\":\"https:\/\/reqres.in\/img\/faces\/12-image.jpg\"}],\"support\":{\"url\":\"https:\/\/reqres.in\/#support-heading\",\"text\":\"To keep ReqRes free, contributions towards server costs are appreciated!\"}}\n\n"},{"result":{"nanos":29028,"millis":0.029028,"status":"passed"},"step":{"line":6,"prefix":"Then","index":2,"text":"status 200"}}],"executorName":"main","line":3,"name":"Test a sample get api","description":"","durationMillis":646.442841,"startTime":1684679351159,"failed":false,"refId":"[1:3]","endTime":1684679351960,"exampleIndex":-1},{"sectionIndex":1,"stepResults":[{"result":{"nanos":175698336,"millis":175.698336,"status":"passed"},"step":{"line":10,"prefix":"*","index":0,"text":"def response = karate.exec('python tests\/test_status_code.py')"},"stepLog":"16:29:11.979 command: [python, tests\/test_status_code.py], working dir: null\n"},{"result":{"nanos":9703118,"errorMessage":"js failed:\n>>>>\n01: karate.extract(response)\n<<<<\norg.graalvm.polyglot.PolyglotException: TypeError: invokeMember (extract) on com.intuit.karate.core.ScenarioBridge failed due to: Arity error - expected: 3 actual: 1\n- <js>.:program(Unnamed:1)\n\nfeatures\/TestStatusCode.feature:11","millis":9.703118,"status":"failed"},"step":{"line":11,"prefix":"*","index":1,"text":"def answer = karate.extract(response)"},"stepLog":"16:29:12.161 features\/TestStatusCode.feature:11\n* def answer = karate.extract(response)\njs failed:\n>>>>\n01: karate.extract(response)\n<<<<\norg.graalvm.polyglot.PolyglotException: TypeError: invokeMember (extract) on com.intuit.karate.core.ScenarioBridge failed due to: Arity error - expected: 3 actual: 1\n- <js>.:program(Unnamed:1)\n\nfeatures\/TestStatusCode.feature:11\n"},{"result":{"nanos":0,"millis":0.0,"status":"skipped"},"step":{"line":12,"prefix":"Then","index":2,"text":"print answer"}}],"line":8,"description":"","durationMillis":185.401454,"failed":true,"error":"js failed:\n>>>>\n01: karate.extract(response)\n<<<<\norg.graalvm.polyglot.PolyglotException: TypeError: invokeMember (extract) on com.intuit.karate.core.ScenarioBridge failed due to: Arity error - expected: 3 actual: 1\n- <js>.:program(Unnamed:1)\n\nfeatures\/TestStatusCode.feature:11","executorName":"main","name":"Run python file","startTime":1684679351967,"refId":"[2:8]","endTime":1684679352161,"exampleIndex":-1}],"callDepth":0,"name":"sample api tests","description":"","resultDate":"2023-05-21 04:29:12 PM","durationMillis":831.844295,"passedCount":1}