{"failedCount":0,"prefixedPath":"features\/TestGetMethod.feature","packageQualifiedName":"features.TestGetMethod","loopIndex":-1,"relativePath":"features\/TestGetMethod.feature","scenarioResults":[{"sectionIndex":0,"stepResults":[{"result":{"nanos":843066,"millis":0.843066,"status":"passed"},"step":{"comments":["#  for every scenario"],"background":true,"line":5,"prefix":"*","index":0,"text":"url 'https:\/\/reqres.in\/api'"}},{"result":{"nanos":284135,"millis":0.284135,"status":"passed"},"step":{"comments":["# get all users len should be 6"],"line":9,"prefix":"Given","index":0,"text":"path '\/users'"}},{"result":{"nanos":1440514,"millis":1.440514,"status":"passed"},"step":{"line":10,"prefix":"And","index":1,"text":"param page = 2"}},{"result":{"nanos":398884371,"millis":398.884371,"status":"passed"},"step":{"line":11,"prefix":"When","index":2,"text":"method GET"},"stepLog":"20:26:51.660 request:\n1 > GET https:\/\/reqres.in\/api\/users?page=2\n1 > Host: reqres.in\n1 > Connection: Keep-Alive\n1 > User-Agent: Apache-HttpClient\/4.5.14 (Java\/17.0.6)\n1 > Accept-Encoding: gzip,deflate\n\n\n20:26:51.926 response time in milliseconds: 263\n1 < 200\n1 < Date: Sun, 21 May 2023 15:25:15 GMT\n1 < Content-Type: application\/json; charset=utf-8\n1 < Transfer-Encoding: chunked\n1 < Connection: keep-alive\n1 < X-Powered-By: Express\n1 < Access-Control-Allow-Origin: *\n1 < Etag: W\/\"406-ut0vzoCuidvyMf8arZpMpJ6ZRDw\"\n1 < Via: 1.1 vegur\n1 < Cache-Control: max-age=14400\n1 < CF-Cache-Status: HIT\n1 < Age: 3383\n1 < Report-To: {\"endpoints\":[{\"url\":\"https:\\\/\\\/a.nel.cloudflare.com\\\/report\\\/v3?s=kekKXK%2BGpTUKjl2AZ%2FO5s5lWJKjf3DMndG3IqRVx6Z2%2FC%2BsRgORqJS2IQuKuefUaTKjsuY2S%2F6Q0x7z3xNLtYJSJCHDMUCxhp%2BmoXU5zAs93eLOzFT9pUQ8C%2Bw%3D%3D\"}],\"group\":\"cf-nel\",\"max_age\":604800}\n1 < NEL: {\"success_fraction\":0,\"report_to\":\"cf-nel\",\"max_age\":604800}\n1 < Vary: Accept-Encoding\n1 < Server: cloudflare\n1 < CF-RAY: 7cadd4bb8b529d64-DME\n{\"page\":2,\"per_page\":6,\"total\":12,\"total_pages\":2,\"data\":[{\"id\":7,\"email\":\"michael.lawson@reqres.in\",\"first_name\":\"Michael\",\"last_name\":\"Lawson\",\"avatar\":\"https:\/\/reqres.in\/img\/faces\/7-image.jpg\"},{\"id\":8,\"email\":\"lindsay.ferguson@reqres.in\",\"first_name\":\"Lindsay\",\"last_name\":\"Ferguson\",\"avatar\":\"https:\/\/reqres.in\/img\/faces\/8-image.jpg\"},{\"id\":9,\"email\":\"tobias.funke@reqres.in\",\"first_name\":\"Tobias\",\"last_name\":\"Funke\",\"avatar\":\"https:\/\/reqres.in\/img\/faces\/9-image.jpg\"},{\"id\":10,\"email\":\"byron.fields@reqres.in\",\"first_name\":\"Byron\",\"last_name\":\"Fields\",\"avatar\":\"https:\/\/reqres.in\/img\/faces\/10-image.jpg\"},{\"id\":11,\"email\":\"george.edwards@reqres.in\",\"first_name\":\"George\",\"last_name\":\"Edwards\",\"avatar\":\"https:\/\/reqres.in\/img\/faces\/11-image.jpg\"},{\"id\":12,\"email\":\"rachel.howell@reqres.in\",\"first_name\":\"Rachel\",\"last_name\":\"Howell\",\"avatar\":\"https:\/\/reqres.in\/img\/faces\/12-image.jpg\"}],\"support\":{\"url\":\"https:\/\/reqres.in\/#support-heading\",\"text\":\"To keep ReqRes free, contributions towards server costs are appreciated!\"}}\n\n"},{"result":{"nanos":19355,"millis":0.019355,"status":"passed"},"step":{"line":12,"prefix":"Then","index":3,"text":"status 200"}},{"result":{"nanos":3268482,"millis":3.268482,"status":"passed"},"step":{"line":13,"prefix":"*","index":4,"text":"def total_users = response.data.length"}},{"result":{"nanos":9279960,"millis":9.27996,"status":"passed"},"step":{"line":14,"prefix":"And","index":5,"text":"match total_users == 6"}}],"executorName":"main","line":7,"name":"Get list of users","description":"","durationMillis":414.019883,"startTime":1684693611462,"failed":false,"refId":"[1:7]","endTime":1684693611959,"exampleIndex":-1},{"sectionIndex":1,"stepResults":[{"result":{"nanos":355190,"millis":0.35519,"status":"passed"},"step":{"comments":["#  for every scenario"],"background":true,"line":5,"prefix":"*","index":0,"text":"url 'https:\/\/reqres.in\/api'"}},{"result":{"nanos":204428,"millis":0.204428,"status":"passed"},"step":{"comments":["# get single user from list of users"],"line":18,"prefix":"Given","index":0,"text":"path '\/users'"}},{"result":{"nanos":280885,"millis":0.280885,"status":"passed"},"step":{"line":19,"prefix":"And","index":1,"text":"param page = 2"}},{"result":{"nanos":287288583,"millis":287.288583,"status":"passed"},"step":{"line":20,"prefix":"When","index":2,"text":"method GET"},"stepLog":"20:26:51.967 request:\n1 > GET https:\/\/reqres.in\/api\/users?page=2\n1 > Host: reqres.in\n1 > Connection: Keep-Alive\n1 > User-Agent: Apache-HttpClient\/4.5.14 (Java\/17.0.6)\n1 > Accept-Encoding: gzip,deflate\n\n\n20:26:52.250 response time in milliseconds: 280\n1 < 200\n1 < Date: Sun, 21 May 2023 15:25:15 GMT\n1 < Content-Type: application\/json; charset=utf-8\n1 < Transfer-Encoding: chunked\n1 < Connection: keep-alive\n1 < X-Powered-By: Express\n1 < Access-Control-Allow-Origin: *\n1 < Etag: W\/\"406-ut0vzoCuidvyMf8arZpMpJ6ZRDw\"\n1 < Via: 1.1 vegur\n1 < Cache-Control: max-age=14400\n1 < CF-Cache-Status: HIT\n1 < Age: 3383\n1 < Report-To: {\"endpoints\":[{\"url\":\"https:\\\/\\\/a.nel.cloudflare.com\\\/report\\\/v3?s=g0mY2mC%2BRIdwDcDZCO4QAP1%2Fu8RJIZ9Hy%2Fn9080l9oPnrPAgQK9My5smb2AomEUD5mOUU7kLhptvH40TOBgRNtnVL8Zix58Yc9Xxizl4x9NbOYiFVZZavCpZpw%3D%3D\"}],\"group\":\"cf-nel\",\"max_age\":604800}\n1 < NEL: {\"success_fraction\":0,\"report_to\":\"cf-nel\",\"max_age\":604800}\n1 < Vary: Accept-Encoding\n1 < Server: cloudflare\n1 < CF-RAY: 7cadd4bcc8f47b1f-DME\n{\"page\":2,\"per_page\":6,\"total\":12,\"total_pages\":2,\"data\":[{\"id\":7,\"email\":\"michael.lawson@reqres.in\",\"first_name\":\"Michael\",\"last_name\":\"Lawson\",\"avatar\":\"https:\/\/reqres.in\/img\/faces\/7-image.jpg\"},{\"id\":8,\"email\":\"lindsay.ferguson@reqres.in\",\"first_name\":\"Lindsay\",\"last_name\":\"Ferguson\",\"avatar\":\"https:\/\/reqres.in\/img\/faces\/8-image.jpg\"},{\"id\":9,\"email\":\"tobias.funke@reqres.in\",\"first_name\":\"Tobias\",\"last_name\":\"Funke\",\"avatar\":\"https:\/\/reqres.in\/img\/faces\/9-image.jpg\"},{\"id\":10,\"email\":\"byron.fields@reqres.in\",\"first_name\":\"Byron\",\"last_name\":\"Fields\",\"avatar\":\"https:\/\/reqres.in\/img\/faces\/10-image.jpg\"},{\"id\":11,\"email\":\"george.edwards@reqres.in\",\"first_name\":\"George\",\"last_name\":\"Edwards\",\"avatar\":\"https:\/\/reqres.in\/img\/faces\/11-image.jpg\"},{\"id\":12,\"email\":\"rachel.howell@reqres.in\",\"first_name\":\"Rachel\",\"last_name\":\"Howell\",\"avatar\":\"https:\/\/reqres.in\/img\/faces\/12-image.jpg\"}],\"support\":{\"url\":\"https:\/\/reqres.in\/#support-heading\",\"text\":\"To keep ReqRes free, contributions towards server costs are appreciated!\"}}\n\n"},{"result":{"nanos":6426504,"millis":6.426504,"status":"passed"},"step":{"line":21,"prefix":"*","index":3,"text":"def user_id  = response.data[0].id"}},{"result":{"nanos":3703156,"millis":3.703156,"status":"passed"},"step":{"line":22,"prefix":"*","index":4,"text":"def user_name = response.data[0].first_name"}},{"result":{"nanos":3518280,"millis":3.51828,"status":"passed"},"step":{"line":23,"prefix":"And","index":5,"text":"match user_id == 7"}},{"result":{"nanos":7220082,"millis":7.220082,"status":"passed"},"step":{"line":24,"prefix":"And","index":6,"text":"match user_name == 'Michael'"}}],"executorName":"main","line":16,"name":"Get single user","description":"","durationMillis":308.997108,"startTime":1684693611963,"failed":false,"refId":"[2:16]","endTime":1684693612276,"exampleIndex":-1},{"sectionIndex":2,"stepResults":[{"result":{"nanos":362982,"millis":0.362982,"status":"passed"},"step":{"comments":["#  for every scenario"],"background":true,"line":5,"prefix":"*","index":0,"text":"url 'https:\/\/reqres.in\/api'"}},{"result":{"nanos":124995456,"millis":124.995456,"status":"passed"},"step":{"line":27,"prefix":"*","index":0,"text":"def result = karate.exec('python tests\/test_runner.py')"},"stepLog":"20:26:52.300 command: [python, tests\/test_runner.py], working dir: null\n"},{"result":{"nanos":2790879,"millis":2.790879,"status":"passed"},"step":{"line":28,"prefix":"And","index":1,"text":"print result.length"},"stepLog":"20:26:52.420 [print] 0 \n"}],"executorName":"main","line":26,"name":"Run python file","description":"","durationMillis":128.149317,"startTime":1684693612290,"failed":false,"refId":"[3:26]","endTime":1684693612420,"exampleIndex":-1}],"callDepth":0,"name":"sample api tests","description":"","resultDate":"2023-05-21 08:26:52 PM","durationMillis":851.166308,"passedCount":3}