{"failedCount":1,"prefixedPath":"features\/TestStatusCode.feature","packageQualifiedName":"features.TestStatusCode","loopIndex":-1,"relativePath":"features\/TestStatusCode.feature","scenarioResults":[{"sectionIndex":0,"stepResults":[{"result":{"nanos":1010940,"millis":1.01094,"status":"passed"},"step":{"line":4,"prefix":"Given","index":0,"text":"url 'https:\/\/reqres.in\/api\/users?page=2'"}},{"result":{"nanos":408965040,"millis":408.96504,"status":"passed"},"step":{"line":5,"prefix":"When","index":1,"text":"method get"},"stepLog":"15:49:22.765 request:\n1 > GET https:\/\/reqres.in\/api\/users?page=2\n1 > Host: reqres.in\n1 > Connection: Keep-Alive\n1 > User-Agent: Apache-HttpClient\/4.5.14 (Java\/17.0.6)\n1 > Accept-Encoding: gzip,deflate\n\n\n15:49:23.043 response time in milliseconds: 275\n1 < 200\n1 < Date: Sun, 21 May 2023 10:47:46 GMT\n1 < Content-Type: application\/json; charset=utf-8\n1 < Transfer-Encoding: chunked\n1 < Connection: keep-alive\n1 < X-Powered-By: Express\n1 < Access-Control-Allow-Origin: *\n1 < Etag: W\/\"406-ut0vzoCuidvyMf8arZpMpJ6ZRDw\"\n1 < Via: 1.1 vegur\n1 < Cache-Control: max-age=14400\n1 < CF-Cache-Status: HIT\n1 < Age: 1153\n1 < Report-To: {\"endpoints\":[{\"url\":\"https:\\\/\\\/a.nel.cloudflare.com\\\/report\\\/v3?s=636a57WDl%2B7bAVDJV5u7im3EPrHRQn3aW1eu6NEMl2aiaNIR21MuJdlOL1JR3%2FWXs096MzsieZtflDpl0%2Fx9gofvgZuahz36%2BjJPYbKPUL0I%2BX5wvJsSdMGf3A%3D%3D\"}],\"group\":\"cf-nel\",\"max_age\":604800}\n1 < NEL: {\"success_fraction\":0,\"report_to\":\"cf-nel\",\"max_age\":604800}\n1 < Vary: Accept-Encoding\n1 < Server: cloudflare\n1 < CF-RAY: 7cac3e445a809d57-DME\n{\"page\":2,\"per_page\":6,\"total\":12,\"total_pages\":2,\"data\":[{\"id\":7,\"email\":\"michael.lawson@reqres.in\",\"first_name\":\"Michael\",\"last_name\":\"Lawson\",\"avatar\":\"https:\/\/reqres.in\/img\/faces\/7-image.jpg\"},{\"id\":8,\"email\":\"lindsay.ferguson@reqres.in\",\"first_name\":\"Lindsay\",\"last_name\":\"Ferguson\",\"avatar\":\"https:\/\/reqres.in\/img\/faces\/8-image.jpg\"},{\"id\":9,\"email\":\"tobias.funke@reqres.in\",\"first_name\":\"Tobias\",\"last_name\":\"Funke\",\"avatar\":\"https:\/\/reqres.in\/img\/faces\/9-image.jpg\"},{\"id\":10,\"email\":\"byron.fields@reqres.in\",\"first_name\":\"Byron\",\"last_name\":\"Fields\",\"avatar\":\"https:\/\/reqres.in\/img\/faces\/10-image.jpg\"},{\"id\":11,\"email\":\"george.edwards@reqres.in\",\"first_name\":\"George\",\"last_name\":\"Edwards\",\"avatar\":\"https:\/\/reqres.in\/img\/faces\/11-image.jpg\"},{\"id\":12,\"email\":\"rachel.howell@reqres.in\",\"first_name\":\"Rachel\",\"last_name\":\"Howell\",\"avatar\":\"https:\/\/reqres.in\/img\/faces\/12-image.jpg\"}],\"support\":{\"url\":\"https:\/\/reqres.in\/#support-heading\",\"text\":\"To keep ReqRes free, contributions towards server costs are appreciated!\"}}\n\n"},{"result":{"nanos":17150,"millis":0.01715,"status":"passed"},"step":{"line":6,"prefix":"Then","index":2,"text":"status 200"}}],"executorName":"main","line":3,"name":"Test a sample get api","description":"","durationMillis":409.99313,"startTime":1684676962563,"failed":false,"refId":"[1:3]","endTime":1684676963059,"exampleIndex":-1},{"sectionIndex":1,"stepResults":[{"result":{"nanos":113565591,"millis":113.565591,"status":"passed"},"step":{"line":9,"prefix":"*","index":0,"text":"def result = karate.exec('python tests\/test_status_code.py')"},"stepLog":"15:49:23.072 command: [python, tests\/test_status_code.py], working dir: null\n"},{"result":{"nanos":72644,"errorMessage":"Cannot invoke \"com.intuit.karate.http.Response.getStatus()\" because \"this.response\" is null\nfeatures\/TestStatusCode.feature:10","millis":0.072644,"status":"failed"},"step":{"line":10,"prefix":"Then","index":1,"text":"status 200"},"stepLog":"15:49:23.185 features\/TestStatusCode.feature:10\nThen status 200\nCannot invoke \"com.intuit.karate.http.Response.getStatus()\" because \"this.response\" is null\nfeatures\/TestStatusCode.feature:10\n"}],"line":8,"description":"","durationMillis":113.638235,"failed":true,"error":"Cannot invoke \"com.intuit.karate.http.Response.getStatus()\" because \"this.response\" is null\nfeatures\/TestStatusCode.feature:10","executorName":"main","name":"Run python file","startTime":1684676963064,"refId":"[2:8]","endTime":1684676963185,"exampleIndex":-1}],"callDepth":0,"name":"sample api tests","description":"","resultDate":"2023-05-21 03:49:23 PM","durationMillis":523.631365,"passedCount":1}