{"failedCount":1,"prefixedPath":"features\/TestStatusCode.feature","packageQualifiedName":"features.TestStatusCode","loopIndex":-1,"relativePath":"features\/TestStatusCode.feature","scenarioResults":[{"sectionIndex":0,"stepResults":[{"result":{"nanos":1262480,"millis":1.26248,"status":"passed"},"step":{"comments":["#  every reset scenario"],"background":true,"line":5,"prefix":"*","index":0,"text":"url 'https:\/\/reqres.in\/api'"}},{"result":{"nanos":461702,"millis":0.461702,"status":"passed"},"step":{"line":8,"prefix":"Given","index":0,"text":"path '\/users'"}},{"result":{"nanos":2159111,"millis":2.159111,"status":"passed"},"step":{"line":9,"prefix":"And","index":1,"text":"param page = 2"}},{"result":{"nanos":563106135,"millis":563.106135,"status":"passed"},"step":{"line":10,"prefix":"When","index":2,"text":"method GET"},"stepLog":"20:04:20.953 request:\n1 > GET https:\/\/reqres.in\/api\/users?page=2\n1 > Host: reqres.in\n1 > Connection: Keep-Alive\n1 > User-Agent: Apache-HttpClient\/4.5.14 (Java\/17.0.6)\n1 > Accept-Encoding: gzip,deflate\n\n\n20:04:21.313 response time in milliseconds: 356\n1 < 200\n1 < Date: Sun, 21 May 2023 15:02:44 GMT\n1 < Content-Type: application\/json; charset=utf-8\n1 < Transfer-Encoding: chunked\n1 < Connection: keep-alive\n1 < X-Powered-By: Express\n1 < Access-Control-Allow-Origin: *\n1 < Etag: W\/\"406-ut0vzoCuidvyMf8arZpMpJ6ZRDw\"\n1 < Via: 1.1 vegur\n1 < Cache-Control: max-age=14400\n1 < CF-Cache-Status: HIT\n1 < Age: 2032\n1 < Report-To: {\"endpoints\":[{\"url\":\"https:\\\/\\\/a.nel.cloudflare.com\\\/report\\\/v3?s=wFX4fMRzFPCY9qzO6jNQ0PEmHr6Wyz7fn4QbDJhbmMNRQSJueCMATigxpGRDGJidreJVH4U3aN%2BNBvoNxn9%2FcPvNxE561A%2FTmy63zIP6OpvSwZEr8acfnyCMXA%3D%3D\"}],\"group\":\"cf-nel\",\"max_age\":604800}\n1 < NEL: {\"success_fraction\":0,\"report_to\":\"cf-nel\",\"max_age\":604800}\n1 < Vary: Accept-Encoding\n1 < Server: cloudflare\n1 < CF-RAY: 7cadb3c22e8716cb-DME\n{\"page\":2,\"per_page\":6,\"total\":12,\"total_pages\":2,\"data\":[{\"id\":7,\"email\":\"michael.lawson@reqres.in\",\"first_name\":\"Michael\",\"last_name\":\"Lawson\",\"avatar\":\"https:\/\/reqres.in\/img\/faces\/7-image.jpg\"},{\"id\":8,\"email\":\"lindsay.ferguson@reqres.in\",\"first_name\":\"Lindsay\",\"last_name\":\"Ferguson\",\"avatar\":\"https:\/\/reqres.in\/img\/faces\/8-image.jpg\"},{\"id\":9,\"email\":\"tobias.funke@reqres.in\",\"first_name\":\"Tobias\",\"last_name\":\"Funke\",\"avatar\":\"https:\/\/reqres.in\/img\/faces\/9-image.jpg\"},{\"id\":10,\"email\":\"byron.fields@reqres.in\",\"first_name\":\"Byron\",\"last_name\":\"Fields\",\"avatar\":\"https:\/\/reqres.in\/img\/faces\/10-image.jpg\"},{\"id\":11,\"email\":\"george.edwards@reqres.in\",\"first_name\":\"George\",\"last_name\":\"Edwards\",\"avatar\":\"https:\/\/reqres.in\/img\/faces\/11-image.jpg\"},{\"id\":12,\"email\":\"rachel.howell@reqres.in\",\"first_name\":\"Rachel\",\"last_name\":\"Howell\",\"avatar\":\"https:\/\/reqres.in\/img\/faces\/12-image.jpg\"}],\"support\":{\"url\":\"https:\/\/reqres.in\/#support-heading\",\"text\":\"To keep ReqRes free, contributions towards server costs are appreciated!\"}}\n\n"},{"result":{"nanos":30885,"millis":0.030885,"status":"passed"},"step":{"line":11,"prefix":"Then","index":3,"text":"status 200"}},{"result":{"nanos":9660078,"millis":9.660078,"status":"passed"},"step":{"line":12,"prefix":"And","index":4,"text":"print response"},"stepLog":"20:04:21.346 [print] {\n  \"page\": 2,\n  \"per_page\": 6,\n  \"total\": 12,\n  \"total_pages\": 2,\n  \"data\": [\n    {\n      \"id\": 7,\n      \"email\": \"michael.lawson@reqres.in\",\n      \"first_name\": \"Michael\",\n      \"last_name\": \"Lawson\",\n      \"avatar\": \"https:\/\/reqres.in\/img\/faces\/7-image.jpg\"\n    },\n    {\n      \"id\": 8,\n      \"email\": \"lindsay.ferguson@reqres.in\",\n      \"first_name\": \"Lindsay\",\n      \"last_name\": \"Ferguson\",\n      \"avatar\": \"https:\/\/reqres.in\/img\/faces\/8-image.jpg\"\n    },\n    {\n      \"id\": 9,\n      \"email\": \"tobias.funke@reqres.in\",\n      \"first_name\": \"Tobias\",\n      \"last_name\": \"Funke\",\n      \"avatar\": \"https:\/\/reqres.in\/img\/faces\/9-image.jpg\"\n    },\n    {\n      \"id\": 10,\n      \"email\": \"byron.fields@reqres.in\",\n      \"first_name\": \"Byron\",\n      \"last_name\": \"Fields\",\n      \"avatar\": \"https:\/\/reqres.in\/img\/faces\/10-image.jpg\"\n    },\n    {\n      \"id\": 11,\n      \"email\": \"george.edwards@reqres.in\",\n      \"first_name\": \"George\",\n      \"last_name\": \"Edwards\",\n      \"avatar\": \"https:\/\/reqres.in\/img\/faces\/11-image.jpg\"\n    },\n    {\n      \"id\": 12,\n      \"email\": \"rachel.howell@reqres.in\",\n      \"first_name\": \"Rachel\",\n      \"last_name\": \"Howell\",\n      \"avatar\": \"https:\/\/reqres.in\/img\/faces\/12-image.jpg\"\n    }\n  ],\n  \"support\": {\n    \"url\": \"https:\/\/reqres.in\/#support-heading\",\n    \"text\": \"To keep ReqRes free, contributions towards server costs are appreciated!\"\n  }\n}\n \n"}],"executorName":"main","line":7,"name":"Get list of users","description":"","durationMillis":576.680391,"startTime":1684692260635,"failed":false,"refId":"[1:7]","endTime":1684692261346,"exampleIndex":-1},{"sectionIndex":1,"stepResults":[{"result":{"nanos":843772,"millis":0.843772,"status":"passed"},"step":{"comments":["#  every reset scenario"],"background":true,"line":5,"prefix":"*","index":0,"text":"url 'https:\/\/reqres.in\/api'"}},{"result":{"nanos":541125,"millis":0.541125,"status":"passed"},"step":{"line":15,"prefix":"Given","index":0,"text":"path '\/users'"}},{"result":{"nanos":1433019,"millis":1.433019,"status":"passed"},"step":{"line":16,"prefix":"And","index":1,"text":"param page = 2"}},{"result":{"nanos":152124495,"millis":152.124495,"status":"passed"},"step":{"line":17,"prefix":"When","index":2,"text":"method GET"},"stepLog":"20:04:21.367 request:\n1 > GET https:\/\/reqres.in\/api\/users?page=2\n1 > Host: reqres.in\n1 > Connection: Keep-Alive\n1 > User-Agent: Apache-HttpClient\/4.5.14 (Java\/17.0.6)\n1 > Accept-Encoding: gzip,deflate\n\n\n20:04:21.515 response time in milliseconds: 146\n1 < 200\n1 < Date: Sun, 21 May 2023 15:02:45 GMT\n1 < Content-Type: application\/json; charset=utf-8\n1 < Transfer-Encoding: chunked\n1 < Connection: keep-alive\n1 < X-Powered-By: Express\n1 < Access-Control-Allow-Origin: *\n1 < Etag: W\/\"406-ut0vzoCuidvyMf8arZpMpJ6ZRDw\"\n1 < Via: 1.1 vegur\n1 < Cache-Control: max-age=14400\n1 < CF-Cache-Status: HIT\n1 < Age: 2033\n1 < Report-To: {\"endpoints\":[{\"url\":\"https:\\\/\\\/a.nel.cloudflare.com\\\/report\\\/v3?s=B3qu99LRRmBleoXlPQNyz2kOgg8QTQIl%2BMu7skxLSzQZ1oPF%2BlZyoqlSbZ%2Fulef1muxf7cWgJBcrBlPOPGHb%2BRstPOq8NVDouRGXzRoKWqdSXZp%2BGqw7GeTqXg%3D%3D\"}],\"group\":\"cf-nel\",\"max_age\":604800}\n1 < NEL: {\"success_fraction\":0,\"report_to\":\"cf-nel\",\"max_age\":604800}\n1 < Vary: Accept-Encoding\n1 < Server: cloudflare\n1 < CF-RAY: 7cadb3c38ef175bb-DME\n{\"page\":2,\"per_page\":6,\"total\":12,\"total_pages\":2,\"data\":[{\"id\":7,\"email\":\"michael.lawson@reqres.in\",\"first_name\":\"Michael\",\"last_name\":\"Lawson\",\"avatar\":\"https:\/\/reqres.in\/img\/faces\/7-image.jpg\"},{\"id\":8,\"email\":\"lindsay.ferguson@reqres.in\",\"first_name\":\"Lindsay\",\"last_name\":\"Ferguson\",\"avatar\":\"https:\/\/reqres.in\/img\/faces\/8-image.jpg\"},{\"id\":9,\"email\":\"tobias.funke@reqres.in\",\"first_name\":\"Tobias\",\"last_name\":\"Funke\",\"avatar\":\"https:\/\/reqres.in\/img\/faces\/9-image.jpg\"},{\"id\":10,\"email\":\"byron.fields@reqres.in\",\"first_name\":\"Byron\",\"last_name\":\"Fields\",\"avatar\":\"https:\/\/reqres.in\/img\/faces\/10-image.jpg\"},{\"id\":11,\"email\":\"george.edwards@reqres.in\",\"first_name\":\"George\",\"last_name\":\"Edwards\",\"avatar\":\"https:\/\/reqres.in\/img\/faces\/11-image.jpg\"},{\"id\":12,\"email\":\"rachel.howell@reqres.in\",\"first_name\":\"Rachel\",\"last_name\":\"Howell\",\"avatar\":\"https:\/\/reqres.in\/img\/faces\/12-image.jpg\"}],\"support\":{\"url\":\"https:\/\/reqres.in\/#support-heading\",\"text\":\"To keep ReqRes free, contributions towards server costs are appreciated!\"}}\n\n"},{"result":{"nanos":4639639,"millis":4.639639,"status":"passed"},"step":{"line":18,"prefix":"*","index":3,"text":"def user_id  = response.data[0].id"}},{"result":{"nanos":2057504,"millis":2.057504,"status":"passed"},"step":{"line":19,"prefix":"And","index":4,"text":"print user_id"},"stepLog":"20:04:21.524 [print] 7 \n"}],"executorName":"main","line":14,"name":"Get single user","description":"","durationMillis":161.639554,"startTime":1684692261354,"failed":false,"refId":"[2:14]","endTime":1684692261524,"exampleIndex":-1},{"sectionIndex":2,"stepResults":[{"result":{"nanos":447716,"millis":0.447716,"status":"passed"},"step":{"comments":["#  every reset scenario"],"background":true,"line":5,"prefix":"*","index":0,"text":"url 'https:\/\/reqres.in\/api'"}},{"result":{"nanos":190519849,"millis":190.519849,"status":"passed"},"step":{"line":23,"prefix":"*","index":0,"text":"def result = karate.exec('python tests\/test_status_code.py')"},"stepLog":"20:04:21.548 command: [python, tests\/test_status_code.py], working dir: null\n"},{"result":{"nanos":5306233,"millis":5.306233,"status":"passed"},"step":{"line":24,"prefix":"*","index":1,"text":"def ans = karate.extract(result,'Age',1)"},"stepLog":"20:04:21.734 failed to find pattern: Age\n"},{"result":{"nanos":0,"errorMessage":"no step-definition method match found for: responseStatus 200\nfeatures\/TestStatusCode.feature:25","millis":0.0,"status":"failed"},"step":{"line":25,"prefix":"And","index":2,"text":"responseStatus 200"},"stepLog":"20:04:21.737 features\/TestStatusCode.feature:25\nAnd responseStatus 200\nno step-definition method match found for: responseStatus 200\nfeatures\/TestStatusCode.feature:25\n"}],"line":22,"description":"","durationMillis":196.273798,"failed":true,"error":"no step-definition method match found for: responseStatus 200\nfeatures\/TestStatusCode.feature:25","executorName":"main","name":"Run python file","startTime":1684692261534,"refId":"[3:22]","endTime":1684692261737,"exampleIndex":-1}],"callDepth":0,"name":"sample api tests","description":"","resultDate":"2023-05-21 08:04:21 PM","durationMillis":934.593743,"passedCount":2}