{"failedCount":1,"prefixedPath":"features\/TestStatusCode.feature","packageQualifiedName":"features.TestStatusCode","loopIndex":-1,"relativePath":"features\/TestStatusCode.feature","scenarioResults":[{"sectionIndex":0,"stepResults":[{"result":{"nanos":1235875,"millis":1.235875,"status":"passed"},"step":{"line":4,"prefix":"Given","index":0,"text":"url 'https:\/\/reqres.in\/api\/users?page=2'"}},{"result":{"nanos":598338076,"millis":598.338076,"status":"passed"},"step":{"line":5,"prefix":"When","index":1,"text":"method GET"},"stepLog":"19:31:32.844 request:\n1 > GET https:\/\/reqres.in\/api\/users?page=2\n1 > Host: reqres.in\n1 > Connection: Keep-Alive\n1 > User-Agent: Apache-HttpClient\/4.5.14 (Java\/17.0.6)\n1 > Accept-Encoding: gzip,deflate\n\n\n19:31:33.233 response time in milliseconds: 384\n1 < 200\n1 < Date: Sun, 21 May 2023 14:29:56 GMT\n1 < Content-Type: application\/json; charset=utf-8\n1 < Transfer-Encoding: chunked\n1 < Connection: keep-alive\n1 < X-Powered-By: Express\n1 < Access-Control-Allow-Origin: *\n1 < Etag: W\/\"406-ut0vzoCuidvyMf8arZpMpJ6ZRDw\"\n1 < Via: 1.1 vegur\n1 < Cache-Control: max-age=14400\n1 < CF-Cache-Status: HIT\n1 < Age: 64\n1 < Report-To: {\"endpoints\":[{\"url\":\"https:\\\/\\\/a.nel.cloudflare.com\\\/report\\\/v3?s=Hpy%2FORXutSiJyHbxwueI%2BCvgL97JD5KzmEIJ196Xb2uakQxf%2F7cTeYBz%2B%2BS%2BBxKE6sH9dipkn7s1FV163tjPsETnFMC9tq4pU0SEKdCNeVth75P8E3u6FPsX9Q%3D%3D\"}],\"group\":\"cf-nel\",\"max_age\":604800}\n1 < NEL: {\"success_fraction\":0,\"report_to\":\"cf-nel\",\"max_age\":604800}\n1 < Vary: Accept-Encoding\n1 < Server: cloudflare\n1 < CF-RAY: 7cad83b5bab39d92-DME\n{\"page\":2,\"per_page\":6,\"total\":12,\"total_pages\":2,\"data\":[{\"id\":7,\"email\":\"michael.lawson@reqres.in\",\"first_name\":\"Michael\",\"last_name\":\"Lawson\",\"avatar\":\"https:\/\/reqres.in\/img\/faces\/7-image.jpg\"},{\"id\":8,\"email\":\"lindsay.ferguson@reqres.in\",\"first_name\":\"Lindsay\",\"last_name\":\"Ferguson\",\"avatar\":\"https:\/\/reqres.in\/img\/faces\/8-image.jpg\"},{\"id\":9,\"email\":\"tobias.funke@reqres.in\",\"first_name\":\"Tobias\",\"last_name\":\"Funke\",\"avatar\":\"https:\/\/reqres.in\/img\/faces\/9-image.jpg\"},{\"id\":10,\"email\":\"byron.fields@reqres.in\",\"first_name\":\"Byron\",\"last_name\":\"Fields\",\"avatar\":\"https:\/\/reqres.in\/img\/faces\/10-image.jpg\"},{\"id\":11,\"email\":\"george.edwards@reqres.in\",\"first_name\":\"George\",\"last_name\":\"Edwards\",\"avatar\":\"https:\/\/reqres.in\/img\/faces\/11-image.jpg\"},{\"id\":12,\"email\":\"rachel.howell@reqres.in\",\"first_name\":\"Rachel\",\"last_name\":\"Howell\",\"avatar\":\"https:\/\/reqres.in\/img\/faces\/12-image.jpg\"}],\"support\":{\"url\":\"https:\/\/reqres.in\/#support-heading\",\"text\":\"To keep ReqRes free, contributions towards server costs are appreciated!\"}}\n\n"},{"result":{"nanos":29143,"millis":0.029143,"status":"passed"},"step":{"line":6,"prefix":"Then","index":2,"text":"status 200"}},{"result":{"nanos":9484926,"millis":9.484926,"status":"passed"},"step":{"line":7,"prefix":"And","index":3,"text":"print response.length"},"stepLog":"19:31:33.272 [print] null \n"}],"executorName":"main","line":3,"name":"Test a sample get api","description":"","durationMillis":609.08802,"startTime":1684690292528,"failed":false,"refId":"[1:3]","endTime":1684690293272,"exampleIndex":-1},{"sectionIndex":1,"stepResults":[{"result":{"nanos":176175048,"millis":176.175048,"status":"passed"},"step":{"line":11,"prefix":"*","index":0,"text":"def result = karate.exec('python tests\/test_status_code.py')"},"stepLog":"19:31:33.292 command: [python, tests\/test_status_code.py], working dir: null\n"},{"result":{"nanos":5587390,"millis":5.58739,"status":"passed"},"step":{"line":12,"prefix":"*","index":1,"text":"def ans = karate.extract(result,'Age',1)"},"stepLog":"19:31:33.467 failed to find pattern: Age\n"},{"result":{"nanos":8336393,"errorMessage":"js failed:\n>>>>\n01: karate.log('[print]',response)\n<<<<\norg.graalvm.polyglot.PolyglotException: ReferenceError: \"response\" is not defined\n- <js>.:program(Unnamed:1)\n\nfeatures\/TestStatusCode.feature:14","millis":8.336393,"status":"failed"},"step":{"comments":["#    Then print status"],"line":14,"prefix":"And","index":2,"text":"print response"},"stepLog":"19:31:33.479 features\/TestStatusCode.feature:14\nAnd print response\njs failed:\n>>>>\n01: karate.log('[print]',response)\n<<<<\norg.graalvm.polyglot.PolyglotException: ReferenceError: \"response\" is not defined\n- <js>.:program(Unnamed:1)\n\nfeatures\/TestStatusCode.feature:14\n"}],"line":9,"description":"","durationMillis":190.098831,"failed":true,"error":"js failed:\n>>>>\n01: karate.log('[print]',response)\n<<<<\norg.graalvm.polyglot.PolyglotException: ReferenceError: \"response\" is not defined\n- <js>.:program(Unnamed:1)\n\nfeatures\/TestStatusCode.feature:14","executorName":"main","name":"Run python file","startTime":1684690293279,"refId":"[2:9]","endTime":1684690293479,"exampleIndex":-1}],"callDepth":0,"name":"sample api tests","description":"","resultDate":"2023-05-21 07:31:33 PM","durationMillis":799.186851,"passedCount":1}