{"failedCount":1,"prefixedPath":"features\/TestStatusCode.feature","packageQualifiedName":"features.TestStatusCode","loopIndex":-1,"relativePath":"features\/TestStatusCode.feature","scenarioResults":[{"sectionIndex":0,"stepResults":[{"result":{"nanos":1414484,"millis":1.414484,"status":"passed"},"step":{"comments":["#  every reset scenario"],"background":true,"line":5,"prefix":"*","index":0,"text":"url 'https:\/\/reqres.in\/api'"}},{"result":{"nanos":421016,"millis":0.421016,"status":"passed"},"step":{"comments":["#    get all users"],"line":9,"prefix":"Given","index":0,"text":"path '\/users'"}},{"result":{"nanos":1527517,"millis":1.527517,"status":"passed"},"step":{"line":10,"prefix":"And","index":1,"text":"param page = 2"}},{"result":{"nanos":516437896,"millis":516.437896,"status":"passed"},"step":{"line":11,"prefix":"When","index":2,"text":"method GET"},"stepLog":"20:07:46.377 request:\n1 > GET https:\/\/reqres.in\/api\/users?page=2\n1 > Host: reqres.in\n1 > Connection: Keep-Alive\n1 > User-Agent: Apache-HttpClient\/4.5.14 (Java\/17.0.6)\n1 > Accept-Encoding: gzip,deflate\n\n\n20:07:46.723 response time in milliseconds: 337\n1 < 200\n1 < Date: Sun, 21 May 2023 15:06:10 GMT\n1 < Content-Type: application\/json; charset=utf-8\n1 < Transfer-Encoding: chunked\n1 < Connection: keep-alive\n1 < X-Powered-By: Express\n1 < Access-Control-Allow-Origin: *\n1 < Etag: W\/\"406-ut0vzoCuidvyMf8arZpMpJ6ZRDw\"\n1 < Via: 1.1 vegur\n1 < Cache-Control: max-age=14400\n1 < CF-Cache-Status: HIT\n1 < Age: 2238\n1 < Report-To: {\"endpoints\":[{\"url\":\"https:\\\/\\\/a.nel.cloudflare.com\\\/report\\\/v3?s=Ll547OlFhe2YDNgct7tTPLJooRJPehD%2BxlzjQupCWZ9Pul8aBYD6f%2FkU9c%2FcoWkhOLMrspHRIMwfI6IGF%2B5kWZOdqbAiw2eoVPtYoFpwvBovBM7s81UGtsqpiw%3D%3D\"}],\"group\":\"cf-nel\",\"max_age\":604800}\n1 < NEL: {\"success_fraction\":0,\"report_to\":\"cf-nel\",\"max_age\":604800}\n1 < Vary: Accept-Encoding\n1 < Server: cloudflare\n1 < CF-RAY: 7cadb8c5e8af1634-DME\n{\"page\":2,\"per_page\":6,\"total\":12,\"total_pages\":2,\"data\":[{\"id\":7,\"email\":\"michael.lawson@reqres.in\",\"first_name\":\"Michael\",\"last_name\":\"Lawson\",\"avatar\":\"https:\/\/reqres.in\/img\/faces\/7-image.jpg\"},{\"id\":8,\"email\":\"lindsay.ferguson@reqres.in\",\"first_name\":\"Lindsay\",\"last_name\":\"Ferguson\",\"avatar\":\"https:\/\/reqres.in\/img\/faces\/8-image.jpg\"},{\"id\":9,\"email\":\"tobias.funke@reqres.in\",\"first_name\":\"Tobias\",\"last_name\":\"Funke\",\"avatar\":\"https:\/\/reqres.in\/img\/faces\/9-image.jpg\"},{\"id\":10,\"email\":\"byron.fields@reqres.in\",\"first_name\":\"Byron\",\"last_name\":\"Fields\",\"avatar\":\"https:\/\/reqres.in\/img\/faces\/10-image.jpg\"},{\"id\":11,\"email\":\"george.edwards@reqres.in\",\"first_name\":\"George\",\"last_name\":\"Edwards\",\"avatar\":\"https:\/\/reqres.in\/img\/faces\/11-image.jpg\"},{\"id\":12,\"email\":\"rachel.howell@reqres.in\",\"first_name\":\"Rachel\",\"last_name\":\"Howell\",\"avatar\":\"https:\/\/reqres.in\/img\/faces\/12-image.jpg\"}],\"support\":{\"url\":\"https:\/\/reqres.in\/#support-heading\",\"text\":\"To keep ReqRes free, contributions towards server costs are appreciated!\"}}\n\n"},{"result":{"nanos":23762,"millis":0.023762,"status":"passed"},"step":{"line":12,"prefix":"Then","index":3,"text":"status 200"}},{"result":{"nanos":5576193,"millis":5.576193,"status":"passed"},"step":{"line":13,"prefix":"And","index":4,"text":"print response.length"},"stepLog":"20:07:46.758 [print] null \n"}],"executorName":"main","line":7,"name":"Get list of users","description":"","durationMillis":525.400868,"startTime":1684692466135,"failed":false,"refId":"[1:7]","endTime":1684692466758,"exampleIndex":-1},{"sectionIndex":1,"stepResults":[{"result":{"nanos":368316,"millis":0.368316,"status":"passed"},"step":{"comments":["#  every reset scenario"],"background":true,"line":5,"prefix":"*","index":0,"text":"url 'https:\/\/reqres.in\/api'"}},{"result":{"nanos":234961,"millis":0.234961,"status":"passed"},"step":{"comments":["#    get single user from list of users"],"line":17,"prefix":"Given","index":0,"text":"path '\/users'"}},{"result":{"nanos":588592,"millis":0.588592,"status":"passed"},"step":{"line":18,"prefix":"And","index":1,"text":"param page = 2"}},{"result":{"nanos":142263518,"millis":142.263518,"status":"passed"},"step":{"line":19,"prefix":"When","index":2,"text":"method GET"},"stepLog":"20:07:46.768 request:\n1 > GET https:\/\/reqres.in\/api\/users?page=2\n1 > Host: reqres.in\n1 > Connection: Keep-Alive\n1 > User-Agent: Apache-HttpClient\/4.5.14 (Java\/17.0.6)\n1 > Accept-Encoding: gzip,deflate\n\n\n20:07:46.906 response time in milliseconds: 136\n1 < 200\n1 < Date: Sun, 21 May 2023 15:06:10 GMT\n1 < Content-Type: application\/json; charset=utf-8\n1 < Transfer-Encoding: chunked\n1 < Connection: keep-alive\n1 < X-Powered-By: Express\n1 < Access-Control-Allow-Origin: *\n1 < Etag: W\/\"406-ut0vzoCuidvyMf8arZpMpJ6ZRDw\"\n1 < Via: 1.1 vegur\n1 < Cache-Control: max-age=14400\n1 < CF-Cache-Status: HIT\n1 < Age: 2238\n1 < Report-To: {\"endpoints\":[{\"url\":\"https:\\\/\\\/a.nel.cloudflare.com\\\/report\\\/v3?s=Lxvgp4cwM4bGqV774kp%2Fk5yfQElt8I9CH4iuGm%2Fn4itQ6yAOgXLGqaBbqgCZkSTectu2YXkDwxGU7GXepwvmfH5X3hznfPXsuokjMjU3LWZNINq69QA30UFtKw%3D%3D\"}],\"group\":\"cf-nel\",\"max_age\":604800}\n1 < NEL: {\"success_fraction\":0,\"report_to\":\"cf-nel\",\"max_age\":604800}\n1 < Vary: Accept-Encoding\n1 < Server: cloudflare\n1 < CF-RAY: 7cadb8c738979d52-DME\n{\"page\":2,\"per_page\":6,\"total\":12,\"total_pages\":2,\"data\":[{\"id\":7,\"email\":\"michael.lawson@reqres.in\",\"first_name\":\"Michael\",\"last_name\":\"Lawson\",\"avatar\":\"https:\/\/reqres.in\/img\/faces\/7-image.jpg\"},{\"id\":8,\"email\":\"lindsay.ferguson@reqres.in\",\"first_name\":\"Lindsay\",\"last_name\":\"Ferguson\",\"avatar\":\"https:\/\/reqres.in\/img\/faces\/8-image.jpg\"},{\"id\":9,\"email\":\"tobias.funke@reqres.in\",\"first_name\":\"Tobias\",\"last_name\":\"Funke\",\"avatar\":\"https:\/\/reqres.in\/img\/faces\/9-image.jpg\"},{\"id\":10,\"email\":\"byron.fields@reqres.in\",\"first_name\":\"Byron\",\"last_name\":\"Fields\",\"avatar\":\"https:\/\/reqres.in\/img\/faces\/10-image.jpg\"},{\"id\":11,\"email\":\"george.edwards@reqres.in\",\"first_name\":\"George\",\"last_name\":\"Edwards\",\"avatar\":\"https:\/\/reqres.in\/img\/faces\/11-image.jpg\"},{\"id\":12,\"email\":\"rachel.howell@reqres.in\",\"first_name\":\"Rachel\",\"last_name\":\"Howell\",\"avatar\":\"https:\/\/reqres.in\/img\/faces\/12-image.jpg\"}],\"support\":{\"url\":\"https:\/\/reqres.in\/#support-heading\",\"text\":\"To keep ReqRes free, contributions towards server costs are appreciated!\"}}\n\n"},{"result":{"nanos":6362817,"millis":6.362817,"status":"passed"},"step":{"line":20,"prefix":"*","index":3,"text":"def user_id  = response.data[0].id"}},{"result":{"nanos":2513782,"millis":2.513782,"status":"passed"},"step":{"line":21,"prefix":"*","index":4,"text":"def user_name = response.data[0].first_name"}},{"result":{"nanos":21580026,"millis":21.580026,"status":"passed"},"step":{"line":22,"prefix":"And","index":5,"text":"match user_id == 7"}},{"result":{"nanos":1105265,"millis":1.105265,"status":"passed"},"step":{"line":23,"prefix":"And","index":6,"text":"match user_name == 'Michael'"}}],"executorName":"main","line":15,"name":"Get single user","description":"","durationMillis":175.017277,"startTime":1684692466762,"failed":false,"refId":"[2:15]","endTime":1684692466942,"exampleIndex":-1},{"sectionIndex":2,"stepResults":[{"result":{"nanos":224003,"millis":0.224003,"status":"passed"},"step":{"comments":["#  every reset scenario"],"background":true,"line":5,"prefix":"*","index":0,"text":"url 'https:\/\/reqres.in\/api'"}},{"result":{"nanos":106659971,"millis":106.659971,"status":"passed"},"step":{"line":27,"prefix":"*","index":0,"text":"def result = karate.exec('python tests\/test_status_code.py')"},"stepLog":"20:07:46.956 command: [python, tests\/test_status_code.py], working dir: null\n"},{"result":{"nanos":3467155,"millis":3.467155,"status":"passed"},"step":{"line":28,"prefix":"*","index":1,"text":"def ans = karate.extract(result,'Age',1)"},"stepLog":"20:07:47.061 failed to find pattern: Age\n"},{"result":{"nanos":0,"errorMessage":"no step-definition method match found for: responseStatus 200\nfeatures\/TestStatusCode.feature:29","millis":0.0,"status":"failed"},"step":{"line":29,"prefix":"And","index":2,"text":"responseStatus 200"},"stepLog":"20:07:47.063 features\/TestStatusCode.feature:29\nAnd responseStatus 200\nno step-definition method match found for: responseStatus 200\nfeatures\/TestStatusCode.feature:29\n"}],"line":26,"description":"","durationMillis":110.351129,"failed":true,"error":"no step-definition method match found for: responseStatus 200\nfeatures\/TestStatusCode.feature:29","executorName":"main","name":"Run python file","startTime":1684692466949,"refId":"[3:26]","endTime":1684692467063,"exampleIndex":-1}],"callDepth":0,"name":"sample api tests","description":"","resultDate":"2023-05-21 08:07:47 PM","durationMillis":810.769274,"passedCount":2}