{"failedCount":1,"prefixedPath":"features\/TestStatusCode.feature","packageQualifiedName":"features.TestStatusCode","loopIndex":-1,"relativePath":"features\/TestStatusCode.feature","scenarioResults":[{"sectionIndex":0,"stepResults":[{"result":{"nanos":1296114,"millis":1.296114,"status":"passed"},"step":{"line":4,"prefix":"Given","index":0,"text":"url 'https:\/\/reqres.in\/api\/users?page=2'"}},{"result":{"nanos":451548254,"millis":451.548254,"status":"passed"},"step":{"line":5,"prefix":"When","index":1,"text":"method GET"},"stepLog":"16:29:58.064 request:\n1 > GET https:\/\/reqres.in\/api\/users?page=2\n1 > Host: reqres.in\n1 > Connection: Keep-Alive\n1 > User-Agent: Apache-HttpClient\/4.5.14 (Java\/17.0.6)\n1 > Accept-Encoding: gzip,deflate\n\n\n16:29:58.367 response time in milliseconds: 300\n1 < 200\n1 < Date: Sun, 21 May 2023 11:28:21 GMT\n1 < Content-Type: application\/json; charset=utf-8\n1 < Transfer-Encoding: chunked\n1 < Connection: keep-alive\n1 < X-Powered-By: Express\n1 < Access-Control-Allow-Origin: *\n1 < Etag: W\/\"406-ut0vzoCuidvyMf8arZpMpJ6ZRDw\"\n1 < Via: 1.1 vegur\n1 < Cache-Control: max-age=14400\n1 < CF-Cache-Status: HIT\n1 < Age: 3588\n1 < Report-To: {\"endpoints\":[{\"url\":\"https:\\\/\\\/a.nel.cloudflare.com\\\/report\\\/v3?s=eYyHH8y22ba6yUohTypEN0o4Ss2slR2dw0xhqZQ5z2T5r3CNU07JTBX33bOb0KdgZFRdbk1IsKENVMK%2FKFWeTGiOd3xQ0JjNr0KNen%2FhaftBzaYd7euAVqFUVw%3D%3D\"}],\"group\":\"cf-nel\",\"max_age\":604800}\n1 < NEL: {\"success_fraction\":0,\"report_to\":\"cf-nel\",\"max_age\":604800}\n1 < Vary: Accept-Encoding\n1 < Server: cloudflare\n1 < CF-RAY: 7cac79b8fbba2de7-DME\n{\"page\":2,\"per_page\":6,\"total\":12,\"total_pages\":2,\"data\":[{\"id\":7,\"email\":\"michael.lawson@reqres.in\",\"first_name\":\"Michael\",\"last_name\":\"Lawson\",\"avatar\":\"https:\/\/reqres.in\/img\/faces\/7-image.jpg\"},{\"id\":8,\"email\":\"lindsay.ferguson@reqres.in\",\"first_name\":\"Lindsay\",\"last_name\":\"Ferguson\",\"avatar\":\"https:\/\/reqres.in\/img\/faces\/8-image.jpg\"},{\"id\":9,\"email\":\"tobias.funke@reqres.in\",\"first_name\":\"Tobias\",\"last_name\":\"Funke\",\"avatar\":\"https:\/\/reqres.in\/img\/faces\/9-image.jpg\"},{\"id\":10,\"email\":\"byron.fields@reqres.in\",\"first_name\":\"Byron\",\"last_name\":\"Fields\",\"avatar\":\"https:\/\/reqres.in\/img\/faces\/10-image.jpg\"},{\"id\":11,\"email\":\"george.edwards@reqres.in\",\"first_name\":\"George\",\"last_name\":\"Edwards\",\"avatar\":\"https:\/\/reqres.in\/img\/faces\/11-image.jpg\"},{\"id\":12,\"email\":\"rachel.howell@reqres.in\",\"first_name\":\"Rachel\",\"last_name\":\"Howell\",\"avatar\":\"https:\/\/reqres.in\/img\/faces\/12-image.jpg\"}],\"support\":{\"url\":\"https:\/\/reqres.in\/#support-heading\",\"text\":\"To keep ReqRes free, contributions towards server costs are appreciated!\"}}\n\n"},{"result":{"nanos":21583,"millis":0.021583,"status":"passed"},"step":{"line":6,"prefix":"Then","index":2,"text":"status 200"}}],"executorName":"main","line":3,"name":"Test a sample get api","description":"","durationMillis":452.865951,"startTime":1684679397838,"failed":false,"refId":"[1:3]","endTime":1684679398386,"exampleIndex":-1},{"sectionIndex":1,"stepResults":[{"result":{"nanos":104632691,"millis":104.632691,"status":"passed"},"step":{"line":10,"prefix":"*","index":0,"text":"def response = karate.exec('python tests\/test_status_code.py')"},"stepLog":"16:29:58.399 command: [python, tests\/test_status_code.py], working dir: null\n"},{"result":{"nanos":7082820,"errorMessage":"js failed:\n>>>>\n01: karate.extract(result, 'some(pattern).+', 1)\n<<<<\norg.graalvm.polyglot.PolyglotException: ReferenceError: \"result\" is not defined\n- <js>.:program(Unnamed:1)\n\nfeatures\/TestStatusCode.feature:12","millis":7.08282,"status":"failed"},"step":{"comments":["#    * def answer = karate.extract(response)"],"line":12,"prefix":"*","index":1,"text":"def token = karate.extract(result, 'some(pattern).+', 1)"},"stepLog":"16:29:58.510 features\/TestStatusCode.feature:12\n* def token = karate.extract(result, 'some(pattern).+', 1)\njs failed:\n>>>>\n01: karate.extract(result, 'some(pattern).+', 1)\n<<<<\norg.graalvm.polyglot.PolyglotException: ReferenceError: \"result\" is not defined\n- <js>.:program(Unnamed:1)\n\nfeatures\/TestStatusCode.feature:12\n"},{"result":{"nanos":0,"millis":0.0,"status":"skipped"},"step":{"line":13,"prefix":"Then","index":2,"text":"print token"}}],"line":8,"description":"","durationMillis":111.715511,"failed":true,"error":"js failed:\n>>>>\n01: karate.extract(result, 'some(pattern).+', 1)\n<<<<\norg.graalvm.polyglot.PolyglotException: ReferenceError: \"result\" is not defined\n- <js>.:program(Unnamed:1)\n\nfeatures\/TestStatusCode.feature:12","executorName":"main","name":"Run python file","startTime":1684679398392,"refId":"[2:8]","endTime":1684679398510,"exampleIndex":-1}],"callDepth":0,"name":"sample api tests","description":"","resultDate":"2023-05-21 04:29:58 PM","durationMillis":564.581462,"passedCount":1}