{"failedCount":1,"prefixedPath":"features\/TestGetMethod.feature","packageQualifiedName":"features.TestGetMethod","loopIndex":-1,"relativePath":"features\/TestGetMethod.feature","scenarioResults":[{"sectionIndex":0,"stepResults":[{"result":{"nanos":1339205,"millis":1.339205,"status":"passed"},"step":{"comments":["#  for every scenario"],"background":true,"line":5,"prefix":"*","index":0,"text":"url 'https:\/\/reqres.in\/api'"}},{"result":{"nanos":519143,"millis":0.519143,"status":"passed"},"step":{"comments":["# get all users len should be 6"],"line":9,"prefix":"Given","index":0,"text":"path '\/users'"}},{"result":{"nanos":2031406,"millis":2.031406,"status":"passed"},"step":{"line":10,"prefix":"And","index":1,"text":"param page = 2"}},{"result":{"nanos":561953793,"millis":561.953793,"status":"passed"},"step":{"line":11,"prefix":"When","index":2,"text":"method GET"},"stepLog":"21:31:55.039 request:\n1 > GET https:\/\/reqres.in\/api\/users?page=2\n1 > Host: reqres.in\n1 > Connection: Keep-Alive\n1 > User-Agent: Apache-HttpClient\/4.5.14 (Java\/17.0.6)\n1 > Accept-Encoding: gzip,deflate\n\n\n21:31:55.401 response time in milliseconds: 358\n1 < 200\n1 < Date: Sun, 21 May 2023 16:30:18 GMT\n1 < Content-Type: application\/json; charset=utf-8\n1 < Transfer-Encoding: chunked\n1 < Connection: keep-alive\n1 < X-Powered-By: Express\n1 < Access-Control-Allow-Origin: *\n1 < Etag: W\/\"406-ut0vzoCuidvyMf8arZpMpJ6ZRDw\"\n1 < Via: 1.1 vegur\n1 < Cache-Control: max-age=14400\n1 < CF-Cache-Status: HIT\n1 < Age: 31\n1 < Report-To: {\"endpoints\":[{\"url\":\"https:\\\/\\\/a.nel.cloudflare.com\\\/report\\\/v3?s=zP0GPzukbbgDgJpq0s0AHBqbL3o7LfgN3D9uO06q%2Fr06V37%2F7YIcm4Lr0%2F1ypL%2F9BJevat6wQC8L5M%2F4jKnLjMj6K2XudzDxOE%2FQhfM3zWjIHDtB1ibRhaS1lQ%3D%3D\"}],\"group\":\"cf-nel\",\"max_age\":604800}\n1 < NEL: {\"success_fraction\":0,\"report_to\":\"cf-nel\",\"max_age\":604800}\n1 < Vary: Accept-Encoding\n1 < Server: cloudflare\n1 < CF-RAY: 7cae34082e199d9e-DME\n{\"page\":2,\"per_page\":6,\"total\":12,\"total_pages\":2,\"data\":[{\"id\":7,\"email\":\"michael.lawson@reqres.in\",\"first_name\":\"Michael\",\"last_name\":\"Lawson\",\"avatar\":\"https:\/\/reqres.in\/img\/faces\/7-image.jpg\"},{\"id\":8,\"email\":\"lindsay.ferguson@reqres.in\",\"first_name\":\"Lindsay\",\"last_name\":\"Ferguson\",\"avatar\":\"https:\/\/reqres.in\/img\/faces\/8-image.jpg\"},{\"id\":9,\"email\":\"tobias.funke@reqres.in\",\"first_name\":\"Tobias\",\"last_name\":\"Funke\",\"avatar\":\"https:\/\/reqres.in\/img\/faces\/9-image.jpg\"},{\"id\":10,\"email\":\"byron.fields@reqres.in\",\"first_name\":\"Byron\",\"last_name\":\"Fields\",\"avatar\":\"https:\/\/reqres.in\/img\/faces\/10-image.jpg\"},{\"id\":11,\"email\":\"george.edwards@reqres.in\",\"first_name\":\"George\",\"last_name\":\"Edwards\",\"avatar\":\"https:\/\/reqres.in\/img\/faces\/11-image.jpg\"},{\"id\":12,\"email\":\"rachel.howell@reqres.in\",\"first_name\":\"Rachel\",\"last_name\":\"Howell\",\"avatar\":\"https:\/\/reqres.in\/img\/faces\/12-image.jpg\"}],\"support\":{\"url\":\"https:\/\/reqres.in\/#support-heading\",\"text\":\"To keep ReqRes free, contributions towards server costs are appreciated!\"}}\n\n"},{"result":{"nanos":28714,"millis":0.028714,"status":"passed"},"step":{"line":12,"prefix":"Then","index":3,"text":"status 200"}},{"result":{"nanos":4105987,"millis":4.105987,"status":"passed"},"step":{"line":13,"prefix":"*","index":4,"text":"def total_users = response.data.length"}},{"result":{"nanos":11427431,"millis":11.427431,"status":"passed"},"step":{"line":14,"prefix":"And","index":5,"text":"match total_users == 6"}}],"executorName":"main","line":7,"name":"Get list of users","description":"","durationMillis":581.405679,"startTime":1684697514726,"failed":false,"refId":"[1:7]","endTime":1684697515441,"exampleIndex":-1},{"sectionIndex":1,"stepResults":[{"result":{"nanos":511159,"millis":0.511159,"status":"passed"},"step":{"comments":["#  for every scenario"],"background":true,"line":5,"prefix":"*","index":0,"text":"url 'https:\/\/reqres.in\/api'"}},{"result":{"nanos":341668,"millis":0.341668,"status":"passed"},"step":{"comments":["# get single user from list of users"],"line":18,"prefix":"Given","index":0,"text":"path '\/users'"}},{"result":{"nanos":521129,"millis":0.521129,"status":"passed"},"step":{"line":19,"prefix":"And","index":1,"text":"param page = 2"}},{"result":{"nanos":144530330,"millis":144.53033,"status":"passed"},"step":{"line":20,"prefix":"When","index":2,"text":"method GET"},"stepLog":"21:31:55.453 request:\n1 > GET https:\/\/reqres.in\/api\/users?page=2\n1 > Host: reqres.in\n1 > Connection: Keep-Alive\n1 > User-Agent: Apache-HttpClient\/4.5.14 (Java\/17.0.6)\n1 > Accept-Encoding: gzip,deflate\n\n\n21:31:55.595 response time in milliseconds: 141\n1 < 200\n1 < Date: Sun, 21 May 2023 16:30:19 GMT\n1 < Content-Type: application\/json; charset=utf-8\n1 < Transfer-Encoding: chunked\n1 < Connection: keep-alive\n1 < X-Powered-By: Express\n1 < Access-Control-Allow-Origin: *\n1 < Etag: W\/\"406-ut0vzoCuidvyMf8arZpMpJ6ZRDw\"\n1 < Via: 1.1 vegur\n1 < Cache-Control: max-age=14400\n1 < CF-Cache-Status: HIT\n1 < Age: 32\n1 < Report-To: {\"endpoints\":[{\"url\":\"https:\\\/\\\/a.nel.cloudflare.com\\\/report\\\/v3?s=68SOcCPRgRyG9B21V1CQfh7dSjmdqypTz%2B1EDLQMwNzjIWVYsi%2Fx0ANeLqVA5kSr6XSH%2BPUZf%2FEFtmCje8tvg7sJP2FxzsrAwWyllU8DhlKYb83WaSUWpg8n%2FQ%3D%3D\"}],\"group\":\"cf-nel\",\"max_age\":604800}\n1 < NEL: {\"success_fraction\":0,\"report_to\":\"cf-nel\",\"max_age\":604800}\n1 < Vary: Accept-Encoding\n1 < Server: cloudflare\n1 < CF-RAY: 7cae34096fb89db1-DME\n{\"page\":2,\"per_page\":6,\"total\":12,\"total_pages\":2,\"data\":[{\"id\":7,\"email\":\"michael.lawson@reqres.in\",\"first_name\":\"Michael\",\"last_name\":\"Lawson\",\"avatar\":\"https:\/\/reqres.in\/img\/faces\/7-image.jpg\"},{\"id\":8,\"email\":\"lindsay.ferguson@reqres.in\",\"first_name\":\"Lindsay\",\"last_name\":\"Ferguson\",\"avatar\":\"https:\/\/reqres.in\/img\/faces\/8-image.jpg\"},{\"id\":9,\"email\":\"tobias.funke@reqres.in\",\"first_name\":\"Tobias\",\"last_name\":\"Funke\",\"avatar\":\"https:\/\/reqres.in\/img\/faces\/9-image.jpg\"},{\"id\":10,\"email\":\"byron.fields@reqres.in\",\"first_name\":\"Byron\",\"last_name\":\"Fields\",\"avatar\":\"https:\/\/reqres.in\/img\/faces\/10-image.jpg\"},{\"id\":11,\"email\":\"george.edwards@reqres.in\",\"first_name\":\"George\",\"last_name\":\"Edwards\",\"avatar\":\"https:\/\/reqres.in\/img\/faces\/11-image.jpg\"},{\"id\":12,\"email\":\"rachel.howell@reqres.in\",\"first_name\":\"Rachel\",\"last_name\":\"Howell\",\"avatar\":\"https:\/\/reqres.in\/img\/faces\/12-image.jpg\"}],\"support\":{\"url\":\"https:\/\/reqres.in\/#support-heading\",\"text\":\"To keep ReqRes free, contributions towards server costs are appreciated!\"}}\n\n"},{"result":{"nanos":2672355,"millis":2.672355,"status":"passed"},"step":{"line":21,"prefix":"*","index":3,"text":"def user_id  = response.data[0].id"}},{"result":{"nanos":1428198,"millis":1.428198,"status":"passed"},"step":{"line":22,"prefix":"*","index":4,"text":"def user_name = response.data[0].first_name"}},{"result":{"nanos":1463586,"millis":1.463586,"status":"passed"},"step":{"line":23,"prefix":"And","index":5,"text":"match user_id == 7"}},{"result":{"nanos":3531961,"millis":3.531961,"status":"passed"},"step":{"line":24,"prefix":"And","index":6,"text":"match user_name == 'Michael'"}}],"executorName":"main","line":16,"name":"Get single user","description":"","durationMillis":155.000386,"startTime":1684697515447,"failed":false,"refId":"[2:16]","endTime":1684697515606,"exampleIndex":-1},{"sectionIndex":2,"stepResults":[{"result":{"nanos":450704,"millis":0.450704,"status":"passed"},"step":{"comments":["#  for every scenario"],"background":true,"line":5,"prefix":"*","index":0,"text":"url 'https:\/\/reqres.in\/api'"}},{"result":{"nanos":178051932,"millis":178.051932,"status":"passed"},"step":{"line":27,"prefix":"*","index":0,"text":"def pyfile = karate.exec('python tests\/test_runner.py')"},"stepLog":"21:31:55.623 command: [python, tests\/test_runner.py], working dir: null\n21:31:55.780 322\n21:31:55.780 322\n"},{"result":{"nanos":11018208,"errorMessage":"js failed:\n>>>>\n01: karate.get('language','\\k<name>',1)\n<<<<\norg.graalvm.polyglot.PolyglotException: TypeError: invokeMember (get) on com.intuit.karate.core.ScenarioBridge failed due to: Arity error - expected: 1-2 actual: 3\n- <js>.:program(Unnamed:1)\n\nfeatures\/TestGetMethod.feature:28","millis":11.018208,"status":"failed"},"step":{"line":28,"prefix":"*","index":1,"text":"def result = karate.get('language','\\k<name>',1)"},"stepLog":"21:31:55.808 features\/TestGetMethod.feature:28\n* def result = karate.get('language','\\k<name>',1)\njs failed:\n>>>>\n01: karate.get('language','\\k<name>',1)\n<<<<\norg.graalvm.polyglot.PolyglotException: TypeError: invokeMember (get) on com.intuit.karate.core.ScenarioBridge failed due to: Arity error - expected: 1-2 actual: 3\n- <js>.:program(Unnamed:1)\n\nfeatures\/TestGetMethod.feature:28\n"},{"result":{"nanos":0,"millis":0.0,"status":"skipped"},"step":{"line":29,"prefix":"And","index":2,"text":"print result"}}],"line":26,"description":"","durationMillis":189.520844,"failed":true,"error":"js failed:\n>>>>\n01: karate.get('language','\\k<name>',1)\n<<<<\norg.graalvm.polyglot.PolyglotException: TypeError: invokeMember (get) on com.intuit.karate.core.ScenarioBridge failed due to: Arity error - expected: 1-2 actual: 3\n- <js>.:program(Unnamed:1)\n\nfeatures\/TestGetMethod.feature:28","executorName":"main","name":"Run python file","startTime":1684697515613,"refId":"[3:26]","endTime":1684697515808,"exampleIndex":-1}],"callDepth":0,"name":"sample api tests","description":"","resultDate":"2023-05-21 09:31:55 PM","durationMillis":925.926909,"passedCount":2}