{"failedCount":1,"prefixedPath":"features\/TestStatusCode.feature","packageQualifiedName":"features.TestStatusCode","loopIndex":-1,"relativePath":"features\/TestStatusCode.feature","scenarioResults":[{"sectionIndex":0,"stepResults":[{"result":{"nanos":1228934,"millis":1.228934,"status":"passed"},"step":{"line":4,"prefix":"Given","index":0,"text":"url 'https:\/\/reqres.in\/api\/users?page=2'"}},{"result":{"nanos":549495290,"millis":549.49529,"status":"passed"},"step":{"line":5,"prefix":"When","index":1,"text":"method GET"},"stepLog":"16:33:28.983 request:\n1 > GET https:\/\/reqres.in\/api\/users?page=2\n1 > Host: reqres.in\n1 > Connection: Keep-Alive\n1 > User-Agent: Apache-HttpClient\/4.5.14 (Java\/17.0.6)\n1 > Accept-Encoding: gzip,deflate\n\n\n16:33:29.327 response time in milliseconds: 340\n1 < 200\n1 < Date: Sun, 21 May 2023 11:31:52 GMT\n1 < Content-Type: application\/json; charset=utf-8\n1 < Transfer-Encoding: chunked\n1 < Connection: keep-alive\n1 < X-Powered-By: Express\n1 < Access-Control-Allow-Origin: *\n1 < Etag: W\/\"406-ut0vzoCuidvyMf8arZpMpJ6ZRDw\"\n1 < Via: 1.1 vegur\n1 < Cache-Control: max-age=14400\n1 < CF-Cache-Status: HIT\n1 < Age: 3799\n1 < Report-To: {\"endpoints\":[{\"url\":\"https:\\\/\\\/a.nel.cloudflare.com\\\/report\\\/v3?s=bpItkgka9TBSxsLiP2xsOjNUahZKsKCmZeSxgFYpsprm8QQPwqsvNXOyGxekj8sN5%2FJo6EUpc%2B1P3mShcRulQp3gt%2FS15O4hbQvqRntpktvv4RGZ8hViEIFRIQ%3D%3D\"}],\"group\":\"cf-nel\",\"max_age\":604800}\n1 < NEL: {\"success_fraction\":0,\"report_to\":\"cf-nel\",\"max_age\":604800}\n1 < Vary: Accept-Encoding\n1 < Server: cloudflare\n1 < CF-RAY: 7cac7edf8a541622-DME\n{\"page\":2,\"per_page\":6,\"total\":12,\"total_pages\":2,\"data\":[{\"id\":7,\"email\":\"michael.lawson@reqres.in\",\"first_name\":\"Michael\",\"last_name\":\"Lawson\",\"avatar\":\"https:\/\/reqres.in\/img\/faces\/7-image.jpg\"},{\"id\":8,\"email\":\"lindsay.ferguson@reqres.in\",\"first_name\":\"Lindsay\",\"last_name\":\"Ferguson\",\"avatar\":\"https:\/\/reqres.in\/img\/faces\/8-image.jpg\"},{\"id\":9,\"email\":\"tobias.funke@reqres.in\",\"first_name\":\"Tobias\",\"last_name\":\"Funke\",\"avatar\":\"https:\/\/reqres.in\/img\/faces\/9-image.jpg\"},{\"id\":10,\"email\":\"byron.fields@reqres.in\",\"first_name\":\"Byron\",\"last_name\":\"Fields\",\"avatar\":\"https:\/\/reqres.in\/img\/faces\/10-image.jpg\"},{\"id\":11,\"email\":\"george.edwards@reqres.in\",\"first_name\":\"George\",\"last_name\":\"Edwards\",\"avatar\":\"https:\/\/reqres.in\/img\/faces\/11-image.jpg\"},{\"id\":12,\"email\":\"rachel.howell@reqres.in\",\"first_name\":\"Rachel\",\"last_name\":\"Howell\",\"avatar\":\"https:\/\/reqres.in\/img\/faces\/12-image.jpg\"}],\"support\":{\"url\":\"https:\/\/reqres.in\/#support-heading\",\"text\":\"To keep ReqRes free, contributions towards server costs are appreciated!\"}}\n\n"},{"result":{"nanos":21378,"millis":0.021378,"status":"passed"},"step":{"line":6,"prefix":"Then","index":2,"text":"status 200"}}],"executorName":"main","line":3,"name":"Test a sample get api","description":"","durationMillis":550.745602,"startTime":1684679608663,"failed":false,"refId":"[1:3]","endTime":1684679609348,"exampleIndex":-1},{"sectionIndex":1,"stepResults":[{"result":{"nanos":177715268,"millis":177.715268,"status":"passed"},"step":{"line":10,"prefix":"*","index":0,"text":"def result = karate.exec('python tests\/test_status_code.py')"},"stepLog":"16:33:29.363 command: [python, tests\/test_status_code.py], working dir: null\n"},{"result":{"nanos":11826502,"errorMessage":"js failed:\n>>>>\n01: karate.extract(result)\n<<<<\norg.graalvm.polyglot.PolyglotException: TypeError: invokeMember (extract) on com.intuit.karate.core.ScenarioBridge failed due to: Arity error - expected: 3 actual: 1\n- <js>.:program(Unnamed:1)\n\nfeatures\/TestStatusCode.feature:13","millis":11.826502,"status":"failed"},"step":{"comments":["#    * def answer = karate.extract(response)","#    * def ans = karate.extract(result, 'some(pattern).+', 1)"],"line":13,"prefix":"*","index":1,"text":"def ans = karate.extract(result)"},"stepLog":"16:33:29.551 features\/TestStatusCode.feature:13\n* def ans = karate.extract(result)\njs failed:\n>>>>\n01: karate.extract(result)\n<<<<\norg.graalvm.polyglot.PolyglotException: TypeError: invokeMember (extract) on com.intuit.karate.core.ScenarioBridge failed due to: Arity error - expected: 3 actual: 1\n- <js>.:program(Unnamed:1)\n\nfeatures\/TestStatusCode.feature:13\n"},{"result":{"nanos":0,"millis":0.0,"status":"skipped"},"step":{"line":14,"prefix":"Then","index":2,"text":"print ans"}}],"line":8,"description":"","durationMillis":189.54177,"failed":true,"error":"js failed:\n>>>>\n01: karate.extract(result)\n<<<<\norg.graalvm.polyglot.PolyglotException: TypeError: invokeMember (extract) on com.intuit.karate.core.ScenarioBridge failed due to: Arity error - expected: 3 actual: 1\n- <js>.:program(Unnamed:1)\n\nfeatures\/TestStatusCode.feature:13","executorName":"main","name":"Run python file","startTime":1684679609354,"refId":"[2:8]","endTime":1684679609551,"exampleIndex":-1}],"callDepth":0,"name":"sample api tests","description":"","resultDate":"2023-05-21 04:33:29 PM","durationMillis":740.287372,"passedCount":1}