{"failedCount":1,"prefixedPath":"features\/TestStatusCode.feature","packageQualifiedName":"features.TestStatusCode","loopIndex":-1,"relativePath":"features\/TestStatusCode.feature","scenarioResults":[{"sectionIndex":0,"stepResults":[{"result":{"nanos":916290,"millis":0.91629,"status":"passed"},"step":{"line":4,"prefix":"Given","index":0,"text":"url 'https:\/\/reqres.in\/api\/users?page=2'"}},{"result":{"nanos":642281070,"millis":642.28107,"status":"passed"},"step":{"line":5,"prefix":"When","index":1,"text":"method GET"},"stepLog":"16:21:03.775 request:\n1 > GET https:\/\/reqres.in\/api\/users?page=2\n1 > Host: reqres.in\n1 > Connection: Keep-Alive\n1 > User-Agent: Apache-HttpClient\/4.5.14 (Java\/17.0.6)\n1 > Accept-Encoding: gzip,deflate\n\n\n16:21:04.292 response time in milliseconds: 515\n1 < 200\n1 < Date: Sun, 21 May 2023 11:19:27 GMT\n1 < Content-Type: application\/json; charset=utf-8\n1 < Transfer-Encoding: chunked\n1 < Connection: keep-alive\n1 < X-Powered-By: Express\n1 < Access-Control-Allow-Origin: *\n1 < Etag: W\/\"406-ut0vzoCuidvyMf8arZpMpJ6ZRDw\"\n1 < Via: 1.1 vegur\n1 < Cache-Control: max-age=14400\n1 < CF-Cache-Status: HIT\n1 < Age: 3054\n1 < Report-To: {\"endpoints\":[{\"url\":\"https:\\\/\\\/a.nel.cloudflare.com\\\/report\\\/v3?s=gV%2Fb0NHOZo0%2FeQwTvWkBFUsy4JwFoDyjDHRaeGn%2BvINIZIErRyYD0qtUm88BqfcKvcmyvpUMcpzQCAssRgooRZVo3LNY5SRMDGwJCvdkPp5xagXI8sAg5bVk8g%3D%3D\"}],\"group\":\"cf-nel\",\"max_age\":604800}\n1 < NEL: {\"success_fraction\":0,\"report_to\":\"cf-nel\",\"max_age\":604800}\n1 < Vary: Accept-Encoding\n1 < Server: cloudflare\n1 < CF-RAY: 7cac6caf1d617b8b-DME\n{\"page\":2,\"per_page\":6,\"total\":12,\"total_pages\":2,\"data\":[{\"id\":7,\"email\":\"michael.lawson@reqres.in\",\"first_name\":\"Michael\",\"last_name\":\"Lawson\",\"avatar\":\"https:\/\/reqres.in\/img\/faces\/7-image.jpg\"},{\"id\":8,\"email\":\"lindsay.ferguson@reqres.in\",\"first_name\":\"Lindsay\",\"last_name\":\"Ferguson\",\"avatar\":\"https:\/\/reqres.in\/img\/faces\/8-image.jpg\"},{\"id\":9,\"email\":\"tobias.funke@reqres.in\",\"first_name\":\"Tobias\",\"last_name\":\"Funke\",\"avatar\":\"https:\/\/reqres.in\/img\/faces\/9-image.jpg\"},{\"id\":10,\"email\":\"byron.fields@reqres.in\",\"first_name\":\"Byron\",\"last_name\":\"Fields\",\"avatar\":\"https:\/\/reqres.in\/img\/faces\/10-image.jpg\"},{\"id\":11,\"email\":\"george.edwards@reqres.in\",\"first_name\":\"George\",\"last_name\":\"Edwards\",\"avatar\":\"https:\/\/reqres.in\/img\/faces\/11-image.jpg\"},{\"id\":12,\"email\":\"rachel.howell@reqres.in\",\"first_name\":\"Rachel\",\"last_name\":\"Howell\",\"avatar\":\"https:\/\/reqres.in\/img\/faces\/12-image.jpg\"}],\"support\":{\"url\":\"https:\/\/reqres.in\/#support-heading\",\"text\":\"To keep ReqRes free, contributions towards server costs are appreciated!\"}}\n\n"},{"result":{"nanos":16789,"millis":0.016789,"status":"passed"},"step":{"line":6,"prefix":"Then","index":2,"text":"status 200"}}],"executorName":"main","line":3,"name":"Test a sample get api","description":"","durationMillis":643.214149,"startTime":1684678863580,"failed":false,"refId":"[1:3]","endTime":1684678864306,"exampleIndex":-1},{"sectionIndex":1,"stepResults":[{"result":{"nanos":105361047,"millis":105.361047,"status":"passed"},"step":{"line":10,"prefix":"*","index":0,"text":"def response = karate.exec('python tests\/test_status_code.py')"},"stepLog":"16:21:04.316 command: [python, tests\/test_status_code.py], working dir: null\n"},{"result":{"nanos":7482517,"errorMessage":"match failed: EQUALS\n  $ | data types don't match (STRING:NUMBER)\n  ''\n  200\n\nfeatures\/TestStatusCode.feature:12","millis":7.482517,"status":"failed"},"step":{"line":12,"prefix":"And","index":1,"text":"match response == 200"},"stepLog":"16:21:04.428 features\/TestStatusCode.feature:12\nAnd match response == 200\nmatch failed: EQUALS\n  $ | data types don't match (STRING:NUMBER)\n  ''\n  200\n\nfeatures\/TestStatusCode.feature:12\n"}],"line":8,"description":"","durationMillis":112.843564,"failed":true,"error":"match failed: EQUALS\n  $ | data types don't match (STRING:NUMBER)\n  ''\n  200\n\nfeatures\/TestStatusCode.feature:12","executorName":"main","name":"Run python file","startTime":1684678864310,"refId":"[2:8]","endTime":1684678864428,"exampleIndex":-1}],"callDepth":0,"name":"sample api tests","description":"","resultDate":"2023-05-21 04:21:04 PM","durationMillis":756.057713,"passedCount":1}