{"failedCount":1,"prefixedPath":"features\/TestGetMethod.feature","packageQualifiedName":"features.TestGetMethod","loopIndex":-1,"relativePath":"features\/TestGetMethod.feature","scenarioResults":[{"sectionIndex":0,"stepResults":[{"result":{"nanos":1493118,"millis":1.493118,"status":"passed"},"step":{"comments":["#  for every scenario"],"background":true,"line":5,"prefix":"*","index":0,"text":"url 'https:\/\/reqres.in\/api'"}},{"result":{"nanos":458877,"millis":0.458877,"status":"passed"},"step":{"comments":["# get all users len should be 6"],"line":9,"prefix":"Given","index":0,"text":"path '\/users'"}},{"result":{"nanos":2050344,"millis":2.050344,"status":"passed"},"step":{"line":10,"prefix":"And","index":1,"text":"param page = 2"}},{"result":{"nanos":578008552,"millis":578.008552,"status":"passed"},"step":{"line":11,"prefix":"When","index":2,"text":"method GET"},"stepLog":"20:45:45.160 request:\n1 > GET https:\/\/reqres.in\/api\/users?page=2\n1 > Host: reqres.in\n1 > Connection: Keep-Alive\n1 > User-Agent: Apache-HttpClient\/4.5.14 (Java\/17.0.6)\n1 > Accept-Encoding: gzip,deflate\n\n\n20:45:45.535 response time in milliseconds: 372\n1 < 200\n1 < Date: Sun, 21 May 2023 15:44:09 GMT\n1 < Content-Type: application\/json; charset=utf-8\n1 < Transfer-Encoding: chunked\n1 < Connection: keep-alive\n1 < X-Powered-By: Express\n1 < Access-Control-Allow-Origin: *\n1 < Etag: W\/\"406-ut0vzoCuidvyMf8arZpMpJ6ZRDw\"\n1 < Via: 1.1 vegur\n1 < Cache-Control: max-age=14400\n1 < CF-Cache-Status: HIT\n1 < Age: 4517\n1 < Report-To: {\"endpoints\":[{\"url\":\"https:\\\/\\\/a.nel.cloudflare.com\\\/report\\\/v3?s=11pZmKsTn7nOfFaqWpuzQ7hczUPffdha1ltgIf0VSDVPLr6nICDKnadY88tTR89BvJPAuPrGuRylV8RMSqypIYk0qhxlUqEPgQ3vrkSJr%2BRvWg79ToR6%2FQFJuA%3D%3D\"}],\"group\":\"cf-nel\",\"max_age\":604800}\n1 < NEL: {\"success_fraction\":0,\"report_to\":\"cf-nel\",\"max_age\":604800}\n1 < Vary: Accept-Encoding\n1 < Server: cloudflare\n1 < CF-RAY: 7cadf06888e09d96-DME\n{\"page\":2,\"per_page\":6,\"total\":12,\"total_pages\":2,\"data\":[{\"id\":7,\"email\":\"michael.lawson@reqres.in\",\"first_name\":\"Michael\",\"last_name\":\"Lawson\",\"avatar\":\"https:\/\/reqres.in\/img\/faces\/7-image.jpg\"},{\"id\":8,\"email\":\"lindsay.ferguson@reqres.in\",\"first_name\":\"Lindsay\",\"last_name\":\"Ferguson\",\"avatar\":\"https:\/\/reqres.in\/img\/faces\/8-image.jpg\"},{\"id\":9,\"email\":\"tobias.funke@reqres.in\",\"first_name\":\"Tobias\",\"last_name\":\"Funke\",\"avatar\":\"https:\/\/reqres.in\/img\/faces\/9-image.jpg\"},{\"id\":10,\"email\":\"byron.fields@reqres.in\",\"first_name\":\"Byron\",\"last_name\":\"Fields\",\"avatar\":\"https:\/\/reqres.in\/img\/faces\/10-image.jpg\"},{\"id\":11,\"email\":\"george.edwards@reqres.in\",\"first_name\":\"George\",\"last_name\":\"Edwards\",\"avatar\":\"https:\/\/reqres.in\/img\/faces\/11-image.jpg\"},{\"id\":12,\"email\":\"rachel.howell@reqres.in\",\"first_name\":\"Rachel\",\"last_name\":\"Howell\",\"avatar\":\"https:\/\/reqres.in\/img\/faces\/12-image.jpg\"}],\"support\":{\"url\":\"https:\/\/reqres.in\/#support-heading\",\"text\":\"To keep ReqRes free, contributions towards server costs are appreciated!\"}}\n\n"},{"result":{"nanos":20705,"millis":0.020705,"status":"passed"},"step":{"line":12,"prefix":"Then","index":3,"text":"status 200"}},{"result":{"nanos":3783861,"millis":3.783861,"status":"passed"},"step":{"line":13,"prefix":"*","index":4,"text":"def total_users = response.data.length"}},{"result":{"nanos":12007529,"millis":12.007529,"status":"passed"},"step":{"line":14,"prefix":"And","index":5,"text":"match total_users == 6"}}],"executorName":"main","line":7,"name":"Get list of users","description":"","durationMillis":597.822986,"startTime":1684694744836,"failed":false,"refId":"[1:7]","endTime":1684694745572,"exampleIndex":-1},{"sectionIndex":1,"stepResults":[{"result":{"nanos":484302,"millis":0.484302,"status":"passed"},"step":{"comments":["#  for every scenario"],"background":true,"line":5,"prefix":"*","index":0,"text":"url 'https:\/\/reqres.in\/api'"}},{"result":{"nanos":319216,"millis":0.319216,"status":"passed"},"step":{"comments":["# get single user from list of users"],"line":18,"prefix":"Given","index":0,"text":"path '\/users'"}},{"result":{"nanos":485178,"millis":0.485178,"status":"passed"},"step":{"line":19,"prefix":"And","index":1,"text":"param page = 2"}},{"result":{"nanos":130145203,"millis":130.145203,"status":"passed"},"step":{"line":20,"prefix":"When","index":2,"text":"method GET"},"stepLog":"20:45:45.584 request:\n1 > GET https:\/\/reqres.in\/api\/users?page=2\n1 > Host: reqres.in\n1 > Connection: Keep-Alive\n1 > User-Agent: Apache-HttpClient\/4.5.14 (Java\/17.0.6)\n1 > Accept-Encoding: gzip,deflate\n\n\n20:45:45.712 response time in milliseconds: 127\n1 < 200\n1 < Date: Sun, 21 May 2023 15:44:09 GMT\n1 < Content-Type: application\/json; charset=utf-8\n1 < Transfer-Encoding: chunked\n1 < Connection: keep-alive\n1 < X-Powered-By: Express\n1 < Access-Control-Allow-Origin: *\n1 < Etag: W\/\"406-ut0vzoCuidvyMf8arZpMpJ6ZRDw\"\n1 < Via: 1.1 vegur\n1 < Cache-Control: max-age=14400\n1 < CF-Cache-Status: HIT\n1 < Age: 4517\n1 < Report-To: {\"endpoints\":[{\"url\":\"https:\\\/\\\/a.nel.cloudflare.com\\\/report\\\/v3?s=OVOg5kL9uo%2FFw6epCFVJhhuaUsCvkewmA0iBOy2qhG0A8c%2FptEO5e3E7F7J%2FvuYS2gxWdFLvmJg8AUGSSE9jF51z6AjXz58b9HQLi40RqthBSCN93ubs7M56WQ%3D%3D\"}],\"group\":\"cf-nel\",\"max_age\":604800}\n1 < NEL: {\"success_fraction\":0,\"report_to\":\"cf-nel\",\"max_age\":604800}\n1 < Vary: Accept-Encoding\n1 < Server: cloudflare\n1 < CF-RAY: 7cadf069b97f7a71-DME\n{\"page\":2,\"per_page\":6,\"total\":12,\"total_pages\":2,\"data\":[{\"id\":7,\"email\":\"michael.lawson@reqres.in\",\"first_name\":\"Michael\",\"last_name\":\"Lawson\",\"avatar\":\"https:\/\/reqres.in\/img\/faces\/7-image.jpg\"},{\"id\":8,\"email\":\"lindsay.ferguson@reqres.in\",\"first_name\":\"Lindsay\",\"last_name\":\"Ferguson\",\"avatar\":\"https:\/\/reqres.in\/img\/faces\/8-image.jpg\"},{\"id\":9,\"email\":\"tobias.funke@reqres.in\",\"first_name\":\"Tobias\",\"last_name\":\"Funke\",\"avatar\":\"https:\/\/reqres.in\/img\/faces\/9-image.jpg\"},{\"id\":10,\"email\":\"byron.fields@reqres.in\",\"first_name\":\"Byron\",\"last_name\":\"Fields\",\"avatar\":\"https:\/\/reqres.in\/img\/faces\/10-image.jpg\"},{\"id\":11,\"email\":\"george.edwards@reqres.in\",\"first_name\":\"George\",\"last_name\":\"Edwards\",\"avatar\":\"https:\/\/reqres.in\/img\/faces\/11-image.jpg\"},{\"id\":12,\"email\":\"rachel.howell@reqres.in\",\"first_name\":\"Rachel\",\"last_name\":\"Howell\",\"avatar\":\"https:\/\/reqres.in\/img\/faces\/12-image.jpg\"}],\"support\":{\"url\":\"https:\/\/reqres.in\/#support-heading\",\"text\":\"To keep ReqRes free, contributions towards server costs are appreciated!\"}}\n\n"},{"result":{"nanos":2210964,"millis":2.210964,"status":"passed"},"step":{"line":21,"prefix":"*","index":3,"text":"def user_id  = response.data[0].id"}},{"result":{"nanos":1158873,"millis":1.158873,"status":"passed"},"step":{"line":22,"prefix":"*","index":4,"text":"def user_name = response.data[0].first_name"}},{"result":{"nanos":1245442,"millis":1.245442,"status":"passed"},"step":{"line":23,"prefix":"And","index":5,"text":"match user_id == 7"}},{"result":{"nanos":2632389,"millis":2.632389,"status":"passed"},"step":{"line":24,"prefix":"And","index":6,"text":"match user_name == 'Michael'"}}],"executorName":"main","line":16,"name":"Get single user","description":"","durationMillis":138.681567,"startTime":1684694745578,"failed":false,"refId":"[2:16]","endTime":1684694745721,"exampleIndex":-1},{"sectionIndex":2,"stepResults":[{"result":{"nanos":247160,"millis":0.24716,"status":"passed"},"step":{"comments":["#  for every scenario"],"background":true,"line":5,"prefix":"*","index":0,"text":"url 'https:\/\/reqres.in\/api'"}},{"result":{"nanos":44806915,"errorMessage":"js failed:\n>>>>\n01: karate.call('python tests\/test_runner.py')\n<<<<\norg.graalvm.polyglot.PolyglotException: java.io.FileNotFoundException: \/home\/al1\/Desktop\/python_proj\/veeart_test\/features\/python tests\/test_runner.py (No such file or directory)\n- com.intuit.karate.resource.FileResource.getStream(FileResource.java:98)\n- com.intuit.karate.core.ScenarioFileReader.readFileAsStream(ScenarioFileReader.java:99)\n- com.intuit.karate.core.ScenarioFileReader.readFile(ScenarioFileReader.java:76)\n- com.intuit.karate.core.ScenarioBridge.call(ScenarioBridge.java:163)\n- com.intuit.karate.core.ScenarioBridge.call(ScenarioBridge.java:150)\n- <js>.:program(Unnamed:1)\n\nfeatures\/TestGetMethod.feature:27","millis":44.806915,"status":"failed"},"step":{"line":27,"prefix":"*","index":0,"text":"def result = karate.call('python tests\/test_runner.py')"},"stepLog":"20:45:45.778 features\/TestGetMethod.feature:27\n* def result = karate.call('python tests\/test_runner.py')\njs failed:\n>>>>\n01: karate.call('python tests\/test_runner.py')\n<<<<\norg.graalvm.polyglot.PolyglotException: java.io.FileNotFoundException: \/home\/al1\/Desktop\/python_proj\/veeart_test\/features\/python tests\/test_runner.py (No such file or directory)\n- com.intuit.karate.resource.FileResource.getStream(FileResource.java:98)\n- com.intuit.karate.core.ScenarioFileReader.readFileAsStream(ScenarioFileReader.java:99)\n- com.intuit.karate.core.ScenarioFileReader.readFile(ScenarioFileReader.java:76)\n- com.intuit.karate.core.ScenarioBridge.call(ScenarioBridge.java:163)\n- com.intuit.karate.core.ScenarioBridge.call(ScenarioBridge.java:150)\n- <js>.:program(Unnamed:1)\n\nfeatures\/TestGetMethod.feature:27\n"},{"result":{"nanos":0,"millis":0.0,"status":"skipped"},"step":{"line":28,"prefix":"And","index":1,"text":"print result"}}],"line":26,"description":"","durationMillis":45.054075,"failed":true,"error":"js failed:\n>>>>\n01: karate.call('python tests\/test_runner.py')\n<<<<\norg.graalvm.polyglot.PolyglotException: java.io.FileNotFoundException: \/home\/al1\/Desktop\/python_proj\/veeart_test\/features\/python tests\/test_runner.py (No such file or directory)\n- com.intuit.karate.resource.FileResource.getStream(FileResource.java:98)\n- com.intuit.karate.core.ScenarioFileReader.readFileAsStream(ScenarioFileReader.java:99)\n- com.intuit.karate.core.ScenarioFileReader.readFile(ScenarioFileReader.java:76)\n- com.intuit.karate.core.ScenarioBridge.call(ScenarioBridge.java:163)\n- com.intuit.karate.core.ScenarioBridge.call(ScenarioBridge.java:150)\n- <js>.:program(Unnamed:1)\n\nfeatures\/TestGetMethod.feature:27","executorName":"main","name":"Run python file","startTime":1684694745727,"refId":"[3:26]","endTime":1684694745778,"exampleIndex":-1}],"callDepth":0,"name":"sample api tests","description":"","resultDate":"2023-05-21 08:45:45 PM","durationMillis":781.558628,"passedCount":2}