{"failedCount":1,"prefixedPath":"features\/TestStatusCode.feature","packageQualifiedName":"features.TestStatusCode","loopIndex":-1,"relativePath":"features\/TestStatusCode.feature","scenarioResults":[{"sectionIndex":0,"stepResults":[{"result":{"nanos":950027,"millis":0.950027,"status":"passed"},"step":{"line":4,"prefix":"Given","index":0,"text":"url 'https:\/\/reqres.in\/api\/users?page=2'"}},{"result":{"nanos":420931371,"millis":420.931371,"status":"passed"},"step":{"line":5,"prefix":"When","index":1,"text":"method get"},"stepLog":"15:35:13.058 request:\n1 > GET https:\/\/reqres.in\/api\/users?page=2\n1 > Host: reqres.in\n1 > Connection: Keep-Alive\n1 > User-Agent: Apache-HttpClient\/4.5.14 (Java\/17.0.6)\n1 > Accept-Encoding: gzip,deflate\n\n\n15:35:13.338 response time in milliseconds: 273\n1 < 200\n1 < Date: Sun, 21 May 2023 10:33:36 GMT\n1 < Content-Type: application\/json; charset=utf-8\n1 < Transfer-Encoding: chunked\n1 < Connection: keep-alive\n1 < X-Powered-By: Express\n1 < Access-Control-Allow-Origin: *\n1 < Etag: W\/\"406-ut0vzoCuidvyMf8arZpMpJ6ZRDw\"\n1 < Via: 1.1 vegur\n1 < Cache-Control: max-age=14400\n1 < CF-Cache-Status: HIT\n1 < Age: 303\n1 < Report-To: {\"endpoints\":[{\"url\":\"https:\\\/\\\/a.nel.cloudflare.com\\\/report\\\/v3?s=QBUlCIaQttdeP%2F%2FTg%2BMi9Qw81Lk5e8gsJbhSLVgg649H5QGohI0B5eihiyTf8c8UeKN%2BfkMpWCXlraopFlhXV7HSh%2BdJB%2FEeCuWtPU40BxQV87xpSDfU5eP1OQ%3D%3D\"}],\"group\":\"cf-nel\",\"max_age\":604800}\n1 < NEL: {\"success_fraction\":0,\"report_to\":\"cf-nel\",\"max_age\":604800}\n1 < Vary: Accept-Encoding\n1 < Server: cloudflare\n1 < CF-RAY: 7cac298598b6169f-DME\n{\"page\":2,\"per_page\":6,\"total\":12,\"total_pages\":2,\"data\":[{\"id\":7,\"email\":\"michael.lawson@reqres.in\",\"first_name\":\"Michael\",\"last_name\":\"Lawson\",\"avatar\":\"https:\/\/reqres.in\/img\/faces\/7-image.jpg\"},{\"id\":8,\"email\":\"lindsay.ferguson@reqres.in\",\"first_name\":\"Lindsay\",\"last_name\":\"Ferguson\",\"avatar\":\"https:\/\/reqres.in\/img\/faces\/8-image.jpg\"},{\"id\":9,\"email\":\"tobias.funke@reqres.in\",\"first_name\":\"Tobias\",\"last_name\":\"Funke\",\"avatar\":\"https:\/\/reqres.in\/img\/faces\/9-image.jpg\"},{\"id\":10,\"email\":\"byron.fields@reqres.in\",\"first_name\":\"Byron\",\"last_name\":\"Fields\",\"avatar\":\"https:\/\/reqres.in\/img\/faces\/10-image.jpg\"},{\"id\":11,\"email\":\"george.edwards@reqres.in\",\"first_name\":\"George\",\"last_name\":\"Edwards\",\"avatar\":\"https:\/\/reqres.in\/img\/faces\/11-image.jpg\"},{\"id\":12,\"email\":\"rachel.howell@reqres.in\",\"first_name\":\"Rachel\",\"last_name\":\"Howell\",\"avatar\":\"https:\/\/reqres.in\/img\/faces\/12-image.jpg\"}],\"support\":{\"url\":\"https:\/\/reqres.in\/#support-heading\",\"text\":\"To keep ReqRes free, contributions towards server costs are appreciated!\"}}\n\n"},{"result":{"nanos":23330,"millis":0.02333,"status":"passed"},"step":{"line":6,"prefix":"Then","index":2,"text":"status 200"}}],"executorName":"main","line":3,"name":"Test a sample get api","description":"","durationMillis":421.904728,"startTime":1684676112863,"failed":false,"refId":"[1:3]","endTime":1684676113369,"exampleIndex":-1},{"sectionIndex":1,"stepResults":[{"result":{"nanos":115720692,"millis":115.720692,"status":"passed"},"step":{"line":9,"prefix":"*","index":0,"text":"def result = karate.exec('python tests\/test_status_code.py')"},"stepLog":"15:35:13.384 command: [python, tests\/test_status_code.py], working dir: null\n"},{"result":{"nanos":9810275,"errorMessage":"js failed:\n>>>>\n01: response\n<<<<\norg.graalvm.polyglot.PolyglotException: ReferenceError: \"response\" is not defined\n- <js>.:program(Unnamed:1)\n\nfeatures\/TestStatusCode.feature:10","millis":9.810275,"status":"failed"},"step":{"line":10,"prefix":"Then","index":1,"text":"match response ==200"},"stepLog":"15:35:13.507 features\/TestStatusCode.feature:10\nThen match response ==200\njs failed:\n>>>>\n01: response\n<<<<\norg.graalvm.polyglot.PolyglotException: ReferenceError: \"response\" is not defined\n- <js>.:program(Unnamed:1)\n\nfeatures\/TestStatusCode.feature:10\n"}],"line":8,"description":"","durationMillis":125.530967,"failed":true,"error":"js failed:\n>>>>\n01: response\n<<<<\norg.graalvm.polyglot.PolyglotException: ReferenceError: \"response\" is not defined\n- <js>.:program(Unnamed:1)\n\nfeatures\/TestStatusCode.feature:10","executorName":"main","name":"Run python file","startTime":1684676113375,"refId":"[2:8]","endTime":1684676113507,"exampleIndex":-1}],"callDepth":0,"name":"sample api tests","description":"","resultDate":"2023-05-21 03:35:13 PM","durationMillis":547.435695,"passedCount":1}