{"failedCount":1,"prefixedPath":"features\/TestStatusCode.feature","packageQualifiedName":"features.TestStatusCode","loopIndex":-1,"relativePath":"features\/TestStatusCode.feature","scenarioResults":[{"sectionIndex":0,"stepResults":[{"result":{"nanos":961177,"millis":0.961177,"status":"passed"},"step":{"line":4,"prefix":"Given","index":0,"text":"url 'https:\/\/reqres.in\/api\/users?page=2'"}},{"result":{"nanos":404637828,"millis":404.637828,"status":"passed"},"step":{"line":5,"prefix":"When","index":1,"text":"method GET"},"stepLog":"16:19:07.891 request:\n1 > GET https:\/\/reqres.in\/api\/users?page=2\n1 > Host: reqres.in\n1 > Connection: Keep-Alive\n1 > User-Agent: Apache-HttpClient\/4.5.14 (Java\/17.0.6)\n1 > Accept-Encoding: gzip,deflate\n\n\n16:19:08.163 response time in milliseconds: 268\n1 < 200\n1 < Date: Sun, 21 May 2023 11:17:31 GMT\n1 < Content-Type: application\/json; charset=utf-8\n1 < Transfer-Encoding: chunked\n1 < Connection: keep-alive\n1 < X-Powered-By: Express\n1 < Access-Control-Allow-Origin: *\n1 < Etag: W\/\"406-ut0vzoCuidvyMf8arZpMpJ6ZRDw\"\n1 < Via: 1.1 vegur\n1 < Cache-Control: max-age=14400\n1 < CF-Cache-Status: HIT\n1 < Age: 2938\n1 < Report-To: {\"endpoints\":[{\"url\":\"https:\\\/\\\/a.nel.cloudflare.com\\\/report\\\/v3?s=G%2BjEZH%2BRxn%2FJtgtly7C31KAbxjABg%2B4Xen07reUz3ECrBRcFl9fCBpRYqdSOWtcwHgpKZUsWXEeeLmQ9gAIL4tMW%2BV9r9PhAGCN18XMOozpJHmVcg9YPLdOjXA%3D%3D\"}],\"group\":\"cf-nel\",\"max_age\":604800}\n1 < NEL: {\"success_fraction\":0,\"report_to\":\"cf-nel\",\"max_age\":604800}\n1 < Vary: Accept-Encoding\n1 < Server: cloudflare\n1 < CF-RAY: 7cac69d95f7b9daa-DME\n{\"page\":2,\"per_page\":6,\"total\":12,\"total_pages\":2,\"data\":[{\"id\":7,\"email\":\"michael.lawson@reqres.in\",\"first_name\":\"Michael\",\"last_name\":\"Lawson\",\"avatar\":\"https:\/\/reqres.in\/img\/faces\/7-image.jpg\"},{\"id\":8,\"email\":\"lindsay.ferguson@reqres.in\",\"first_name\":\"Lindsay\",\"last_name\":\"Ferguson\",\"avatar\":\"https:\/\/reqres.in\/img\/faces\/8-image.jpg\"},{\"id\":9,\"email\":\"tobias.funke@reqres.in\",\"first_name\":\"Tobias\",\"last_name\":\"Funke\",\"avatar\":\"https:\/\/reqres.in\/img\/faces\/9-image.jpg\"},{\"id\":10,\"email\":\"byron.fields@reqres.in\",\"first_name\":\"Byron\",\"last_name\":\"Fields\",\"avatar\":\"https:\/\/reqres.in\/img\/faces\/10-image.jpg\"},{\"id\":11,\"email\":\"george.edwards@reqres.in\",\"first_name\":\"George\",\"last_name\":\"Edwards\",\"avatar\":\"https:\/\/reqres.in\/img\/faces\/11-image.jpg\"},{\"id\":12,\"email\":\"rachel.howell@reqres.in\",\"first_name\":\"Rachel\",\"last_name\":\"Howell\",\"avatar\":\"https:\/\/reqres.in\/img\/faces\/12-image.jpg\"}],\"support\":{\"url\":\"https:\/\/reqres.in\/#support-heading\",\"text\":\"To keep ReqRes free, contributions towards server costs are appreciated!\"}}\n\n"},{"result":{"nanos":18379,"millis":0.018379,"status":"passed"},"step":{"line":6,"prefix":"Then","index":2,"text":"status 200"}}],"executorName":"main","line":3,"name":"Test a sample get api","description":"","durationMillis":405.617384,"startTime":1684678747685,"failed":false,"refId":"[1:3]","endTime":1684678748180,"exampleIndex":-1},{"sectionIndex":1,"stepResults":[{"result":{"nanos":116338001,"millis":116.338001,"status":"passed"},"step":{"line":10,"prefix":"*","index":0,"text":"def response = karate.exec('python tests\/test_status_code.py')"},"stepLog":"16:19:08.191 command: [python, tests\/test_status_code.py], working dir: null\n"},{"result":{"nanos":0,"errorMessage":"no step-definition method match found for: response GET\nfeatures\/TestStatusCode.feature:11","millis":0.0,"status":"failed"},"step":{"line":11,"prefix":"When","index":1,"text":"response GET"},"stepLog":"16:19:08.306 features\/TestStatusCode.feature:11\nWhen response GET\nno step-definition method match found for: response GET\nfeatures\/TestStatusCode.feature:11\n"},{"result":{"nanos":0,"millis":0.0,"status":"skipped"},"step":{"line":12,"prefix":"Then","index":2,"text":"print response"}}],"line":8,"description":"","durationMillis":116.338001,"failed":true,"error":"no step-definition method match found for: response GET\nfeatures\/TestStatusCode.feature:11","executorName":"main","name":"Run python file","startTime":1684678748184,"refId":"[2:8]","endTime":1684678748306,"exampleIndex":-1}],"callDepth":0,"name":"sample api tests","description":"","resultDate":"2023-05-21 04:19:08 PM","durationMillis":521.955385,"passedCount":1}