{"failedCount":1,"prefixedPath":"features\/TestStatusCode.feature","packageQualifiedName":"features.TestStatusCode","loopIndex":-1,"relativePath":"features\/TestStatusCode.feature","scenarioResults":[{"sectionIndex":0,"stepResults":[{"result":{"nanos":984877,"millis":0.984877,"status":"passed"},"step":{"line":4,"prefix":"Given","index":0,"text":"url 'https:\/\/reqres.in\/api\/users?page=2'"}},{"result":{"nanos":411521385,"millis":411.521385,"status":"passed"},"step":{"line":5,"prefix":"When","index":1,"text":"method get"},"stepLog":"15:49:53.907 request:\n1 > GET https:\/\/reqres.in\/api\/users?page=2\n1 > Host: reqres.in\n1 > Connection: Keep-Alive\n1 > User-Agent: Apache-HttpClient\/4.5.14 (Java\/17.0.6)\n1 > Accept-Encoding: gzip,deflate\n\n\n15:49:54.182 response time in milliseconds: 268\n1 < 200\n1 < Date: Sun, 21 May 2023 10:48:17 GMT\n1 < Content-Type: application\/json; charset=utf-8\n1 < Transfer-Encoding: chunked\n1 < Connection: keep-alive\n1 < X-Powered-By: Express\n1 < Access-Control-Allow-Origin: *\n1 < Etag: W\/\"406-ut0vzoCuidvyMf8arZpMpJ6ZRDw\"\n1 < Via: 1.1 vegur\n1 < Cache-Control: max-age=14400\n1 < CF-Cache-Status: HIT\n1 < Age: 1184\n1 < Report-To: {\"endpoints\":[{\"url\":\"https:\\\/\\\/a.nel.cloudflare.com\\\/report\\\/v3?s=V75mada8EyooYjSmpzFYKeSNQqdfDrIUvBYKT%2BJsBt6dmeoxRWJ1IDLbHOf89HmACD0sBVVCSp2qDRlFkRlMgYI4LAsAN3%2FK5tkQCoYdNEi87GScwLbqmNPd%2Fw%3D%3D\"}],\"group\":\"cf-nel\",\"max_age\":604800}\n1 < NEL: {\"success_fraction\":0,\"report_to\":\"cf-nel\",\"max_age\":604800}\n1 < Vary: Accept-Encoding\n1 < Server: cloudflare\n1 < CF-RAY: 7cac3f06e9f175a3-DME\n{\"page\":2,\"per_page\":6,\"total\":12,\"total_pages\":2,\"data\":[{\"id\":7,\"email\":\"michael.lawson@reqres.in\",\"first_name\":\"Michael\",\"last_name\":\"Lawson\",\"avatar\":\"https:\/\/reqres.in\/img\/faces\/7-image.jpg\"},{\"id\":8,\"email\":\"lindsay.ferguson@reqres.in\",\"first_name\":\"Lindsay\",\"last_name\":\"Ferguson\",\"avatar\":\"https:\/\/reqres.in\/img\/faces\/8-image.jpg\"},{\"id\":9,\"email\":\"tobias.funke@reqres.in\",\"first_name\":\"Tobias\",\"last_name\":\"Funke\",\"avatar\":\"https:\/\/reqres.in\/img\/faces\/9-image.jpg\"},{\"id\":10,\"email\":\"byron.fields@reqres.in\",\"first_name\":\"Byron\",\"last_name\":\"Fields\",\"avatar\":\"https:\/\/reqres.in\/img\/faces\/10-image.jpg\"},{\"id\":11,\"email\":\"george.edwards@reqres.in\",\"first_name\":\"George\",\"last_name\":\"Edwards\",\"avatar\":\"https:\/\/reqres.in\/img\/faces\/11-image.jpg\"},{\"id\":12,\"email\":\"rachel.howell@reqres.in\",\"first_name\":\"Rachel\",\"last_name\":\"Howell\",\"avatar\":\"https:\/\/reqres.in\/img\/faces\/12-image.jpg\"}],\"support\":{\"url\":\"https:\/\/reqres.in\/#support-heading\",\"text\":\"To keep ReqRes free, contributions towards server costs are appreciated!\"}}\n\n"},{"result":{"nanos":21947,"millis":0.021947,"status":"passed"},"step":{"line":6,"prefix":"Then","index":2,"text":"status 200"}}],"executorName":"main","line":3,"name":"Test a sample get api","description":"","durationMillis":412.528209,"startTime":1684676993713,"failed":false,"refId":"[1:3]","endTime":1684676994209,"exampleIndex":-1},{"sectionIndex":1,"stepResults":[{"result":{"nanos":106711598,"millis":106.711598,"status":"passed"},"step":{"line":9,"prefix":"*","index":0,"text":"def response = karate.exec('python tests\/test_status_code.py')"},"stepLog":"15:49:54.221 command: [python, tests\/test_status_code.py], working dir: null\n"},{"result":{"nanos":71661,"errorMessage":"Cannot invoke \"com.intuit.karate.http.Response.getStatus()\" because \"this.response\" is null\nfeatures\/TestStatusCode.feature:10","millis":0.071661,"status":"failed"},"step":{"line":10,"prefix":"Then","index":1,"text":"status 200"},"stepLog":"15:49:54.326 features\/TestStatusCode.feature:10\nThen status 200\nCannot invoke \"com.intuit.karate.http.Response.getStatus()\" because \"this.response\" is null\nfeatures\/TestStatusCode.feature:10\n"}],"line":8,"description":"","durationMillis":106.783259,"failed":true,"error":"Cannot invoke \"com.intuit.karate.http.Response.getStatus()\" because \"this.response\" is null\nfeatures\/TestStatusCode.feature:10","executorName":"main","name":"Run python file","startTime":1684676994214,"refId":"[2:8]","endTime":1684676994326,"exampleIndex":-1}],"callDepth":0,"name":"sample api tests","description":"","resultDate":"2023-05-21 03:49:54 PM","durationMillis":519.311468,"passedCount":1}