{"failedCount":0,"prefixedPath":"features\/TestStatusCode.feature","packageQualifiedName":"features.TestStatusCode","loopIndex":-1,"relativePath":"features\/TestStatusCode.feature","scenarioResults":[{"sectionIndex":0,"stepResults":[{"result":{"nanos":1050859,"millis":1.050859,"status":"passed"},"step":{"line":4,"prefix":"Given","index":0,"text":"url 'https:\/\/reqres.in\/api\/users?page=2'"}},{"result":{"nanos":433403487,"millis":433.403487,"status":"passed"},"step":{"line":5,"prefix":"When","index":1,"text":"method get"},"stepLog":"15:22:28.020 request:\n1 > GET https:\/\/reqres.in\/api\/users?page=2\n1 > Host: reqres.in\n1 > Connection: Keep-Alive\n1 > User-Agent: Apache-HttpClient\/4.5.14 (Java\/17.0.6)\n1 > Accept-Encoding: gzip,deflate\n\n\n15:22:28.310 response time in milliseconds: 287\n1 < 200\n1 < Date: Sun, 21 May 2023 10:20:51 GMT\n1 < Content-Type: application\/json; charset=utf-8\n1 < Transfer-Encoding: chunked\n1 < Connection: keep-alive\n1 < X-Powered-By: Express\n1 < Access-Control-Allow-Origin: *\n1 < Etag: W\/\"406-ut0vzoCuidvyMf8arZpMpJ6ZRDw\"\n1 < Via: 1.1 vegur\n1 < Cache-Control: max-age=14400\n1 < CF-Cache-Status: HIT\n1 < Age: 6741\n1 < Report-To: {\"endpoints\":[{\"url\":\"https:\\\/\\\/a.nel.cloudflare.com\\\/report\\\/v3?s=Jx3xvC56hykdigE9QhavMxXlqbOvWa8dtRf5zRChTKKsvZmLusrtEId3A1ppRcqMlXhouXCOxY8EhvhjJaOIkm1rvCPLXEbr2vfYw7CTW0cbHmp8baHXhgNNIw%3D%3D\"}],\"group\":\"cf-nel\",\"max_age\":604800}\n1 < NEL: {\"success_fraction\":0,\"report_to\":\"cf-nel\",\"max_age\":604800}\n1 < Vary: Accept-Encoding\n1 < Server: cloudflare\n1 < CF-RAY: 7cac16d83cfd2de7-DME\n{\"page\":2,\"per_page\":6,\"total\":12,\"total_pages\":2,\"data\":[{\"id\":7,\"email\":\"michael.lawson@reqres.in\",\"first_name\":\"Michael\",\"last_name\":\"Lawson\",\"avatar\":\"https:\/\/reqres.in\/img\/faces\/7-image.jpg\"},{\"id\":8,\"email\":\"lindsay.ferguson@reqres.in\",\"first_name\":\"Lindsay\",\"last_name\":\"Ferguson\",\"avatar\":\"https:\/\/reqres.in\/img\/faces\/8-image.jpg\"},{\"id\":9,\"email\":\"tobias.funke@reqres.in\",\"first_name\":\"Tobias\",\"last_name\":\"Funke\",\"avatar\":\"https:\/\/reqres.in\/img\/faces\/9-image.jpg\"},{\"id\":10,\"email\":\"byron.fields@reqres.in\",\"first_name\":\"Byron\",\"last_name\":\"Fields\",\"avatar\":\"https:\/\/reqres.in\/img\/faces\/10-image.jpg\"},{\"id\":11,\"email\":\"george.edwards@reqres.in\",\"first_name\":\"George\",\"last_name\":\"Edwards\",\"avatar\":\"https:\/\/reqres.in\/img\/faces\/11-image.jpg\"},{\"id\":12,\"email\":\"rachel.howell@reqres.in\",\"first_name\":\"Rachel\",\"last_name\":\"Howell\",\"avatar\":\"https:\/\/reqres.in\/img\/faces\/12-image.jpg\"}],\"support\":{\"url\":\"https:\/\/reqres.in\/#support-heading\",\"text\":\"To keep ReqRes free, contributions towards server costs are appreciated!\"}}\n\n"},{"result":{"nanos":24409,"millis":0.024409,"status":"passed"},"step":{"line":6,"prefix":"Then","index":2,"text":"status 200"}}],"executorName":"main","line":3,"name":"Test a sample get api","description":"","durationMillis":434.478755,"startTime":1684675347804,"failed":false,"refId":"[1:3]","endTime":1684675348324,"exampleIndex":-1},{"sectionIndex":1,"stepResults":[{"result":{"nanos":108506574,"millis":108.506574,"status":"passed"},"step":{"line":9,"prefix":"*","index":0,"text":"def result = karate.exec('python tests\/test_status_code.py')"},"stepLog":"15:22:28.335 command: [python, tests\/test_status_code.py], working dir: null\n15:22:28.430 Traceback (most recent call last):\n15:22:28.430   File \"\/home\/al1\/Desktop\/python_proj\/veeart_test\/tests\/test_status_code.py\", line 3, in <module>\n15:22:28.430     from cfg.config import SERVICE_URL\n15:22:28.430 ModuleNotFoundError: No module named 'cfg'\n"}],"executorName":"main","line":8,"name":"Run python file","description":"","durationMillis":108.506574,"startTime":1684675348328,"failed":false,"refId":"[2:8]","endTime":1684675348440,"exampleIndex":-1}],"callDepth":0,"name":"sample api tests","description":"","resultDate":"2023-05-21 03:22:28 PM","durationMillis":542.985329,"passedCount":2}