{"failedCount":0,"prefixedPath":"features\/TestStatusCode.feature","packageQualifiedName":"features.TestStatusCode","loopIndex":-1,"relativePath":"features\/TestStatusCode.feature","scenarioResults":[{"sectionIndex":0,"stepResults":[{"result":{"nanos":1817454,"millis":1.817454,"status":"passed"},"step":{"line":4,"prefix":"Given","index":0,"text":"url 'https:\/\/reqres.in\/api\/users?page=2'"}},{"result":{"nanos":474951048,"millis":474.951048,"status":"passed"},"step":{"line":5,"prefix":"When","index":1,"text":"method GET"},"stepLog":"16:40:39.005 request:\n1 > GET https:\/\/reqres.in\/api\/users?page=2\n1 > Host: reqres.in\n1 > Connection: Keep-Alive\n1 > User-Agent: Apache-HttpClient\/4.5.14 (Java\/17.0.6)\n1 > Accept-Encoding: gzip,deflate\n\n\n16:40:39.338 response time in milliseconds: 324\n1 < 200\n1 < Date: Sun, 21 May 2023 11:39:02 GMT\n1 < Content-Type: application\/json; charset=utf-8\n1 < Transfer-Encoding: chunked\n1 < Connection: keep-alive\n1 < X-Powered-By: Express\n1 < Access-Control-Allow-Origin: *\n1 < Etag: W\/\"406-ut0vzoCuidvyMf8arZpMpJ6ZRDw\"\n1 < Via: 1.1 vegur\n1 < Cache-Control: max-age=14400\n1 < CF-Cache-Status: HIT\n1 < Age: 4229\n1 < Report-To: {\"endpoints\":[{\"url\":\"https:\\\/\\\/a.nel.cloudflare.com\\\/report\\\/v3?s=xgqQlDZFx%2F1MyvJM8yP%2BPIJftMZZ9HHse3SzS3iyxvmDl1yuLR%2Fs0rF%2F3J0VIUw8pfeTBFqcM2Bc5GA4NjHJWfkks6TxyRQtwagVDL9EY%2Fdk1N2iQZJFR0hlMw%3D%3D\"}],\"group\":\"cf-nel\",\"max_age\":604800}\n1 < NEL: {\"success_fraction\":0,\"report_to\":\"cf-nel\",\"max_age\":604800}\n1 < Vary: Accept-Encoding\n1 < Server: cloudflare\n1 < CF-RAY: 7cac895f0d1d7b4f-DME\n{\"page\":2,\"per_page\":6,\"total\":12,\"total_pages\":2,\"data\":[{\"id\":7,\"email\":\"michael.lawson@reqres.in\",\"first_name\":\"Michael\",\"last_name\":\"Lawson\",\"avatar\":\"https:\/\/reqres.in\/img\/faces\/7-image.jpg\"},{\"id\":8,\"email\":\"lindsay.ferguson@reqres.in\",\"first_name\":\"Lindsay\",\"last_name\":\"Ferguson\",\"avatar\":\"https:\/\/reqres.in\/img\/faces\/8-image.jpg\"},{\"id\":9,\"email\":\"tobias.funke@reqres.in\",\"first_name\":\"Tobias\",\"last_name\":\"Funke\",\"avatar\":\"https:\/\/reqres.in\/img\/faces\/9-image.jpg\"},{\"id\":10,\"email\":\"byron.fields@reqres.in\",\"first_name\":\"Byron\",\"last_name\":\"Fields\",\"avatar\":\"https:\/\/reqres.in\/img\/faces\/10-image.jpg\"},{\"id\":11,\"email\":\"george.edwards@reqres.in\",\"first_name\":\"George\",\"last_name\":\"Edwards\",\"avatar\":\"https:\/\/reqres.in\/img\/faces\/11-image.jpg\"},{\"id\":12,\"email\":\"rachel.howell@reqres.in\",\"first_name\":\"Rachel\",\"last_name\":\"Howell\",\"avatar\":\"https:\/\/reqres.in\/img\/faces\/12-image.jpg\"}],\"support\":{\"url\":\"https:\/\/reqres.in\/#support-heading\",\"text\":\"To keep ReqRes free, contributions towards server costs are appreciated!\"}}\n\n"},{"result":{"nanos":26899,"millis":0.026899,"status":"passed"},"step":{"line":6,"prefix":"Then","index":2,"text":"status 200"}}],"executorName":"main","line":3,"name":"Test a sample get api","description":"","durationMillis":476.795401,"startTime":1684680038794,"failed":false,"refId":"[1:3]","endTime":1684680039362,"exampleIndex":-1},{"sectionIndex":1,"stepResults":[{"result":{"nanos":107051861,"millis":107.051861,"status":"passed"},"step":{"line":10,"prefix":"*","index":0,"text":"def result = karate.exec('python tests\/test_status_code.py')"},"stepLog":"16:40:39.373 command: [python, tests\/test_status_code.py], working dir: null\n"},{"result":{"nanos":3607051,"millis":3.607051,"status":"passed"},"step":{"line":11,"prefix":"*","index":1,"text":"def ans = karate.extract(result,'date',1)"},"stepLog":"16:40:39.480 failed to find pattern: date\n"},{"result":{"nanos":2710579,"millis":2.710579,"status":"passed"},"step":{"line":12,"prefix":"Then","index":2,"text":"print ans"},"stepLog":"16:40:39.483 [print] null \n"}],"executorName":"main","line":8,"name":"Run python file","description":"","durationMillis":113.369491,"startTime":1684680039366,"failed":false,"refId":"[2:8]","endTime":1684680039483,"exampleIndex":-1}],"callDepth":0,"name":"sample api tests","description":"","resultDate":"2023-05-21 04:40:39 PM","durationMillis":590.164892,"passedCount":2}