{"failedCount":1,"prefixedPath":"features\/TestStatusCode.feature","packageQualifiedName":"features.TestStatusCode","loopIndex":-1,"relativePath":"features\/TestStatusCode.feature","scenarioResults":[{"sectionIndex":0,"stepResults":[{"result":{"nanos":901665,"millis":0.901665,"status":"passed"},"step":{"comments":["#  every reset scenario"],"background":true,"line":5,"prefix":"*","index":0,"text":"url 'https:\/\/reqres.in\/api'"}},{"result":{"nanos":289362,"millis":0.289362,"status":"passed"},"step":{"comments":["#    get all users"],"line":9,"prefix":"Given","index":0,"text":"path '\/users'"}},{"result":{"nanos":1375638,"millis":1.375638,"status":"passed"},"step":{"line":10,"prefix":"And","index":1,"text":"param page = 2"}},{"result":{"nanos":5497521571,"millis":5497.521571,"status":"passed"},"step":{"line":11,"prefix":"When","index":2,"text":"method GET"},"stepLog":"20:08:18.855 request:\n1 > GET https:\/\/reqres.in\/api\/users?page=2\n1 > Host: reqres.in\n1 > Connection: Keep-Alive\n1 > User-Agent: Apache-HttpClient\/4.5.14 (Java\/17.0.6)\n1 > Accept-Encoding: gzip,deflate\n\n\n20:08:24.203 response time in milliseconds: 5346\n1 < 200\n1 < Date: Sun, 21 May 2023 15:06:47 GMT\n1 < Content-Type: application\/json; charset=utf-8\n1 < Transfer-Encoding: chunked\n1 < Connection: keep-alive\n1 < X-Powered-By: Express\n1 < Access-Control-Allow-Origin: *\n1 < Etag: W\/\"406-ut0vzoCuidvyMf8arZpMpJ6ZRDw\"\n1 < Via: 1.1 vegur\n1 < Cache-Control: max-age=14400\n1 < CF-Cache-Status: HIT\n1 < Age: 2275\n1 < Report-To: {\"endpoints\":[{\"url\":\"https:\\\/\\\/a.nel.cloudflare.com\\\/report\\\/v3?s=Gs8wHvokhk%2Bt1%2FGyackTZGIxkVEvqGqs6YrWKkemyQYHaDUtBYBvNxGNFQFxx3BoXTkY2wHkCFNYDWd3LGwOmaNHzNqffhzz5V%2FSGM5lib8gSOxif10NHdS18w%3D%3D\"}],\"group\":\"cf-nel\",\"max_age\":604800}\n1 < NEL: {\"success_fraction\":0,\"report_to\":\"cf-nel\",\"max_age\":604800}\n1 < Vary: Accept-Encoding\n1 < Server: cloudflare\n1 < CF-RAY: 7cadb9b04c314979-DME\n{\"page\":2,\"per_page\":6,\"total\":12,\"total_pages\":2,\"data\":[{\"id\":7,\"email\":\"michael.lawson@reqres.in\",\"first_name\":\"Michael\",\"last_name\":\"Lawson\",\"avatar\":\"https:\/\/reqres.in\/img\/faces\/7-image.jpg\"},{\"id\":8,\"email\":\"lindsay.ferguson@reqres.in\",\"first_name\":\"Lindsay\",\"last_name\":\"Ferguson\",\"avatar\":\"https:\/\/reqres.in\/img\/faces\/8-image.jpg\"},{\"id\":9,\"email\":\"tobias.funke@reqres.in\",\"first_name\":\"Tobias\",\"last_name\":\"Funke\",\"avatar\":\"https:\/\/reqres.in\/img\/faces\/9-image.jpg\"},{\"id\":10,\"email\":\"byron.fields@reqres.in\",\"first_name\":\"Byron\",\"last_name\":\"Fields\",\"avatar\":\"https:\/\/reqres.in\/img\/faces\/10-image.jpg\"},{\"id\":11,\"email\":\"george.edwards@reqres.in\",\"first_name\":\"George\",\"last_name\":\"Edwards\",\"avatar\":\"https:\/\/reqres.in\/img\/faces\/11-image.jpg\"},{\"id\":12,\"email\":\"rachel.howell@reqres.in\",\"first_name\":\"Rachel\",\"last_name\":\"Howell\",\"avatar\":\"https:\/\/reqres.in\/img\/faces\/12-image.jpg\"}],\"support\":{\"url\":\"https:\/\/reqres.in\/#support-heading\",\"text\":\"To keep ReqRes free, contributions towards server costs are appreciated!\"}}\n\n"},{"result":{"nanos":24005,"millis":0.024005,"status":"passed"},"step":{"line":12,"prefix":"Then","index":3,"text":"status 200"}},{"result":{"nanos":5034799,"millis":5.034799,"status":"passed"},"step":{"line":13,"prefix":"And","index":4,"text":"print response.data.length"},"stepLog":"20:08:24.225 [print] 6 \n"}],"executorName":"main","line":7,"name":"Get list of users","description":"","durationMillis":5505.14704,"startTime":1684692498623,"failed":false,"refId":"[1:7]","endTime":1684692504225,"exampleIndex":-1},{"sectionIndex":1,"stepResults":[{"result":{"nanos":313846,"millis":0.313846,"status":"passed"},"step":{"comments":["#  every reset scenario"],"background":true,"line":5,"prefix":"*","index":0,"text":"url 'https:\/\/reqres.in\/api'"}},{"result":{"nanos":301640,"millis":0.30164,"status":"passed"},"step":{"comments":["#    get single user from list of users"],"line":17,"prefix":"Given","index":0,"text":"path '\/users'"}},{"result":{"nanos":365824,"millis":0.365824,"status":"passed"},"step":{"line":18,"prefix":"And","index":1,"text":"param page = 2"}},{"result":{"nanos":141177703,"millis":141.177703,"status":"passed"},"step":{"line":19,"prefix":"When","index":2,"text":"method GET"},"stepLog":"20:08:24.235 request:\n1 > GET https:\/\/reqres.in\/api\/users?page=2\n1 > Host: reqres.in\n1 > Connection: Keep-Alive\n1 > User-Agent: Apache-HttpClient\/4.5.14 (Java\/17.0.6)\n1 > Accept-Encoding: gzip,deflate\n\n\n20:08:24.373 response time in milliseconds: 137\n1 < 200\n1 < Date: Sun, 21 May 2023 15:06:47 GMT\n1 < Content-Type: application\/json; charset=utf-8\n1 < Transfer-Encoding: chunked\n1 < Connection: keep-alive\n1 < X-Powered-By: Express\n1 < Access-Control-Allow-Origin: *\n1 < Etag: W\/\"406-ut0vzoCuidvyMf8arZpMpJ6ZRDw\"\n1 < Via: 1.1 vegur\n1 < Cache-Control: max-age=14400\n1 < CF-Cache-Status: HIT\n1 < Age: 2275\n1 < Report-To: {\"endpoints\":[{\"url\":\"https:\\\/\\\/a.nel.cloudflare.com\\\/report\\\/v3?s=4hruawYmrfud6XRJeAO2XsTOWEG4oLSu7Zg62dePq9KLT2KgU8PLw0VHzVqPxK%2BpBZiVzKbdcptpV4ha6crD0BTKkwFlZAJ2tWvCAaLikFT3y2ZnjzP9HkgY7g%3D%3D\"}],\"group\":\"cf-nel\",\"max_age\":604800}\n1 < NEL: {\"success_fraction\":0,\"report_to\":\"cf-nel\",\"max_age\":604800}\n1 < Vary: Accept-Encoding\n1 < Server: cloudflare\n1 < CF-RAY: 7cadb9b16b7400a5-DME\n{\"page\":2,\"per_page\":6,\"total\":12,\"total_pages\":2,\"data\":[{\"id\":7,\"email\":\"michael.lawson@reqres.in\",\"first_name\":\"Michael\",\"last_name\":\"Lawson\",\"avatar\":\"https:\/\/reqres.in\/img\/faces\/7-image.jpg\"},{\"id\":8,\"email\":\"lindsay.ferguson@reqres.in\",\"first_name\":\"Lindsay\",\"last_name\":\"Ferguson\",\"avatar\":\"https:\/\/reqres.in\/img\/faces\/8-image.jpg\"},{\"id\":9,\"email\":\"tobias.funke@reqres.in\",\"first_name\":\"Tobias\",\"last_name\":\"Funke\",\"avatar\":\"https:\/\/reqres.in\/img\/faces\/9-image.jpg\"},{\"id\":10,\"email\":\"byron.fields@reqres.in\",\"first_name\":\"Byron\",\"last_name\":\"Fields\",\"avatar\":\"https:\/\/reqres.in\/img\/faces\/10-image.jpg\"},{\"id\":11,\"email\":\"george.edwards@reqres.in\",\"first_name\":\"George\",\"last_name\":\"Edwards\",\"avatar\":\"https:\/\/reqres.in\/img\/faces\/11-image.jpg\"},{\"id\":12,\"email\":\"rachel.howell@reqres.in\",\"first_name\":\"Rachel\",\"last_name\":\"Howell\",\"avatar\":\"https:\/\/reqres.in\/img\/faces\/12-image.jpg\"}],\"support\":{\"url\":\"https:\/\/reqres.in\/#support-heading\",\"text\":\"To keep ReqRes free, contributions towards server costs are appreciated!\"}}\n\n"},{"result":{"nanos":3467946,"millis":3.467946,"status":"passed"},"step":{"line":20,"prefix":"*","index":3,"text":"def user_id  = response.data[0].id"}},{"result":{"nanos":1789605,"millis":1.789605,"status":"passed"},"step":{"line":21,"prefix":"*","index":4,"text":"def user_name = response.data[0].first_name"}},{"result":{"nanos":20365500,"millis":20.3655,"status":"passed"},"step":{"line":22,"prefix":"And","index":5,"text":"match user_id == 7"}},{"result":{"nanos":1478599,"millis":1.478599,"status":"passed"},"step":{"line":23,"prefix":"And","index":6,"text":"match user_name == 'Michael'"}}],"executorName":"main","line":15,"name":"Get single user","description":"","durationMillis":169.260663,"startTime":1684692504230,"failed":false,"refId":"[2:15]","endTime":1684692504403,"exampleIndex":-1},{"sectionIndex":2,"stepResults":[{"result":{"nanos":267553,"millis":0.267553,"status":"passed"},"step":{"comments":["#  every reset scenario"],"background":true,"line":5,"prefix":"*","index":0,"text":"url 'https:\/\/reqres.in\/api'"}},{"result":{"nanos":107189502,"millis":107.189502,"status":"passed"},"step":{"line":27,"prefix":"*","index":0,"text":"def result = karate.exec('python tests\/test_status_code.py')"},"stepLog":"20:08:24.418 command: [python, tests\/test_status_code.py], working dir: null\n"},{"result":{"nanos":3964565,"millis":3.964565,"status":"passed"},"step":{"line":28,"prefix":"*","index":1,"text":"def ans = karate.extract(result,'Age',1)"},"stepLog":"20:08:24.524 failed to find pattern: Age\n"},{"result":{"nanos":0,"errorMessage":"no step-definition method match found for: responseStatus 200\nfeatures\/TestStatusCode.feature:29","millis":0.0,"status":"failed"},"step":{"line":29,"prefix":"And","index":2,"text":"responseStatus 200"},"stepLog":"20:08:24.526 features\/TestStatusCode.feature:29\nAnd responseStatus 200\nno step-definition method match found for: responseStatus 200\nfeatures\/TestStatusCode.feature:29\n"}],"line":26,"description":"","durationMillis":111.42162,"failed":true,"error":"no step-definition method match found for: responseStatus 200\nfeatures\/TestStatusCode.feature:29","executorName":"main","name":"Run python file","startTime":1684692504410,"refId":"[3:26]","endTime":1684692504526,"exampleIndex":-1}],"callDepth":0,"name":"sample api tests","description":"","resultDate":"2023-05-21 08:08:24 PM","durationMillis":5785.829323,"passedCount":2}