{"failedCount":1,"prefixedPath":"features\/TestGetMethod.feature","packageQualifiedName":"features.TestGetMethod","loopIndex":-1,"relativePath":"features\/TestGetMethod.feature","scenarioResults":[{"sectionIndex":0,"stepResults":[{"result":{"nanos":1288213,"millis":1.288213,"status":"passed"},"step":{"comments":["#  for every scenario"],"background":true,"line":5,"prefix":"*","index":0,"text":"url 'https:\/\/reqres.in\/api'"}},{"result":{"nanos":508372,"millis":0.508372,"status":"passed"},"step":{"comments":["# get all users len should be 6"],"line":9,"prefix":"Given","index":0,"text":"path '\/users'"}},{"result":{"nanos":2120881,"millis":2.120881,"status":"passed"},"step":{"line":10,"prefix":"And","index":1,"text":"param page = 2"}},{"result":{"nanos":584018500,"millis":584.0185,"status":"passed"},"step":{"line":11,"prefix":"When","index":2,"text":"method GET"},"stepLog":"20:38:41.750 request:\n1 > GET https:\/\/reqres.in\/api\/users?page=2\n1 > Host: reqres.in\n1 > Connection: Keep-Alive\n1 > User-Agent: Apache-HttpClient\/4.5.14 (Java\/17.0.6)\n1 > Accept-Encoding: gzip,deflate\n\n\n20:38:42.139 response time in milliseconds: 385\n1 < 200\n1 < Date: Sun, 21 May 2023 15:37:05 GMT\n1 < Content-Type: application\/json; charset=utf-8\n1 < Transfer-Encoding: chunked\n1 < Connection: keep-alive\n1 < X-Powered-By: Express\n1 < Access-Control-Allow-Origin: *\n1 < Etag: W\/\"406-ut0vzoCuidvyMf8arZpMpJ6ZRDw\"\n1 < Via: 1.1 vegur\n1 < Cache-Control: max-age=14400\n1 < CF-Cache-Status: HIT\n1 < Age: 4093\n1 < Report-To: {\"endpoints\":[{\"url\":\"https:\\\/\\\/a.nel.cloudflare.com\\\/report\\\/v3?s=MUtSEKQ%2Bk6NSj2Yez47G5ZBFLt0V0JAgN33wBj7neAGi3Cq%2B2BCL%2Bux%2FbKE6el%2B%2B3KJwSGuHg0ycUlz315VIWR4IE5K6hMnK%2F%2FaPL3hmY8a39Xyu%2B5j4%2Fpo9tw%3D%3D\"}],\"group\":\"cf-nel\",\"max_age\":604800}\n1 < NEL: {\"success_fraction\":0,\"report_to\":\"cf-nel\",\"max_age\":604800}\n1 < Vary: Accept-Encoding\n1 < Server: cloudflare\n1 < CF-RAY: 7cade6125fce00bc-DME\n{\"page\":2,\"per_page\":6,\"total\":12,\"total_pages\":2,\"data\":[{\"id\":7,\"email\":\"michael.lawson@reqres.in\",\"first_name\":\"Michael\",\"last_name\":\"Lawson\",\"avatar\":\"https:\/\/reqres.in\/img\/faces\/7-image.jpg\"},{\"id\":8,\"email\":\"lindsay.ferguson@reqres.in\",\"first_name\":\"Lindsay\",\"last_name\":\"Ferguson\",\"avatar\":\"https:\/\/reqres.in\/img\/faces\/8-image.jpg\"},{\"id\":9,\"email\":\"tobias.funke@reqres.in\",\"first_name\":\"Tobias\",\"last_name\":\"Funke\",\"avatar\":\"https:\/\/reqres.in\/img\/faces\/9-image.jpg\"},{\"id\":10,\"email\":\"byron.fields@reqres.in\",\"first_name\":\"Byron\",\"last_name\":\"Fields\",\"avatar\":\"https:\/\/reqres.in\/img\/faces\/10-image.jpg\"},{\"id\":11,\"email\":\"george.edwards@reqres.in\",\"first_name\":\"George\",\"last_name\":\"Edwards\",\"avatar\":\"https:\/\/reqres.in\/img\/faces\/11-image.jpg\"},{\"id\":12,\"email\":\"rachel.howell@reqres.in\",\"first_name\":\"Rachel\",\"last_name\":\"Howell\",\"avatar\":\"https:\/\/reqres.in\/img\/faces\/12-image.jpg\"}],\"support\":{\"url\":\"https:\/\/reqres.in\/#support-heading\",\"text\":\"To keep ReqRes free, contributions towards server costs are appreciated!\"}}\n\n"},{"result":{"nanos":23085,"millis":0.023085,"status":"passed"},"step":{"line":12,"prefix":"Then","index":3,"text":"status 200"}},{"result":{"nanos":3709147,"millis":3.709147,"status":"passed"},"step":{"line":13,"prefix":"*","index":4,"text":"def total_users = response.data.length"}},{"result":{"nanos":11678812,"millis":11.678812,"status":"passed"},"step":{"line":14,"prefix":"And","index":5,"text":"match total_users == 6"}}],"executorName":"main","line":7,"name":"Get list of users","description":"","durationMillis":603.34701,"startTime":1684694321435,"failed":false,"refId":"[1:7]","endTime":1684694322175,"exampleIndex":-1},{"sectionIndex":1,"stepResults":[{"result":{"nanos":485249,"millis":0.485249,"status":"passed"},"step":{"comments":["#  for every scenario"],"background":true,"line":5,"prefix":"*","index":0,"text":"url 'https:\/\/reqres.in\/api'"}},{"result":{"nanos":303550,"millis":0.30355,"status":"passed"},"step":{"comments":["# get single user from list of users"],"line":18,"prefix":"Given","index":0,"text":"path '\/users'"}},{"result":{"nanos":454262,"millis":0.454262,"status":"passed"},"step":{"line":19,"prefix":"And","index":1,"text":"param page = 2"}},{"result":{"nanos":140189591,"millis":140.189591,"status":"passed"},"step":{"line":20,"prefix":"When","index":2,"text":"method GET"},"stepLog":"20:38:42.187 request:\n1 > GET https:\/\/reqres.in\/api\/users?page=2\n1 > Host: reqres.in\n1 > Connection: Keep-Alive\n1 > User-Agent: Apache-HttpClient\/4.5.14 (Java\/17.0.6)\n1 > Accept-Encoding: gzip,deflate\n\n\n20:38:42.325 response time in milliseconds: 137\n1 < 200\n1 < Date: Sun, 21 May 2023 15:37:05 GMT\n1 < Content-Type: application\/json; charset=utf-8\n1 < Transfer-Encoding: chunked\n1 < Connection: keep-alive\n1 < X-Powered-By: Express\n1 < Access-Control-Allow-Origin: *\n1 < Etag: W\/\"406-ut0vzoCuidvyMf8arZpMpJ6ZRDw\"\n1 < Via: 1.1 vegur\n1 < Cache-Control: max-age=14400\n1 < CF-Cache-Status: HIT\n1 < Age: 4093\n1 < Report-To: {\"endpoints\":[{\"url\":\"https:\\\/\\\/a.nel.cloudflare.com\\\/report\\\/v3?s=jLIm%2BIx7Z1MvjVONB9YUoI%2Fw8%2BqvuijcnET1BhovQoMD0KiR2sRDBop2i2NA61rYrWZKnBv1ljDAmo7V2swfqVxRwRtG6cP97ZtXgIlHnjRXrrv7UGCNsimlDQ%3D%3D\"}],\"group\":\"cf-nel\",\"max_age\":604800}\n1 < NEL: {\"success_fraction\":0,\"report_to\":\"cf-nel\",\"max_age\":604800}\n1 < Vary: Accept-Encoding\n1 < Server: cloudflare\n1 < CF-RAY: 7cade6139a711622-DME\n{\"page\":2,\"per_page\":6,\"total\":12,\"total_pages\":2,\"data\":[{\"id\":7,\"email\":\"michael.lawson@reqres.in\",\"first_name\":\"Michael\",\"last_name\":\"Lawson\",\"avatar\":\"https:\/\/reqres.in\/img\/faces\/7-image.jpg\"},{\"id\":8,\"email\":\"lindsay.ferguson@reqres.in\",\"first_name\":\"Lindsay\",\"last_name\":\"Ferguson\",\"avatar\":\"https:\/\/reqres.in\/img\/faces\/8-image.jpg\"},{\"id\":9,\"email\":\"tobias.funke@reqres.in\",\"first_name\":\"Tobias\",\"last_name\":\"Funke\",\"avatar\":\"https:\/\/reqres.in\/img\/faces\/9-image.jpg\"},{\"id\":10,\"email\":\"byron.fields@reqres.in\",\"first_name\":\"Byron\",\"last_name\":\"Fields\",\"avatar\":\"https:\/\/reqres.in\/img\/faces\/10-image.jpg\"},{\"id\":11,\"email\":\"george.edwards@reqres.in\",\"first_name\":\"George\",\"last_name\":\"Edwards\",\"avatar\":\"https:\/\/reqres.in\/img\/faces\/11-image.jpg\"},{\"id\":12,\"email\":\"rachel.howell@reqres.in\",\"first_name\":\"Rachel\",\"last_name\":\"Howell\",\"avatar\":\"https:\/\/reqres.in\/img\/faces\/12-image.jpg\"}],\"support\":{\"url\":\"https:\/\/reqres.in\/#support-heading\",\"text\":\"To keep ReqRes free, contributions towards server costs are appreciated!\"}}\n\n"},{"result":{"nanos":1729921,"millis":1.729921,"status":"passed"},"step":{"line":21,"prefix":"*","index":3,"text":"def user_id  = response.data[0].id"}},{"result":{"nanos":904941,"millis":0.904941,"status":"passed"},"step":{"line":22,"prefix":"*","index":4,"text":"def user_name = response.data[0].first_name"}},{"result":{"nanos":1148197,"millis":1.148197,"status":"passed"},"step":{"line":23,"prefix":"And","index":5,"text":"match user_id == 7"}},{"result":{"nanos":2302472,"millis":2.302472,"status":"passed"},"step":{"line":24,"prefix":"And","index":6,"text":"match user_name == 'Michael'"}}],"executorName":"main","line":16,"name":"Get single user","description":"","durationMillis":147.518183,"startTime":1684694322181,"failed":false,"refId":"[2:16]","endTime":1684694322333,"exampleIndex":-1},{"sectionIndex":2,"stepResults":[{"result":{"nanos":180008,"millis":0.180008,"status":"passed"},"step":{"comments":["#  for every scenario"],"background":true,"line":5,"prefix":"*","index":0,"text":"url 'https:\/\/reqres.in\/api'"}},{"result":{"nanos":14488111,"errorMessage":"js failed:\n>>>>\n01: import json\n02: def geeks():\n03:     language = \"Python\"\n04:     company = \"GeeksForGeeks\"\n05:     Itemid = 1\n06:     price = 0.00\n07:     value = {\n08:         \"language\": language,\n09:         \"company\": company,\n10:         \"Itemid\": Itemid,\n11:         \"price\": price\n12:     }\n13:     return json.dumps(value)\n<<<<\norg.graalvm.polyglot.PolyglotException: SyntaxError: Unnamed:1:0 Expected an operand but found import\nimport json\n^\nUnnamed:2:4 Expected ; but found geeks\ndef geeks():\n    ^\nUnnamed:13:4 Invalid return statement\n    return json.dumps(value)\n    ^\n\n- org.graalvm.polyglot.Context.eval(Context.java:425)\n- com.intuit.karate.graal.JsEngine.evalForValue(JsEngine.java:169)\n- com.intuit.karate.graal.JsEngine.eval(JsEngine.java:165)\n- com.intuit.karate.core.ScenarioEngine.evalJs(ScenarioEngine.java:1199)\n- com.intuit.karate.core.ScenarioEngine.evalKarateExpression(ScenarioEngine.java:2147)\n- com.intuit.karate.core.ScenarioEngine.evalKarateExpression(ScenarioEngine.java:2066)\n- com.intuit.karate.core.ScenarioEngine.evalAndCastTo(ScenarioEngine.java:1260)\n\nfeatures\/TestGetMethod.feature:28","millis":14.488111,"status":"failed"},"step":{"endLine":44,"comments":["#    * def result = karate.exec('python tests\/test_runner.py')"],"line":28,"prefix":"*","docString":"import json\ndef geeks():\n    language = \"Python\"\n    company = \"GeeksForGeeks\"\n    Itemid = 1\n    price = 0.00\n    value = {\n        \"language\": language,\n        \"company\": company,\n        \"Itemid\": Itemid,\n        \"price\": price\n    }\n    return json.dumps(value)","index":0,"text":"def fun ="},"stepLog":"20:38:42.357 features\/TestGetMethod.feature:28\n* def fun =\n\"\"\"\nimport json\ndef geeks():\n    language = \"Python\"\n    company = \"GeeksForGeeks\"\n    Itemid = 1\n    price = 0.00\n    value = {\n        \"language\": language,\n        \"company\": company,\n        \"Itemid\": Itemid,\n        \"price\": price\n    }\n    return json.dumps(value)\n\"\"\"\njs failed:\n>>>>\n01: import json\n02: def geeks():\n03:     language = \"Python\"\n04:     company = \"GeeksForGeeks\"\n05:     Itemid = 1\n06:     price = 0.00\n07:     value = {\n08:         \"language\": language,\n09:         \"company\": company,\n10:         \"Itemid\": Itemid,\n11:         \"price\": price\n12:     }\n13:     return json.dumps(value)\n<<<<\norg.graalvm.polyglot.PolyglotException: SyntaxError: Unnamed:1:0 Expected an operand but found import\nimport json\n^\nUnnamed:2:4 Expected ; but found geeks\ndef geeks():\n    ^\nUnnamed:13:4 Invalid return statement\n    return json.dumps(value)\n    ^\n\n- org.graalvm.polyglot.Context.eval(Context.java:425)\n- com.intuit.karate.graal.JsEngine.evalForValue(JsEngine.java:169)\n- com.intuit.karate.graal.JsEngine.eval(JsEngine.java:165)\n- com.intuit.karate.core.ScenarioEngine.evalJs(ScenarioEngine.java:1199)\n- com.intuit.karate.core.ScenarioEngine.evalKarateExpression(ScenarioEngine.java:2147)\n- com.intuit.karate.core.ScenarioEngine.evalKarateExpression(ScenarioEngine.java:2066)\n- com.intuit.karate.core.ScenarioEngine.evalAndCastTo(ScenarioEngine.java:1260)\n\nfeatures\/TestGetMethod.feature:28\n"},{"result":{"nanos":0,"millis":0.0,"status":"skipped"},"step":{"line":45,"prefix":"And","index":1,"text":"print fun"}}],"line":26,"description":"","durationMillis":14.668119,"failed":true,"error":"js failed:\n>>>>\n01: import json\n02: def geeks():\n03:     language = \"Python\"\n04:     company = \"GeeksForGeeks\"\n05:     Itemid = 1\n06:     price = 0.00\n07:     value = {\n08:         \"language\": language,\n09:         \"company\": company,\n10:         \"Itemid\": Itemid,\n11:         \"price\": price\n12:     }\n13:     return json.dumps(value)\n<<<<\norg.graalvm.polyglot.PolyglotException: SyntaxError: Unnamed:1:0 Expected an operand but found import\nimport json\n^\nUnnamed:2:4 Expected ; but found geeks\ndef geeks():\n    ^\nUnnamed:13:4 Invalid return statement\n    return json.dumps(value)\n    ^\n\n- org.graalvm.polyglot.Context.eval(Context.java:425)\n- com.intuit.karate.graal.JsEngine.evalForValue(JsEngine.java:169)\n- com.intuit.karate.graal.JsEngine.eval(JsEngine.java:165)\n- com.intuit.karate.core.ScenarioEngine.evalJs(ScenarioEngine.java:1199)\n- com.intuit.karate.core.ScenarioEngine.evalKarateExpression(ScenarioEngine.java:2147)\n- com.intuit.karate.core.ScenarioEngine.evalKarateExpression(ScenarioEngine.java:2066)\n- com.intuit.karate.core.ScenarioEngine.evalAndCastTo(ScenarioEngine.java:1260)\n\nfeatures\/TestGetMethod.feature:28","executorName":"main","name":"Run python file","startTime":1684694322338,"refId":"[3:26]","endTime":1684694322357,"exampleIndex":-1}],"callDepth":0,"name":"sample api tests","description":"","resultDate":"2023-05-21 08:38:42 PM","durationMillis":765.533312,"passedCount":2}