{"failedCount":1,"prefixedPath":"features\/TestStatusCode.feature","packageQualifiedName":"features.TestStatusCode","loopIndex":-1,"relativePath":"features\/TestStatusCode.feature","scenarioResults":[{"sectionIndex":0,"stepResults":[{"result":{"nanos":1875753,"millis":1.875753,"status":"passed"},"step":{"line":4,"prefix":"Given","index":0,"text":"url 'https:\/\/reqres.in\/api\/users?page=2'"}},{"result":{"nanos":595352546,"millis":595.352546,"status":"passed"},"step":{"line":5,"prefix":"When","index":1,"text":"method GET"},"stepLog":"16:42:23.978 request:\n1 > GET https:\/\/reqres.in\/api\/users?page=2\n1 > Host: reqres.in\n1 > Connection: Keep-Alive\n1 > User-Agent: Apache-HttpClient\/4.5.14 (Java\/17.0.6)\n1 > Accept-Encoding: gzip,deflate\n\n\n16:42:24.328 response time in milliseconds: 345\n1 < 200\n1 < Date: Sun, 21 May 2023 11:40:47 GMT\n1 < Content-Type: application\/json; charset=utf-8\n1 < Transfer-Encoding: chunked\n1 < Connection: keep-alive\n1 < X-Powered-By: Express\n1 < Access-Control-Allow-Origin: *\n1 < Etag: W\/\"406-ut0vzoCuidvyMf8arZpMpJ6ZRDw\"\n1 < Via: 1.1 vegur\n1 < Cache-Control: max-age=14400\n1 < CF-Cache-Status: HIT\n1 < Age: 4334\n1 < Report-To: {\"endpoints\":[{\"url\":\"https:\\\/\\\/a.nel.cloudflare.com\\\/report\\\/v3?s=dJpbH1inNSCq%2FYlHdLaf0qyosd%2BxzIUg0zRRWKF47EXdHEqPwB1Z%2FUlPfa%2BTBKF2zewqHmUGRyn0Lx0ejRzUBLjhLkrOUmQ9XLpNeOBGQlJJSEd4A3Kdsu%2FYGA%3D%3D\"}],\"group\":\"cf-nel\",\"max_age\":604800}\n1 < NEL: {\"success_fraction\":0,\"report_to\":\"cf-nel\",\"max_age\":604800}\n1 < Vary: Accept-Encoding\n1 < Server: cloudflare\n1 < CF-RAY: 7cac8bef4a129dae-DME\n{\"page\":2,\"per_page\":6,\"total\":12,\"total_pages\":2,\"data\":[{\"id\":7,\"email\":\"michael.lawson@reqres.in\",\"first_name\":\"Michael\",\"last_name\":\"Lawson\",\"avatar\":\"https:\/\/reqres.in\/img\/faces\/7-image.jpg\"},{\"id\":8,\"email\":\"lindsay.ferguson@reqres.in\",\"first_name\":\"Lindsay\",\"last_name\":\"Ferguson\",\"avatar\":\"https:\/\/reqres.in\/img\/faces\/8-image.jpg\"},{\"id\":9,\"email\":\"tobias.funke@reqres.in\",\"first_name\":\"Tobias\",\"last_name\":\"Funke\",\"avatar\":\"https:\/\/reqres.in\/img\/faces\/9-image.jpg\"},{\"id\":10,\"email\":\"byron.fields@reqres.in\",\"first_name\":\"Byron\",\"last_name\":\"Fields\",\"avatar\":\"https:\/\/reqres.in\/img\/faces\/10-image.jpg\"},{\"id\":11,\"email\":\"george.edwards@reqres.in\",\"first_name\":\"George\",\"last_name\":\"Edwards\",\"avatar\":\"https:\/\/reqres.in\/img\/faces\/11-image.jpg\"},{\"id\":12,\"email\":\"rachel.howell@reqres.in\",\"first_name\":\"Rachel\",\"last_name\":\"Howell\",\"avatar\":\"https:\/\/reqres.in\/img\/faces\/12-image.jpg\"}],\"support\":{\"url\":\"https:\/\/reqres.in\/#support-heading\",\"text\":\"To keep ReqRes free, contributions towards server costs are appreciated!\"}}\n\n"},{"result":{"nanos":28712,"millis":0.028712,"status":"passed"},"step":{"line":6,"prefix":"Then","index":2,"text":"status 200"}}],"executorName":"main","line":3,"name":"Test a sample get api","description":"","durationMillis":597.257011,"startTime":1684680143598,"failed":false,"refId":"[1:3]","endTime":1684680144352,"exampleIndex":-1},{"sectionIndex":1,"stepResults":[{"result":{"nanos":174980997,"millis":174.980997,"status":"passed"},"step":{"line":10,"prefix":"*","index":0,"text":"def result = karate.exec('python tests\/test_status_code.py')"},"stepLog":"16:42:24.370 command: [python, tests\/test_status_code.py], working dir: null\n"},{"result":{"nanos":11339735,"errorMessage":"js failed:\n>>>>\n01: karate.extract(text,'Date',1)\n<<<<\norg.graalvm.polyglot.PolyglotException: ReferenceError: \"text\" is not defined\n- <js>.:program(Unnamed:1)\n\nfeatures\/TestStatusCode.feature:11","millis":11.339735,"status":"failed"},"step":{"line":11,"prefix":"*","index":1,"text":"def ans = karate.extract(text,'Date',1)"},"stepLog":"16:42:24.555 features\/TestStatusCode.feature:11\n* def ans = karate.extract(text,'Date',1)\njs failed:\n>>>>\n01: karate.extract(text,'Date',1)\n<<<<\norg.graalvm.polyglot.PolyglotException: ReferenceError: \"text\" is not defined\n- <js>.:program(Unnamed:1)\n\nfeatures\/TestStatusCode.feature:11\n"},{"result":{"nanos":0,"millis":0.0,"status":"skipped"},"step":{"line":12,"prefix":"Then","index":2,"text":"print ans"}}],"line":8,"description":"","durationMillis":186.320732,"failed":true,"error":"js failed:\n>>>>\n01: karate.extract(text,'Date',1)\n<<<<\norg.graalvm.polyglot.PolyglotException: ReferenceError: \"text\" is not defined\n- <js>.:program(Unnamed:1)\n\nfeatures\/TestStatusCode.feature:11","executorName":"main","name":"Run python file","startTime":1684680144359,"refId":"[2:8]","endTime":1684680144555,"exampleIndex":-1}],"callDepth":0,"name":"sample api tests","description":"","resultDate":"2023-05-21 04:42:24 PM","durationMillis":783.577743,"passedCount":1}