{"failedCount":1,"prefixedPath":"features\/TestStatusCode.feature","packageQualifiedName":"features.TestStatusCode","loopIndex":-1,"relativePath":"features\/TestStatusCode.feature","scenarioResults":[{"sectionIndex":0,"stepResults":[{"result":{"nanos":1094571,"millis":1.094571,"status":"passed"},"step":{"line":4,"prefix":"Given","index":0,"text":"url 'https:\/\/reqres.in\/api\/users?page=2'"}},{"result":{"nanos":439834355,"millis":439.834355,"status":"passed"},"step":{"line":5,"prefix":"When","index":1,"text":"method GET"},"stepLog":"19:29:26.614 request:\n1 > GET https:\/\/reqres.in\/api\/users?page=2\n1 > Host: reqres.in\n1 > Connection: Keep-Alive\n1 > User-Agent: Apache-HttpClient\/4.5.14 (Java\/17.0.6)\n1 > Accept-Encoding: gzip,deflate\n\n\n19:29:26.903 response time in milliseconds: 287\n1 < 200\n1 < Date: Sun, 21 May 2023 14:27:50 GMT\n1 < Content-Type: application\/json; charset=utf-8\n1 < Transfer-Encoding: chunked\n1 < Connection: keep-alive\n1 < X-Powered-By: Express\n1 < Access-Control-Allow-Origin: *\n1 < Etag: W\/\"406-ut0vzoCuidvyMf8arZpMpJ6ZRDw\"\n1 < Via: 1.1 vegur\n1 < Cache-Control: max-age=14400\n1 < CF-Cache-Status: HIT\n1 < Age: 7139\n1 < Report-To: {\"endpoints\":[{\"url\":\"https:\\\/\\\/a.nel.cloudflare.com\\\/report\\\/v3?s=MyuDpoL8QVHo1XfBKdRkpb4mJL1sMn9Zcd%2Bzq18lkrzCJi963Og5uqT47rYP%2F3nTQMYQ1XrCSxa1B%2ByzrBvvCDKbi66S%2Fpws6pVaRj%2B0bEO9p77F4EdVqBBHyg%3D%3D\"}],\"group\":\"cf-nel\",\"max_age\":604800}\n1 < NEL: {\"success_fraction\":0,\"report_to\":\"cf-nel\",\"max_age\":604800}\n1 < Vary: Accept-Encoding\n1 < Server: cloudflare\n1 < CF-RAY: 7cad80a03a8076a9-DME\n{\"page\":2,\"per_page\":6,\"total\":12,\"total_pages\":2,\"data\":[{\"id\":7,\"email\":\"michael.lawson@reqres.in\",\"first_name\":\"Michael\",\"last_name\":\"Lawson\",\"avatar\":\"https:\/\/reqres.in\/img\/faces\/7-image.jpg\"},{\"id\":8,\"email\":\"lindsay.ferguson@reqres.in\",\"first_name\":\"Lindsay\",\"last_name\":\"Ferguson\",\"avatar\":\"https:\/\/reqres.in\/img\/faces\/8-image.jpg\"},{\"id\":9,\"email\":\"tobias.funke@reqres.in\",\"first_name\":\"Tobias\",\"last_name\":\"Funke\",\"avatar\":\"https:\/\/reqres.in\/img\/faces\/9-image.jpg\"},{\"id\":10,\"email\":\"byron.fields@reqres.in\",\"first_name\":\"Byron\",\"last_name\":\"Fields\",\"avatar\":\"https:\/\/reqres.in\/img\/faces\/10-image.jpg\"},{\"id\":11,\"email\":\"george.edwards@reqres.in\",\"first_name\":\"George\",\"last_name\":\"Edwards\",\"avatar\":\"https:\/\/reqres.in\/img\/faces\/11-image.jpg\"},{\"id\":12,\"email\":\"rachel.howell@reqres.in\",\"first_name\":\"Rachel\",\"last_name\":\"Howell\",\"avatar\":\"https:\/\/reqres.in\/img\/faces\/12-image.jpg\"}],\"support\":{\"url\":\"https:\/\/reqres.in\/#support-heading\",\"text\":\"To keep ReqRes free, contributions towards server costs are appreciated!\"}}\n\n"},{"result":{"nanos":25803,"millis":0.025803,"status":"passed"},"step":{"line":6,"prefix":"Then","index":2,"text":"status 200"}}],"executorName":"main","line":3,"name":"Test a sample get api","description":"","durationMillis":440.954729,"startTime":1684690166385,"failed":false,"refId":"[1:3]","endTime":1684690166919,"exampleIndex":-1},{"sectionIndex":1,"stepResults":[{"result":{"nanos":131512323,"millis":131.512323,"status":"passed"},"step":{"line":10,"prefix":"*","index":0,"text":"def result = karate.exec('python tests\/test_status_code.py')"},"stepLog":"19:29:26.933 command: [python, tests\/test_status_code.py], working dir: null\n"},{"result":{"nanos":5048659,"millis":5.048659,"status":"passed"},"step":{"line":11,"prefix":"*","index":1,"text":"def ans = karate.extract(result,'Age',1)"},"stepLog":"19:29:27.064 failed to find pattern: Age\n"},{"result":{"nanos":7297799,"errorMessage":"js failed:\n>>>>\n01: karate.log('[print]',status)\n<<<<\norg.graalvm.polyglot.PolyglotException: ReferenceError: \"status\" is not defined\n- <js>.:program(Unnamed:1)\n\nfeatures\/TestStatusCode.feature:12","millis":7.297799,"status":"failed"},"step":{"line":12,"prefix":"Then","index":2,"text":"print status"},"stepLog":"19:29:27.074 features\/TestStatusCode.feature:12\nThen print status\njs failed:\n>>>>\n01: karate.log('[print]',status)\n<<<<\norg.graalvm.polyglot.PolyglotException: ReferenceError: \"status\" is not defined\n- <js>.:program(Unnamed:1)\n\nfeatures\/TestStatusCode.feature:12\n"},{"result":{"nanos":0,"millis":0.0,"status":"skipped"},"step":{"line":13,"prefix":"And","index":3,"text":"print response"}}],"line":8,"description":"","durationMillis":143.858781,"failed":true,"error":"js failed:\n>>>>\n01: karate.log('[print]',status)\n<<<<\norg.graalvm.polyglot.PolyglotException: ReferenceError: \"status\" is not defined\n- <js>.:program(Unnamed:1)\n\nfeatures\/TestStatusCode.feature:12","executorName":"main","name":"Run python file","startTime":1684690166924,"refId":"[2:8]","endTime":1684690167074,"exampleIndex":-1}],"callDepth":0,"name":"sample api tests","description":"","resultDate":"2023-05-21 07:29:27 PM","durationMillis":584.81351,"passedCount":1}