{"failedCount":1,"prefixedPath":"features\/TestGetMethod.feature","packageQualifiedName":"features.TestGetMethod","loopIndex":-1,"relativePath":"features\/TestGetMethod.feature","scenarioResults":[{"sectionIndex":0,"stepResults":[{"result":{"nanos":1339637,"millis":1.339637,"status":"passed"},"step":{"comments":["#  for every scenario"],"background":true,"line":5,"prefix":"*","index":0,"text":"url 'https:\/\/reqres.in\/api'"}},{"result":{"nanos":596227,"millis":0.596227,"status":"passed"},"step":{"comments":["# get all users len should be 6"],"line":9,"prefix":"Given","index":0,"text":"path '\/users'"}},{"result":{"nanos":2342175,"millis":2.342175,"status":"passed"},"step":{"line":10,"prefix":"And","index":1,"text":"param page = 2"}},{"result":{"nanos":586576546,"millis":586.576546,"status":"passed"},"step":{"line":11,"prefix":"When","index":2,"text":"method GET"},"stepLog":"20:37:50.919 request:\n1 > GET https:\/\/reqres.in\/api\/users?page=2\n1 > Host: reqres.in\n1 > Connection: Keep-Alive\n1 > User-Agent: Apache-HttpClient\/4.5.14 (Java\/17.0.6)\n1 > Accept-Encoding: gzip,deflate\n\n\n20:37:51.305 response time in milliseconds: 382\n1 < 200\n1 < Date: Sun, 21 May 2023 15:36:14 GMT\n1 < Content-Type: application\/json; charset=utf-8\n1 < Transfer-Encoding: chunked\n1 < Connection: keep-alive\n1 < X-Powered-By: Express\n1 < Access-Control-Allow-Origin: *\n1 < Etag: W\/\"406-ut0vzoCuidvyMf8arZpMpJ6ZRDw\"\n1 < Via: 1.1 vegur\n1 < Cache-Control: max-age=14400\n1 < CF-Cache-Status: HIT\n1 < Age: 4042\n1 < Report-To: {\"endpoints\":[{\"url\":\"https:\\\/\\\/a.nel.cloudflare.com\\\/report\\\/v3?s=BWF8ggI8wQvZ5L2rEr7VUOx2e%2FOekDJWYAWH0J3q%2FfgdAYujbYWKePSw0HCR4teSL33d1S5zvhwk7GZKcAoWFB4l0p1dmKXVBQhjTwfQBLBCXqTYCRRnNgNTdg%3D%3D\"}],\"group\":\"cf-nel\",\"max_age\":604800}\n1 < NEL: {\"success_fraction\":0,\"report_to\":\"cf-nel\",\"max_age\":604800}\n1 < Vary: Accept-Encoding\n1 < Server: cloudflare\n1 < CF-RAY: 7cade4d49c199da2-DME\n{\"page\":2,\"per_page\":6,\"total\":12,\"total_pages\":2,\"data\":[{\"id\":7,\"email\":\"michael.lawson@reqres.in\",\"first_name\":\"Michael\",\"last_name\":\"Lawson\",\"avatar\":\"https:\/\/reqres.in\/img\/faces\/7-image.jpg\"},{\"id\":8,\"email\":\"lindsay.ferguson@reqres.in\",\"first_name\":\"Lindsay\",\"last_name\":\"Ferguson\",\"avatar\":\"https:\/\/reqres.in\/img\/faces\/8-image.jpg\"},{\"id\":9,\"email\":\"tobias.funke@reqres.in\",\"first_name\":\"Tobias\",\"last_name\":\"Funke\",\"avatar\":\"https:\/\/reqres.in\/img\/faces\/9-image.jpg\"},{\"id\":10,\"email\":\"byron.fields@reqres.in\",\"first_name\":\"Byron\",\"last_name\":\"Fields\",\"avatar\":\"https:\/\/reqres.in\/img\/faces\/10-image.jpg\"},{\"id\":11,\"email\":\"george.edwards@reqres.in\",\"first_name\":\"George\",\"last_name\":\"Edwards\",\"avatar\":\"https:\/\/reqres.in\/img\/faces\/11-image.jpg\"},{\"id\":12,\"email\":\"rachel.howell@reqres.in\",\"first_name\":\"Rachel\",\"last_name\":\"Howell\",\"avatar\":\"https:\/\/reqres.in\/img\/faces\/12-image.jpg\"}],\"support\":{\"url\":\"https:\/\/reqres.in\/#support-heading\",\"text\":\"To keep ReqRes free, contributions towards server costs are appreciated!\"}}\n\n"},{"result":{"nanos":22443,"millis":0.022443,"status":"passed"},"step":{"line":12,"prefix":"Then","index":3,"text":"status 200"}},{"result":{"nanos":3924002,"millis":3.924002,"status":"passed"},"step":{"line":13,"prefix":"*","index":4,"text":"def total_users = response.data.length"}},{"result":{"nanos":12253532,"millis":12.253532,"status":"passed"},"step":{"line":14,"prefix":"And","index":5,"text":"match total_users == 6"}}],"executorName":"main","line":7,"name":"Get list of users","description":"","durationMillis":607.054562,"startTime":1684694270597,"failed":false,"refId":"[1:7]","endTime":1684694271342,"exampleIndex":-1},{"sectionIndex":1,"stepResults":[{"result":{"nanos":527862,"millis":0.527862,"status":"passed"},"step":{"comments":["#  for every scenario"],"background":true,"line":5,"prefix":"*","index":0,"text":"url 'https:\/\/reqres.in\/api'"}},{"result":{"nanos":338692,"millis":0.338692,"status":"passed"},"step":{"comments":["# get single user from list of users"],"line":18,"prefix":"Given","index":0,"text":"path '\/users'"}},{"result":{"nanos":493876,"millis":0.493876,"status":"passed"},"step":{"line":19,"prefix":"And","index":1,"text":"param page = 2"}},{"result":{"nanos":134739088,"millis":134.739088,"status":"passed"},"step":{"line":20,"prefix":"When","index":2,"text":"method GET"},"stepLog":"20:37:51.354 request:\n1 > GET https:\/\/reqres.in\/api\/users?page=2\n1 > Host: reqres.in\n1 > Connection: Keep-Alive\n1 > User-Agent: Apache-HttpClient\/4.5.14 (Java\/17.0.6)\n1 > Accept-Encoding: gzip,deflate\n\n\n20:37:51.487 response time in milliseconds: 132\n1 < 200\n1 < Date: Sun, 21 May 2023 15:36:15 GMT\n1 < Content-Type: application\/json; charset=utf-8\n1 < Transfer-Encoding: chunked\n1 < Connection: keep-alive\n1 < X-Powered-By: Express\n1 < Access-Control-Allow-Origin: *\n1 < Etag: W\/\"406-ut0vzoCuidvyMf8arZpMpJ6ZRDw\"\n1 < Via: 1.1 vegur\n1 < Cache-Control: max-age=14400\n1 < CF-Cache-Status: HIT\n1 < Age: 4043\n1 < Report-To: {\"endpoints\":[{\"url\":\"https:\\\/\\\/a.nel.cloudflare.com\\\/report\\\/v3?s=qyzCdpwQuhvhP5KXjhKWLGkaS480DUtoVbfxNk7e1GMEZ0Ppo%2BkdvwVCYvrQbeG9XzdoVEwBGY72wjFTqZVEcmJ9%2BUQIqJgZIDsrav2e%2FXxJTNMV1Y55zmfMDw%3D%3D\"}],\"group\":\"cf-nel\",\"max_age\":604800}\n1 < NEL: {\"success_fraction\":0,\"report_to\":\"cf-nel\",\"max_age\":604800}\n1 < Vary: Accept-Encoding\n1 < Server: cloudflare\n1 < CF-RAY: 7cade4d5d9af9dae-DME\n{\"page\":2,\"per_page\":6,\"total\":12,\"total_pages\":2,\"data\":[{\"id\":7,\"email\":\"michael.lawson@reqres.in\",\"first_name\":\"Michael\",\"last_name\":\"Lawson\",\"avatar\":\"https:\/\/reqres.in\/img\/faces\/7-image.jpg\"},{\"id\":8,\"email\":\"lindsay.ferguson@reqres.in\",\"first_name\":\"Lindsay\",\"last_name\":\"Ferguson\",\"avatar\":\"https:\/\/reqres.in\/img\/faces\/8-image.jpg\"},{\"id\":9,\"email\":\"tobias.funke@reqres.in\",\"first_name\":\"Tobias\",\"last_name\":\"Funke\",\"avatar\":\"https:\/\/reqres.in\/img\/faces\/9-image.jpg\"},{\"id\":10,\"email\":\"byron.fields@reqres.in\",\"first_name\":\"Byron\",\"last_name\":\"Fields\",\"avatar\":\"https:\/\/reqres.in\/img\/faces\/10-image.jpg\"},{\"id\":11,\"email\":\"george.edwards@reqres.in\",\"first_name\":\"George\",\"last_name\":\"Edwards\",\"avatar\":\"https:\/\/reqres.in\/img\/faces\/11-image.jpg\"},{\"id\":12,\"email\":\"rachel.howell@reqres.in\",\"first_name\":\"Rachel\",\"last_name\":\"Howell\",\"avatar\":\"https:\/\/reqres.in\/img\/faces\/12-image.jpg\"}],\"support\":{\"url\":\"https:\/\/reqres.in\/#support-heading\",\"text\":\"To keep ReqRes free, contributions towards server costs are appreciated!\"}}\n\n"},{"result":{"nanos":1719035,"millis":1.719035,"status":"passed"},"step":{"line":21,"prefix":"*","index":3,"text":"def user_id  = response.data[0].id"}},{"result":{"nanos":865697,"millis":0.865697,"status":"passed"},"step":{"line":22,"prefix":"*","index":4,"text":"def user_name = response.data[0].first_name"}},{"result":{"nanos":1022797,"millis":1.022797,"status":"passed"},"step":{"line":23,"prefix":"And","index":5,"text":"match user_id == 7"}},{"result":{"nanos":2001399,"millis":2.001399,"status":"passed"},"step":{"line":24,"prefix":"And","index":6,"text":"match user_name == 'Michael'"}}],"executorName":"main","line":16,"name":"Get single user","description":"","durationMillis":141.708446,"startTime":1684694271348,"failed":false,"refId":"[2:16]","endTime":1684694271494,"exampleIndex":-1},{"sectionIndex":2,"stepResults":[{"result":{"nanos":186271,"millis":0.186271,"status":"passed"},"step":{"comments":["#  for every scenario"],"background":true,"line":5,"prefix":"*","index":0,"text":"url 'https:\/\/reqres.in\/api'"}},{"result":{"nanos":15951698,"errorMessage":"js failed:\n>>>>\n01: def geeks():\n02:     language = \"Python\"\n03:     company = \"GeeksForGeeks\"\n04:     Itemid = 1\n05:     price = 0.00\n06:     value = {\n07:         \"language\": language,\n08:         \"company\": company,\n09:         \"Itemid\": Itemid,\n10:         \"price\": price\n11:     }\n12:     return json.dumps(value)\n<<<<\norg.graalvm.polyglot.PolyglotException: SyntaxError: Unnamed:1:4 Expected ; but found geeks\ndef geeks():\n    ^\nUnnamed:12:4 Invalid return statement\n    return json.dumps(value)\n    ^\n\n- org.graalvm.polyglot.Context.eval(Context.java:425)\n- com.intuit.karate.graal.JsEngine.evalForValue(JsEngine.java:169)\n- com.intuit.karate.graal.JsEngine.eval(JsEngine.java:165)\n- com.intuit.karate.core.ScenarioEngine.evalJs(ScenarioEngine.java:1199)\n- com.intuit.karate.core.ScenarioEngine.evalKarateExpression(ScenarioEngine.java:2147)\n- com.intuit.karate.core.ScenarioEngine.evalKarateExpression(ScenarioEngine.java:2066)\n- com.intuit.karate.core.ScenarioEngine.evalAndCastTo(ScenarioEngine.java:1260)\n\nfeatures\/TestGetMethod.feature:28","millis":15.951698,"status":"failed"},"step":{"endLine":42,"comments":["#    * def result = karate.exec('python tests\/test_runner.py')"],"line":28,"prefix":"*","docString":"def geeks():\n    language = \"Python\"\n    company = \"GeeksForGeeks\"\n    Itemid = 1\n    price = 0.00\n    value = {\n        \"language\": language,\n        \"company\": company,\n        \"Itemid\": Itemid,\n        \"price\": price\n    }\n    return json.dumps(value)","index":0,"text":"def fun ="},"stepLog":"20:37:51.519 features\/TestGetMethod.feature:28\n* def fun =\n\"\"\"\ndef geeks():\n    language = \"Python\"\n    company = \"GeeksForGeeks\"\n    Itemid = 1\n    price = 0.00\n    value = {\n        \"language\": language,\n        \"company\": company,\n        \"Itemid\": Itemid,\n        \"price\": price\n    }\n    return json.dumps(value)\n\"\"\"\njs failed:\n>>>>\n01: def geeks():\n02:     language = \"Python\"\n03:     company = \"GeeksForGeeks\"\n04:     Itemid = 1\n05:     price = 0.00\n06:     value = {\n07:         \"language\": language,\n08:         \"company\": company,\n09:         \"Itemid\": Itemid,\n10:         \"price\": price\n11:     }\n12:     return json.dumps(value)\n<<<<\norg.graalvm.polyglot.PolyglotException: SyntaxError: Unnamed:1:4 Expected ; but found geeks\ndef geeks():\n    ^\nUnnamed:12:4 Invalid return statement\n    return json.dumps(value)\n    ^\n\n- org.graalvm.polyglot.Context.eval(Context.java:425)\n- com.intuit.karate.graal.JsEngine.evalForValue(JsEngine.java:169)\n- com.intuit.karate.graal.JsEngine.eval(JsEngine.java:165)\n- com.intuit.karate.core.ScenarioEngine.evalJs(ScenarioEngine.java:1199)\n- com.intuit.karate.core.ScenarioEngine.evalKarateExpression(ScenarioEngine.java:2147)\n- com.intuit.karate.core.ScenarioEngine.evalKarateExpression(ScenarioEngine.java:2066)\n- com.intuit.karate.core.ScenarioEngine.evalAndCastTo(ScenarioEngine.java:1260)\n\nfeatures\/TestGetMethod.feature:28\n"},{"result":{"nanos":0,"millis":0.0,"status":"skipped"},"step":{"line":43,"prefix":"And","index":1,"text":"print fun"}}],"line":26,"description":"","durationMillis":16.137969,"failed":true,"error":"js failed:\n>>>>\n01: def geeks():\n02:     language = \"Python\"\n03:     company = \"GeeksForGeeks\"\n04:     Itemid = 1\n05:     price = 0.00\n06:     value = {\n07:         \"language\": language,\n08:         \"company\": company,\n09:         \"Itemid\": Itemid,\n10:         \"price\": price\n11:     }\n12:     return json.dumps(value)\n<<<<\norg.graalvm.polyglot.PolyglotException: SyntaxError: Unnamed:1:4 Expected ; but found geeks\ndef geeks():\n    ^\nUnnamed:12:4 Invalid return statement\n    return json.dumps(value)\n    ^\n\n- org.graalvm.polyglot.Context.eval(Context.java:425)\n- com.intuit.karate.graal.JsEngine.evalForValue(JsEngine.java:169)\n- com.intuit.karate.graal.JsEngine.eval(JsEngine.java:165)\n- com.intuit.karate.core.ScenarioEngine.evalJs(ScenarioEngine.java:1199)\n- com.intuit.karate.core.ScenarioEngine.evalKarateExpression(ScenarioEngine.java:2147)\n- com.intuit.karate.core.ScenarioEngine.evalKarateExpression(ScenarioEngine.java:2066)\n- com.intuit.karate.core.ScenarioEngine.evalAndCastTo(ScenarioEngine.java:1260)\n\nfeatures\/TestGetMethod.feature:28","executorName":"main","name":"Run python file","startTime":1684694271498,"refId":"[3:26]","endTime":1684694271519,"exampleIndex":-1}],"callDepth":0,"name":"sample api tests","description":"","resultDate":"2023-05-21 08:37:51 PM","durationMillis":764.900977,"passedCount":2}