{"failedCount":1,"prefixedPath":"features\/TestStatusCode.feature","packageQualifiedName":"features.TestStatusCode","loopIndex":-1,"relativePath":"features\/TestStatusCode.feature","scenarioResults":[{"sectionIndex":0,"stepResults":[{"result":{"nanos":1342064,"millis":1.342064,"status":"passed"},"step":{"line":4,"prefix":"Given","index":0,"text":"url 'https:\/\/reqres.in\/api\/users?page=2'"}},{"result":{"nanos":523541970,"millis":523.54197,"status":"passed"},"step":{"line":5,"prefix":"When","index":1,"text":"method get"},"stepLog":"15:38:43.892 request:\n1 > GET https:\/\/reqres.in\/api\/users?page=2\n1 > Host: reqres.in\n1 > Connection: Keep-Alive\n1 > User-Agent: Apache-HttpClient\/4.5.14 (Java\/17.0.6)\n1 > Accept-Encoding: gzip,deflate\n\n\n15:38:44.268 response time in milliseconds: 373\n1 < 200\n1 < Date: Sun, 21 May 2023 10:37:07 GMT\n1 < Content-Type: application\/json; charset=utf-8\n1 < Transfer-Encoding: chunked\n1 < Connection: keep-alive\n1 < X-Powered-By: Express\n1 < Access-Control-Allow-Origin: *\n1 < Etag: W\/\"406-ut0vzoCuidvyMf8arZpMpJ6ZRDw\"\n1 < Via: 1.1 vegur\n1 < Cache-Control: max-age=14400\n1 < CF-Cache-Status: HIT\n1 < Age: 514\n1 < Report-To: {\"endpoints\":[{\"url\":\"https:\\\/\\\/a.nel.cloudflare.com\\\/report\\\/v3?s=YUBz0QDnukMeKcCkMsU5EbyXAvq2wY5S%2FMIWl4yAIc4uW1ieMMubF7kyARCu7cPnHPts8NMlTAAzRhQsNAgaosTadSVY8UiYxwaNOjWWhpRVeO%2BmBbCYMgVvKw%3D%3D\"}],\"group\":\"cf-nel\",\"max_age\":604800}\n1 < NEL: {\"success_fraction\":0,\"report_to\":\"cf-nel\",\"max_age\":604800}\n1 < Vary: Accept-Encoding\n1 < Server: cloudflare\n1 < CF-RAY: 7cac2eac08ea164b-DME\n{\"page\":2,\"per_page\":6,\"total\":12,\"total_pages\":2,\"data\":[{\"id\":7,\"email\":\"michael.lawson@reqres.in\",\"first_name\":\"Michael\",\"last_name\":\"Lawson\",\"avatar\":\"https:\/\/reqres.in\/img\/faces\/7-image.jpg\"},{\"id\":8,\"email\":\"lindsay.ferguson@reqres.in\",\"first_name\":\"Lindsay\",\"last_name\":\"Ferguson\",\"avatar\":\"https:\/\/reqres.in\/img\/faces\/8-image.jpg\"},{\"id\":9,\"email\":\"tobias.funke@reqres.in\",\"first_name\":\"Tobias\",\"last_name\":\"Funke\",\"avatar\":\"https:\/\/reqres.in\/img\/faces\/9-image.jpg\"},{\"id\":10,\"email\":\"byron.fields@reqres.in\",\"first_name\":\"Byron\",\"last_name\":\"Fields\",\"avatar\":\"https:\/\/reqres.in\/img\/faces\/10-image.jpg\"},{\"id\":11,\"email\":\"george.edwards@reqres.in\",\"first_name\":\"George\",\"last_name\":\"Edwards\",\"avatar\":\"https:\/\/reqres.in\/img\/faces\/11-image.jpg\"},{\"id\":12,\"email\":\"rachel.howell@reqres.in\",\"first_name\":\"Rachel\",\"last_name\":\"Howell\",\"avatar\":\"https:\/\/reqres.in\/img\/faces\/12-image.jpg\"}],\"support\":{\"url\":\"https:\/\/reqres.in\/#support-heading\",\"text\":\"To keep ReqRes free, contributions towards server costs are appreciated!\"}}\n\n"},{"result":{"nanos":31970,"millis":0.03197,"status":"passed"},"step":{"line":6,"prefix":"Then","index":2,"text":"status 200"}}],"executorName":"main","line":3,"name":"Test a sample get api","description":"","durationMillis":524.916004,"startTime":1684676323682,"failed":false,"refId":"[1:3]","endTime":1684676324295,"exampleIndex":-1},{"sectionIndex":1,"stepResults":[{"result":{"nanos":139223141,"millis":139.223141,"status":"passed"},"step":{"line":9,"prefix":"*","index":0,"text":"def result = karate.exec('python tests\/test_status_code.py')"},"stepLog":"15:38:44.311 command: [python, tests\/test_status_code.py], working dir: null\n"},{"result":{"nanos":100057,"errorMessage":"incomplete http request, 'url' not set\nfeatures\/TestStatusCode.feature:10","millis":0.100057,"status":"failed"},"step":{"line":10,"prefix":"When","index":1,"text":"method GET"},"stepLog":"15:38:44.448 features\/TestStatusCode.feature:10\nWhen method GET\nincomplete http request, 'url' not set\nfeatures\/TestStatusCode.feature:10\n"},{"result":{"nanos":0,"millis":0.0,"status":"skipped"},"step":{"line":11,"prefix":"Then","index":2,"text":"status 200"}}],"line":8,"description":"","durationMillis":139.323198,"failed":true,"error":"incomplete http request, 'url' not set\nfeatures\/TestStatusCode.feature:10","executorName":"main","name":"Run python file","startTime":1684676324301,"refId":"[2:8]","endTime":1684676324448,"exampleIndex":-1}],"callDepth":0,"name":"sample api tests","description":"","resultDate":"2023-05-21 03:38:44 PM","durationMillis":664.239202,"passedCount":1}