{"failedCount":0,"prefixedPath":"features\/TestStatusCode.feature","packageQualifiedName":"features.TestStatusCode","loopIndex":-1,"relativePath":"features\/TestStatusCode.feature","scenarioResults":[{"sectionIndex":0,"stepResults":[{"result":{"nanos":1624787,"millis":1.624787,"status":"passed"},"step":{"line":4,"prefix":"Given","index":0,"text":"url 'https:\/\/reqres.in\/api\/users?page=2'"}},{"result":{"nanos":583589760,"millis":583.58976,"status":"passed"},"step":{"line":5,"prefix":"When","index":1,"text":"method GET"},"stepLog":"16:15:03.010 request:\n1 > GET https:\/\/reqres.in\/api\/users?page=2\n1 > Host: reqres.in\n1 > Connection: Keep-Alive\n1 > User-Agent: Apache-HttpClient\/4.5.14 (Java\/17.0.6)\n1 > Accept-Encoding: gzip,deflate\n\n\n16:15:03.378 response time in milliseconds: 358\n1 < 200\n1 < Date: Sun, 21 May 2023 11:13:26 GMT\n1 < Content-Type: application\/json; charset=utf-8\n1 < Transfer-Encoding: chunked\n1 < Connection: keep-alive\n1 < X-Powered-By: Express\n1 < Access-Control-Allow-Origin: *\n1 < Etag: W\/\"406-ut0vzoCuidvyMf8arZpMpJ6ZRDw\"\n1 < Via: 1.1 vegur\n1 < Cache-Control: max-age=14400\n1 < CF-Cache-Status: HIT\n1 < Age: 2693\n1 < Report-To: {\"endpoints\":[{\"url\":\"https:\\\/\\\/a.nel.cloudflare.com\\\/report\\\/v3?s=mZ82qjZPoCzIqijGKZ7Krp7Zjnj0BqVUzgchiE17Ni8smIg2KRO4rOahy1D%2FIfLmpDtia7eyc%2Fr3HUp3UOaV6GY1abIstP8A96EXzD1EbmdNfCbI2R5am6K8ig%3D%3D\"}],\"group\":\"cf-nel\",\"max_age\":604800}\n1 < NEL: {\"success_fraction\":0,\"report_to\":\"cf-nel\",\"max_age\":604800}\n1 < Vary: Accept-Encoding\n1 < Server: cloudflare\n1 < CF-RAY: 7cac63df4e733a65-DME\n{\"page\":2,\"per_page\":6,\"total\":12,\"total_pages\":2,\"data\":[{\"id\":7,\"email\":\"michael.lawson@reqres.in\",\"first_name\":\"Michael\",\"last_name\":\"Lawson\",\"avatar\":\"https:\/\/reqres.in\/img\/faces\/7-image.jpg\"},{\"id\":8,\"email\":\"lindsay.ferguson@reqres.in\",\"first_name\":\"Lindsay\",\"last_name\":\"Ferguson\",\"avatar\":\"https:\/\/reqres.in\/img\/faces\/8-image.jpg\"},{\"id\":9,\"email\":\"tobias.funke@reqres.in\",\"first_name\":\"Tobias\",\"last_name\":\"Funke\",\"avatar\":\"https:\/\/reqres.in\/img\/faces\/9-image.jpg\"},{\"id\":10,\"email\":\"byron.fields@reqres.in\",\"first_name\":\"Byron\",\"last_name\":\"Fields\",\"avatar\":\"https:\/\/reqres.in\/img\/faces\/10-image.jpg\"},{\"id\":11,\"email\":\"george.edwards@reqres.in\",\"first_name\":\"George\",\"last_name\":\"Edwards\",\"avatar\":\"https:\/\/reqres.in\/img\/faces\/11-image.jpg\"},{\"id\":12,\"email\":\"rachel.howell@reqres.in\",\"first_name\":\"Rachel\",\"last_name\":\"Howell\",\"avatar\":\"https:\/\/reqres.in\/img\/faces\/12-image.jpg\"}],\"support\":{\"url\":\"https:\/\/reqres.in\/#support-heading\",\"text\":\"To keep ReqRes free, contributions towards server costs are appreciated!\"}}\n\n"},{"result":{"nanos":22119,"millis":0.022119,"status":"passed"},"step":{"line":6,"prefix":"Then","index":2,"text":"status 200"}}],"executorName":"main","line":3,"name":"Test a sample get api","description":"","durationMillis":585.236666,"startTime":1684678502661,"failed":false,"refId":"[1:3]","endTime":1684678503403,"exampleIndex":-1},{"sectionIndex":1,"stepResults":[{"result":{"nanos":174857741,"millis":174.857741,"status":"passed"},"step":{"line":9,"prefix":"*","index":0,"text":"def response = karate.exec('python tests\/test_status_code.py')"},"stepLog":"16:15:03.415 command: [python, tests\/test_status_code.py], working dir: null\n"},{"result":{"nanos":3444351,"millis":3.444351,"status":"passed"},"step":{"line":10,"prefix":"Then","index":1,"text":"print response"},"stepLog":"16:15:03.588 [print]  \n"}],"executorName":"main","line":8,"name":"Run python file","description":"","durationMillis":178.302092,"startTime":1684678503408,"failed":false,"refId":"[2:8]","endTime":1684678503588,"exampleIndex":-1}],"callDepth":0,"name":"sample api tests","description":"","resultDate":"2023-05-21 04:15:03 PM","durationMillis":763.538758,"passedCount":2}