{"failedCount":1,"prefixedPath":"features\/TestStatusCode.feature","packageQualifiedName":"features.TestStatusCode","loopIndex":-1,"relativePath":"features\/TestStatusCode.feature","scenarioResults":[{"sectionIndex":0,"stepResults":[{"result":{"nanos":1326331,"millis":1.326331,"status":"passed"},"step":{"comments":["#  every reset scenario"],"background":true,"line":5,"prefix":"*","index":0,"text":"url 'https:\/\/reqres.in\/api'"}},{"result":{"nanos":544047,"millis":0.544047,"status":"passed"},"step":{"comments":["#    get all users"],"line":9,"prefix":"Given","index":0,"text":"path '\/users'"}},{"result":{"nanos":2172314,"millis":2.172314,"status":"passed"},"step":{"line":10,"prefix":"And","index":1,"text":"param page = 2"}},{"result":{"nanos":637882723,"millis":637.882723,"status":"passed"},"step":{"line":11,"prefix":"When","index":2,"text":"method GET"},"stepLog":"20:06:57.699 request:\n1 > GET https:\/\/reqres.in\/api\/users?page=2\n1 > Host: reqres.in\n1 > Connection: Keep-Alive\n1 > User-Agent: Apache-HttpClient\/4.5.14 (Java\/17.0.6)\n1 > Accept-Encoding: gzip,deflate\n\n\n20:06:58.091 response time in milliseconds: 386\n1 < 200\n1 < Date: Sun, 21 May 2023 15:05:21 GMT\n1 < Content-Type: application\/json; charset=utf-8\n1 < Transfer-Encoding: chunked\n1 < Connection: keep-alive\n1 < X-Powered-By: Express\n1 < Access-Control-Allow-Origin: *\n1 < Etag: W\/\"406-ut0vzoCuidvyMf8arZpMpJ6ZRDw\"\n1 < Via: 1.1 vegur\n1 < Cache-Control: max-age=14400\n1 < CF-Cache-Status: HIT\n1 < Age: 2189\n1 < Report-To: {\"endpoints\":[{\"url\":\"https:\\\/\\\/a.nel.cloudflare.com\\\/report\\\/v3?s=hGz4OEDfnBJulFZVm3SHMb2ut8Du0wrSEDpCN5NFCj026yhFfxVma%2FRot8DpSm7YCKguYZvYo6ZpUiyKw9Dpy3Yh1dxqw57xWgOcJap9ie6HvVNqrkzC8aOzdw%3D%3D\"}],\"group\":\"cf-nel\",\"max_age\":604800}\n1 < NEL: {\"success_fraction\":0,\"report_to\":\"cf-nel\",\"max_age\":604800}\n1 < Vary: Accept-Encoding\n1 < Server: cloudflare\n1 < CF-RAY: 7cadb7960c111604-DME\n{\"page\":2,\"per_page\":6,\"total\":12,\"total_pages\":2,\"data\":[{\"id\":7,\"email\":\"michael.lawson@reqres.in\",\"first_name\":\"Michael\",\"last_name\":\"Lawson\",\"avatar\":\"https:\/\/reqres.in\/img\/faces\/7-image.jpg\"},{\"id\":8,\"email\":\"lindsay.ferguson@reqres.in\",\"first_name\":\"Lindsay\",\"last_name\":\"Ferguson\",\"avatar\":\"https:\/\/reqres.in\/img\/faces\/8-image.jpg\"},{\"id\":9,\"email\":\"tobias.funke@reqres.in\",\"first_name\":\"Tobias\",\"last_name\":\"Funke\",\"avatar\":\"https:\/\/reqres.in\/img\/faces\/9-image.jpg\"},{\"id\":10,\"email\":\"byron.fields@reqres.in\",\"first_name\":\"Byron\",\"last_name\":\"Fields\",\"avatar\":\"https:\/\/reqres.in\/img\/faces\/10-image.jpg\"},{\"id\":11,\"email\":\"george.edwards@reqres.in\",\"first_name\":\"George\",\"last_name\":\"Edwards\",\"avatar\":\"https:\/\/reqres.in\/img\/faces\/11-image.jpg\"},{\"id\":12,\"email\":\"rachel.howell@reqres.in\",\"first_name\":\"Rachel\",\"last_name\":\"Howell\",\"avatar\":\"https:\/\/reqres.in\/img\/faces\/12-image.jpg\"}],\"support\":{\"url\":\"https:\/\/reqres.in\/#support-heading\",\"text\":\"To keep ReqRes free, contributions towards server costs are appreciated!\"}}\n\n"},{"result":{"nanos":30137,"millis":0.030137,"status":"passed"},"step":{"line":12,"prefix":"Then","index":3,"text":"status 200"}},{"result":{"nanos":9912751,"millis":9.912751,"status":"passed"},"step":{"line":13,"prefix":"And","index":4,"text":"print response"},"stepLog":"20:06:58.133 [print] {\n  \"page\": 2,\n  \"per_page\": 6,\n  \"total\": 12,\n  \"total_pages\": 2,\n  \"data\": [\n    {\n      \"id\": 7,\n      \"email\": \"michael.lawson@reqres.in\",\n      \"first_name\": \"Michael\",\n      \"last_name\": \"Lawson\",\n      \"avatar\": \"https:\/\/reqres.in\/img\/faces\/7-image.jpg\"\n    },\n    {\n      \"id\": 8,\n      \"email\": \"lindsay.ferguson@reqres.in\",\n      \"first_name\": \"Lindsay\",\n      \"last_name\": \"Ferguson\",\n      \"avatar\": \"https:\/\/reqres.in\/img\/faces\/8-image.jpg\"\n    },\n    {\n      \"id\": 9,\n      \"email\": \"tobias.funke@reqres.in\",\n      \"first_name\": \"Tobias\",\n      \"last_name\": \"Funke\",\n      \"avatar\": \"https:\/\/reqres.in\/img\/faces\/9-image.jpg\"\n    },\n    {\n      \"id\": 10,\n      \"email\": \"byron.fields@reqres.in\",\n      \"first_name\": \"Byron\",\n      \"last_name\": \"Fields\",\n      \"avatar\": \"https:\/\/reqres.in\/img\/faces\/10-image.jpg\"\n    },\n    {\n      \"id\": 11,\n      \"email\": \"george.edwards@reqres.in\",\n      \"first_name\": \"George\",\n      \"last_name\": \"Edwards\",\n      \"avatar\": \"https:\/\/reqres.in\/img\/faces\/11-image.jpg\"\n    },\n    {\n      \"id\": 12,\n      \"email\": \"rachel.howell@reqres.in\",\n      \"first_name\": \"Rachel\",\n      \"last_name\": \"Howell\",\n      \"avatar\": \"https:\/\/reqres.in\/img\/faces\/12-image.jpg\"\n    }\n  ],\n  \"support\": {\n    \"url\": \"https:\/\/reqres.in\/#support-heading\",\n    \"text\": \"To keep ReqRes free, contributions towards server costs are appreciated!\"\n  }\n}\n \n"}],"executorName":"main","line":7,"name":"Get list of users","description":"","durationMillis":651.868303,"startTime":1684692417340,"failed":false,"refId":"[1:7]","endTime":1684692418133,"exampleIndex":-1},{"sectionIndex":1,"stepResults":[{"result":{"nanos":793757,"millis":0.793757,"status":"passed"},"step":{"comments":["#  every reset scenario"],"background":true,"line":5,"prefix":"*","index":0,"text":"url 'https:\/\/reqres.in\/api'"}},{"result":{"nanos":457311,"millis":0.457311,"status":"passed"},"step":{"comments":["#    get single user from list of users"],"line":17,"prefix":"Given","index":0,"text":"path '\/users'"}},{"result":{"nanos":1390882,"millis":1.390882,"status":"passed"},"step":{"line":18,"prefix":"And","index":1,"text":"param page = 2"}},{"result":{"nanos":156605078,"millis":156.605078,"status":"passed"},"step":{"line":19,"prefix":"When","index":2,"text":"method GET"},"stepLog":"20:06:58.156 request:\n1 > GET https:\/\/reqres.in\/api\/users?page=2\n1 > Host: reqres.in\n1 > Connection: Keep-Alive\n1 > User-Agent: Apache-HttpClient\/4.5.14 (Java\/17.0.6)\n1 > Accept-Encoding: gzip,deflate\n\n\n20:06:58.306 response time in milliseconds: 146\n1 < 200\n1 < Date: Sun, 21 May 2023 15:05:21 GMT\n1 < Content-Type: application\/json; charset=utf-8\n1 < Transfer-Encoding: chunked\n1 < Connection: keep-alive\n1 < X-Powered-By: Express\n1 < Access-Control-Allow-Origin: *\n1 < Etag: W\/\"406-ut0vzoCuidvyMf8arZpMpJ6ZRDw\"\n1 < Via: 1.1 vegur\n1 < Cache-Control: max-age=14400\n1 < CF-Cache-Status: HIT\n1 < Age: 2189\n1 < Report-To: {\"endpoints\":[{\"url\":\"https:\\\/\\\/a.nel.cloudflare.com\\\/report\\\/v3?s=VfTdbTysxHKRccJquxxDiM1KaRxrlu%2BvK61XAbGqlytUEldKlYXApqQysLiTdQW1IBgmMUeO9W3FRZrb2BX0oqo8kJPYVWVdFJl2AMiThlX3HI1XyNC8pUFBog%3D%3D\"}],\"group\":\"cf-nel\",\"max_age\":604800}\n1 < NEL: {\"success_fraction\":0,\"report_to\":\"cf-nel\",\"max_age\":604800}\n1 < Vary: Accept-Encoding\n1 < Server: cloudflare\n1 < CF-RAY: 7cadb7976c291678-DME\n{\"page\":2,\"per_page\":6,\"total\":12,\"total_pages\":2,\"data\":[{\"id\":7,\"email\":\"michael.lawson@reqres.in\",\"first_name\":\"Michael\",\"last_name\":\"Lawson\",\"avatar\":\"https:\/\/reqres.in\/img\/faces\/7-image.jpg\"},{\"id\":8,\"email\":\"lindsay.ferguson@reqres.in\",\"first_name\":\"Lindsay\",\"last_name\":\"Ferguson\",\"avatar\":\"https:\/\/reqres.in\/img\/faces\/8-image.jpg\"},{\"id\":9,\"email\":\"tobias.funke@reqres.in\",\"first_name\":\"Tobias\",\"last_name\":\"Funke\",\"avatar\":\"https:\/\/reqres.in\/img\/faces\/9-image.jpg\"},{\"id\":10,\"email\":\"byron.fields@reqres.in\",\"first_name\":\"Byron\",\"last_name\":\"Fields\",\"avatar\":\"https:\/\/reqres.in\/img\/faces\/10-image.jpg\"},{\"id\":11,\"email\":\"george.edwards@reqres.in\",\"first_name\":\"George\",\"last_name\":\"Edwards\",\"avatar\":\"https:\/\/reqres.in\/img\/faces\/11-image.jpg\"},{\"id\":12,\"email\":\"rachel.howell@reqres.in\",\"first_name\":\"Rachel\",\"last_name\":\"Howell\",\"avatar\":\"https:\/\/reqres.in\/img\/faces\/12-image.jpg\"}],\"support\":{\"url\":\"https:\/\/reqres.in\/#support-heading\",\"text\":\"To keep ReqRes free, contributions towards server costs are appreciated!\"}}\n\n"},{"result":{"nanos":7768756,"millis":7.768756,"status":"passed"},"step":{"line":20,"prefix":"*","index":3,"text":"def user_id  = response.data[0].id"}},{"result":{"nanos":2846024,"millis":2.846024,"status":"passed"},"step":{"line":21,"prefix":"*","index":4,"text":"def user_name = response.data[0].first_name"}},{"result":{"nanos":46056466,"millis":46.056466,"status":"passed"},"step":{"line":22,"prefix":"And","index":5,"text":"match user_id == 7"}},{"result":{"nanos":1248828,"millis":1.248828,"status":"passed"},"step":{"line":23,"prefix":"And","index":6,"text":"match user_name == 'Michael'"}}],"executorName":"main","line":15,"name":"Get single user","description":"","durationMillis":217.167102,"startTime":1684692418144,"failed":false,"refId":"[2:15]","endTime":1684692418369,"exampleIndex":-1},{"sectionIndex":2,"stepResults":[{"result":{"nanos":223420,"millis":0.22342,"status":"passed"},"step":{"comments":["#  every reset scenario"],"background":true,"line":5,"prefix":"*","index":0,"text":"url 'https:\/\/reqres.in\/api'"}},{"result":{"nanos":182502582,"millis":182.502582,"status":"passed"},"step":{"line":27,"prefix":"*","index":0,"text":"def result = karate.exec('python tests\/test_status_code.py')"},"stepLog":"20:06:58.384 command: [python, tests\/test_status_code.py], working dir: null\n"},{"result":{"nanos":6885945,"millis":6.885945,"status":"passed"},"step":{"line":28,"prefix":"*","index":1,"text":"def ans = karate.extract(result,'Age',1)"},"stepLog":"20:06:58.567 failed to find pattern: Age\n"},{"result":{"nanos":0,"errorMessage":"no step-definition method match found for: responseStatus 200\nfeatures\/TestStatusCode.feature:29","millis":0.0,"status":"failed"},"step":{"line":29,"prefix":"And","index":2,"text":"responseStatus 200"},"stepLog":"20:06:58.571 features\/TestStatusCode.feature:29\nAnd responseStatus 200\nno step-definition method match found for: responseStatus 200\nfeatures\/TestStatusCode.feature:29\n"}],"line":26,"description":"","durationMillis":189.611947,"failed":true,"error":"no step-definition method match found for: responseStatus 200\nfeatures\/TestStatusCode.feature:29","executorName":"main","name":"Run python file","startTime":1684692418375,"refId":"[3:26]","endTime":1684692418571,"exampleIndex":-1}],"callDepth":0,"name":"sample api tests","description":"","resultDate":"2023-05-21 08:06:58 PM","durationMillis":1058.647352,"passedCount":2}