{"failedCount":0,"prefixedPath":"features\/TestGetMethod.feature","packageQualifiedName":"features.TestGetMethod","loopIndex":-1,"relativePath":"features\/TestGetMethod.feature","scenarioResults":[{"sectionIndex":0,"stepResults":[{"result":{"nanos":1079464,"millis":1.079464,"status":"passed"},"step":{"comments":["#  for every scenario"],"background":true,"line":5,"prefix":"*","index":0,"text":"url 'https:\/\/reqres.in\/api'"}},{"result":{"nanos":550497,"millis":0.550497,"status":"passed"},"step":{"comments":["# get all users len should be 6"],"line":9,"prefix":"Given","index":0,"text":"path '\/users'"}},{"result":{"nanos":2093353,"millis":2.093353,"status":"passed"},"step":{"line":10,"prefix":"And","index":1,"text":"param page = 2"}},{"result":{"nanos":485166811,"millis":485.166811,"status":"passed"},"step":{"line":11,"prefix":"When","index":2,"text":"method GET"},"stepLog":"20:29:56.665 request:\n1 > GET https:\/\/reqres.in\/api\/users?page=2\n1 > Host: reqres.in\n1 > Connection: Keep-Alive\n1 > User-Agent: Apache-HttpClient\/4.5.14 (Java\/17.0.6)\n1 > Accept-Encoding: gzip,deflate\n\n\n20:29:57.002 response time in milliseconds: 328\n1 < 200\n1 < Date: Sun, 21 May 2023 15:28:20 GMT\n1 < Content-Type: application\/json; charset=utf-8\n1 < Transfer-Encoding: chunked\n1 < Connection: keep-alive\n1 < X-Powered-By: Express\n1 < Access-Control-Allow-Origin: *\n1 < Etag: W\/\"406-ut0vzoCuidvyMf8arZpMpJ6ZRDw\"\n1 < Via: 1.1 vegur\n1 < Cache-Control: max-age=14400\n1 < CF-Cache-Status: HIT\n1 < Age: 3568\n1 < Report-To: {\"endpoints\":[{\"url\":\"https:\\\/\\\/a.nel.cloudflare.com\\\/report\\\/v3?s=jztzbB%2BvJRHqQLjodJFMDQE8OMoZ2ilOm9OF8NUY2ZvzbmPMczteOE0C6buKJCKUnXfToTUcyXGtDJACxK3X0kWVF27D0Vyz4UZ%2B4ZUEUchaGWe9hhQw4x1htQ%3D%3D\"}],\"group\":\"cf-nel\",\"max_age\":604800}\n1 < NEL: {\"success_fraction\":0,\"report_to\":\"cf-nel\",\"max_age\":604800}\n1 < Vary: Accept-Encoding\n1 < Server: cloudflare\n1 < CF-RAY: 7cadd9401a170c54-DME\n{\"page\":2,\"per_page\":6,\"total\":12,\"total_pages\":2,\"data\":[{\"id\":7,\"email\":\"michael.lawson@reqres.in\",\"first_name\":\"Michael\",\"last_name\":\"Lawson\",\"avatar\":\"https:\/\/reqres.in\/img\/faces\/7-image.jpg\"},{\"id\":8,\"email\":\"lindsay.ferguson@reqres.in\",\"first_name\":\"Lindsay\",\"last_name\":\"Ferguson\",\"avatar\":\"https:\/\/reqres.in\/img\/faces\/8-image.jpg\"},{\"id\":9,\"email\":\"tobias.funke@reqres.in\",\"first_name\":\"Tobias\",\"last_name\":\"Funke\",\"avatar\":\"https:\/\/reqres.in\/img\/faces\/9-image.jpg\"},{\"id\":10,\"email\":\"byron.fields@reqres.in\",\"first_name\":\"Byron\",\"last_name\":\"Fields\",\"avatar\":\"https:\/\/reqres.in\/img\/faces\/10-image.jpg\"},{\"id\":11,\"email\":\"george.edwards@reqres.in\",\"first_name\":\"George\",\"last_name\":\"Edwards\",\"avatar\":\"https:\/\/reqres.in\/img\/faces\/11-image.jpg\"},{\"id\":12,\"email\":\"rachel.howell@reqres.in\",\"first_name\":\"Rachel\",\"last_name\":\"Howell\",\"avatar\":\"https:\/\/reqres.in\/img\/faces\/12-image.jpg\"}],\"support\":{\"url\":\"https:\/\/reqres.in\/#support-heading\",\"text\":\"To keep ReqRes free, contributions towards server costs are appreciated!\"}}\n\n"},{"result":{"nanos":20406,"millis":0.020406,"status":"passed"},"step":{"line":12,"prefix":"Then","index":3,"text":"status 200"}},{"result":{"nanos":3175887,"millis":3.175887,"status":"passed"},"step":{"line":13,"prefix":"*","index":4,"text":"def total_users = response.data.length"}},{"result":{"nanos":10213432,"millis":10.213432,"status":"passed"},"step":{"line":14,"prefix":"And","index":5,"text":"match total_users == 6"}}],"executorName":"main","line":7,"name":"Get list of users","description":"","durationMillis":502.29985,"startTime":1684693796450,"failed":false,"refId":"[1:7]","endTime":1684693797042,"exampleIndex":-1},{"sectionIndex":1,"stepResults":[{"result":{"nanos":330255,"millis":0.330255,"status":"passed"},"step":{"comments":["#  for every scenario"],"background":true,"line":5,"prefix":"*","index":0,"text":"url 'https:\/\/reqres.in\/api'"}},{"result":{"nanos":196746,"millis":0.196746,"status":"passed"},"step":{"comments":["# get single user from list of users"],"line":18,"prefix":"Given","index":0,"text":"path '\/users'"}},{"result":{"nanos":304021,"millis":0.304021,"status":"passed"},"step":{"line":19,"prefix":"And","index":1,"text":"param page = 2"}},{"result":{"nanos":143168841,"millis":143.168841,"status":"passed"},"step":{"line":20,"prefix":"When","index":2,"text":"method GET"},"stepLog":"20:29:57.050 request:\n1 > GET https:\/\/reqres.in\/api\/users?page=2\n1 > Host: reqres.in\n1 > Connection: Keep-Alive\n1 > User-Agent: Apache-HttpClient\/4.5.14 (Java\/17.0.6)\n1 > Accept-Encoding: gzip,deflate\n\n\n20:29:57.192 response time in milliseconds: 141\n1 < 200\n1 < Date: Sun, 21 May 2023 15:28:20 GMT\n1 < Content-Type: application\/json; charset=utf-8\n1 < Transfer-Encoding: chunked\n1 < Connection: keep-alive\n1 < X-Powered-By: Express\n1 < Access-Control-Allow-Origin: *\n1 < Etag: W\/\"406-ut0vzoCuidvyMf8arZpMpJ6ZRDw\"\n1 < Via: 1.1 vegur\n1 < Cache-Control: max-age=14400\n1 < CF-Cache-Status: HIT\n1 < Age: 3568\n1 < Report-To: {\"endpoints\":[{\"url\":\"https:\\\/\\\/a.nel.cloudflare.com\\\/report\\\/v3?s=71GeBT4wgHD4eKsDklYoD9ytMxqGu2fAPi5Iv5sBaLOpDCMPt0MVKMPvNkM7mjRjv3UwpiMvl2Qb9X8sn8RyNZgMfjLZGUajLvOksReJQuDMko7o%2BHQl8FuvTA%3D%3D\"}],\"group\":\"cf-nel\",\"max_age\":604800}\n1 < NEL: {\"success_fraction\":0,\"report_to\":\"cf-nel\",\"max_age\":604800}\n1 < Vary: Accept-Encoding\n1 < Server: cloudflare\n1 < CF-RAY: 7cadd9417e9b1672-DME\n{\"page\":2,\"per_page\":6,\"total\":12,\"total_pages\":2,\"data\":[{\"id\":7,\"email\":\"michael.lawson@reqres.in\",\"first_name\":\"Michael\",\"last_name\":\"Lawson\",\"avatar\":\"https:\/\/reqres.in\/img\/faces\/7-image.jpg\"},{\"id\":8,\"email\":\"lindsay.ferguson@reqres.in\",\"first_name\":\"Lindsay\",\"last_name\":\"Ferguson\",\"avatar\":\"https:\/\/reqres.in\/img\/faces\/8-image.jpg\"},{\"id\":9,\"email\":\"tobias.funke@reqres.in\",\"first_name\":\"Tobias\",\"last_name\":\"Funke\",\"avatar\":\"https:\/\/reqres.in\/img\/faces\/9-image.jpg\"},{\"id\":10,\"email\":\"byron.fields@reqres.in\",\"first_name\":\"Byron\",\"last_name\":\"Fields\",\"avatar\":\"https:\/\/reqres.in\/img\/faces\/10-image.jpg\"},{\"id\":11,\"email\":\"george.edwards@reqres.in\",\"first_name\":\"George\",\"last_name\":\"Edwards\",\"avatar\":\"https:\/\/reqres.in\/img\/faces\/11-image.jpg\"},{\"id\":12,\"email\":\"rachel.howell@reqres.in\",\"first_name\":\"Rachel\",\"last_name\":\"Howell\",\"avatar\":\"https:\/\/reqres.in\/img\/faces\/12-image.jpg\"}],\"support\":{\"url\":\"https:\/\/reqres.in\/#support-heading\",\"text\":\"To keep ReqRes free, contributions towards server costs are appreciated!\"}}\n\n"},{"result":{"nanos":1300652,"millis":1.300652,"status":"passed"},"step":{"line":21,"prefix":"*","index":3,"text":"def user_id  = response.data[0].id"}},{"result":{"nanos":636694,"millis":0.636694,"status":"passed"},"step":{"line":22,"prefix":"*","index":4,"text":"def user_name = response.data[0].first_name"}},{"result":{"nanos":638168,"millis":0.638168,"status":"passed"},"step":{"line":23,"prefix":"And","index":5,"text":"match user_id == 7"}},{"result":{"nanos":1467324,"millis":1.467324,"status":"passed"},"step":{"line":24,"prefix":"And","index":6,"text":"match user_name == 'Michael'"}}],"executorName":"main","line":16,"name":"Get single user","description":"","durationMillis":148.042701,"startTime":1684693797046,"failed":false,"refId":"[2:16]","endTime":1684693797197,"exampleIndex":-1},{"sectionIndex":2,"stepResults":[{"result":{"nanos":214391,"millis":0.214391,"status":"passed"},"step":{"comments":["#  for every scenario"],"background":true,"line":5,"prefix":"*","index":0,"text":"url 'https:\/\/reqres.in\/api'"}},{"result":{"nanos":110890845,"millis":110.890845,"status":"passed"},"step":{"line":27,"prefix":"*","index":0,"text":"def result = karate.exec('python tests\/test_runner.py')"},"stepLog":"20:29:57.207 command: [python, tests\/test_runner.py], working dir: null\n"},{"result":{"nanos":2611071,"millis":2.611071,"status":"passed"},"step":{"line":28,"prefix":"And","index":1,"text":"print result.length"},"stepLog":"20:29:57.315 [print] 0 \n"}],"executorName":"main","line":26,"name":"Run python file","description":"","durationMillis":113.716307,"startTime":1684693797201,"failed":false,"refId":"[3:26]","endTime":1684693797316,"exampleIndex":-1}],"callDepth":0,"name":"sample api tests","description":"","resultDate":"2023-05-21 08:29:57 PM","durationMillis":764.058858,"passedCount":3}